 %!PS-Adobe-3.0 EPSF-3.0
%%Creator: me
%%Title: barcodes
%%DocumentData: Clean7Bit
%%Origin: 0 0
%%BoundingBox: 0 0 100 100
%%LanguageLevel: 2
%%Pages: 1
   
%% A4 is 595 x 842 points

/barh { 10 } def

/wbar {
	newpath
	0 0 moveto
	0 10 rlineto
	0.6 0 rlineto
	0 -10 rlineto
	closepath
	0 0 0 setrgbcolor
	fill
	1 0 translate
} def

/sbar {
	newpath
	0 0 moveto
	0 10 rlineto
	0.4 0 rlineto
	0 -10 rlineto
	closepath
	0 0 0 setrgbcolor
	fill
	1 0 translate
} def

8 8 scale

5 5 translate

wbar
wbar
wbar
wbar
wbar
wbar
wbar
wbar

sbar
sbar
sbar
sbar
sbar
sbar
sbar
sbar

wbar

%%EOF
