$ 1 0.000005 7.010541234668786 40 5 43
a 224 560 320 560 1 50 0 1000000
g 704 592 704 608 0
w 224 576 224 624 0
w 656 512 704 512 2
R 224 544 192 544 0 0 40 4.2 0 0 0.5
R 704 304 704 272 0 0 40 10 0 0 0.5
r 704 304 704 384 0 0.1
w 704 384 704 416 0
r 320 624 224 624 0 10000
d 704 448 704 416 1 0.805904783
r 624 304 704 304 0 10
w 624 336 624 384 0
w 624 384 704 384 0
w 624 304 624 256 0
w 624 256 480 256 0
w 480 256 480 304 0
r 480 336 480 432 0 500
g 480 432 480 448 0
a 624 320 528 320 1 15 -15 1000000
v 800 592 800 512 0 0 40 4 0 0 0.5
v 896 512 896 592 0 0 40 5 0 0 0.5
f 528 320 480 320 0 1.5
a 224 480 320 480 0 50 0 1000000
R 224 496 192 496 0 0 40 5 0 0 0.5
w 480 336 224 336 0
w 224 336 224 464 0
w 656 624 320 624 0
w 656 624 656 512 0
w 656 432 528 432 0
w 528 432 528 496 0
d 480 336 480 304 1 0.805904783
w 448 496 528 496 0
w 704 512 768 512 0
w 704 592 768 592 0
r 704 512 704 592 0 10000
d 704 448 704 512 1 0.805904783
r 384 560 320 560 0 100
r 384 480 320 480 0 100
t 656 432 704 432 0 -1 38.50068478466361 39.043660894942036 100
t 384 560 416 560 0 1 -48.92447506380799 0.12836825027742144 100
t 384 480 416 480 0 1 0.6225509260217024 0.6134743097686197 100
w 416 496 416 544 0
g 416 576 416 592 0
w 416 464 448 464 0
w 448 464 448 496 0
