$ 1 0.000005 14.235633750745258 40 5 43
r 544 336 640 336 0 49000
w 640 288 640 336 0
w 544 304 544 336 0
r 544 336 464 336 0 1000
r 464 272 464 336 0 0.1
g 464 336 464 352 0
a 544 288 640 288 1 15 -15 1000000
w 464 272 544 272 0
R 464 144 464 112 0 0 40 10 0 0 0.5
a 640 224 544 224 1 50 0 1000000
w 640 240 640 288 0
R 736 208 768 208 0 0 40 5 0 0 0.5
w 512 160 544 160 2
r 544 160 544 224 0 100
f 512 160 464 160 0 1.5
v 416 272 416 176 0 0 40 4 0 0 0.5
r 736 208 672 208 0 1000
w 640 208 672 208 0
t 704 256 672 256 0 1 -5.0000200078948405 -0.000020007994840574815 100
w 672 208 672 240 0
g 672 272 672 288 0
r 704 256 768 256 0 100
w 416 176 464 176 0
d 416 272 464 272 1 0.805904783
r 160 240 256 240 0 10000
w 160 192 160 240 2
r 256 176 336 176 0 10000
w 336 176 416 176 2
w 160 240 160 400 0
w 160 400 848 400 0
w 848 272 848 400 0
r 416 48 416 144 0 50
w 256 208 256 240 0
r 256 112 256 176 0 10000
r 256 208 336 208 0 10000
w 336 208 336 272 0
w 336 272 416 272 2
R 848 240 880 240 0 0 40 4.2 0 0 0.5
g 256 112 256 96 0
a 256 192 160 192 1 15 0 1000000
a 848 256 768 256 0 15 0 1000000
w 640 336 928 336 0
w 848 272 928 272 0
w 768 256 768 368 0
w 768 368 928 368 0
v 880 48 880 144 0 0 40 5 0 0 0.5
o 1 64 0 35 9.353610478917778 0.00018268770466636287 0 -1
o 14 64 1 35 20 0.00009765625 1 -1
