$ 1 0.000005 19.867427341514983 40 5 43
a 736 128 640 128 1 10 0 1000000
r 528 288 528 224 0 1
r 640 128 560 128 0 100
R 528 112 528 80 0 0 40 10 0 0 0.5
R 736 112 768 112 0 0 40 5 0 0 0.5
g 528 288 528 304 0
w 736 144 736 240 0
w 592 224 560 224 0
a 592 240 688 240 1 10 0 1000000
w 688 240 736 240 0
r 592 288 688 288 0 4000
w 688 240 688 288 0
w 592 256 592 288 0
r 592 288 592 368 0 1000
g 592 368 592 384 0
a 384 208 304 208 1 10 0 1000000
r 384 192 464 192 0 10000
w 384 224 384 256 0
w 304 208 304 256 0
r 384 192 384 112 0 10000
r 304 256 384 256 0 10000
g 384 112 384 96 0
r 384 224 464 224 0 10000
w 464 224 528 224 0
w 464 192 464 144 0
w 464 144 528 144 0
t 592 160 560 160 0 1 -5.848388893519502 -0.000009008194836003314 100
w 560 128 560 144 0
g 560 176 560 192 0
r 592 160 672 160 0 100
w 672 160 672 192 0
w 672 192 768 192 0
w 848 208 848 416 0
w 848 416 304 416 0
w 304 256 304 416 2
R 848 176 880 176 0 0 40 4.19 0 0 0.5
a 848 192 768 192 0 10 0 1000000
w 768 192 768 256 0
w 768 256 880 256 0
w 736 240 736 336 0
w 736 336 880 336 0
w 848 416 880 416 0
w 880 416 976 416 2
w 880 336 976 336 2
w 880 256 976 256 2
w 560 224 528 224 0
v 528 224 528 144 0 0 40 4.1 0 0 0.5
v 400 288 400 368 0 0 40 2 0 0 0.5
t 560 128 528 128 0 1 -4.151620114675334 0.7483435632362774 100
o 1 64 1 35 1.25 0.00009765625 0 -1
