$ 1 5.0000000000000004e-8 12.050203812241895 40 5 43
a 912 384 1008 384 1 50 0 1000000
f 1088 384 1136 384 0 1.5
r 1136 432 1136 512 0 0.1
w 912 400 912 432 0
w 912 432 1136 432 0
w 1136 400 1136 432 0
g 1136 512 1136 528 0
R 1136 160 1136 128 0 0 40 6 0 0 0.5
172 720 368 688 368 0 6 4.45 5 0 0 0.5 Voltage
r 720 368 816 368 0 20000
r 816 368 816 448 0 470
g 816 448 816 464 0
w 864 368 912 368 0
r 1184 160 1184 240 0 1
w 1008 240 1040 240 0
v 1312 160 1312 240 0 0 40 20 0 0 0.5
v 1376 240 1376 160 0 0 40 20 0 0 0.5
w 1088 384 1008 384 0
f 1088 320 1136 320 0 1.5
w 1136 336 1136 368 0
d 1136 240 1136 304 1 0.805904783
a 496 352 592 352 1 15 -15 1000000
r 640 400 640 480 0 150
f 592 352 640 352 0 1.5
g 640 480 640 496 0
w 496 368 496 400 0
w 496 400 640 400 0
w 640 368 640 400 0
r 640 256 640 336 0 2200
R 640 256 640 224 0 0 40 6 0 0 0.5
172 320 336 288 336 0 6 3.9 5 0 0 0.5 Voltage
r 400 336 400 400 0 1800
g 400 400 400 416 0
r 400 336 320 336 0 22000
w 448 336 496 336 0
a 896 320 976 320 1 50 0 1000000
w 976 320 1088 320 0
w 896 240 896 304 0
w 640 336 896 336 0
c 1088 160 1088 240 0 0.000009999999999999999 4.325706469655138
w 1136 240 1088 240 0
w 1088 160 1136 160 0
a 912 512 816 512 1 15 -15 1000000
r 912 560 912 640 0 470
r 816 560 912 560 0 20000
g 912 640 912 656 0
w 816 560 816 512 0
w 912 528 912 560 0
w 912 496 912 432 0
c 464 352 464 416 0 0.000009999999999999999 0.0009999999999999994
g 448 400 448 416 0
w 448 336 400 336 0
c 880 384 880 464 0 0.000009999999999999999 0.0009999999999999994
g 864 448 864 464 0
w 864 368 816 368 0
r 1008 240 896 240 0 10000
a 848 192 768 192 1 15 -15 1000000
w 768 192 768 240 0
w 848 240 848 208 0
w 944 176 1008 176 0
w 1008 176 1008 240 0
r 848 176 944 176 0 10000
x 916 321 945 324 0 10 hi_vin
w 768 240 848 240 0
x 799 195 828 198 0 10 hi_vin
r 768 192 672 192 0 10000
r 672 192 672 112 0 30000
g 672 112 688 112 0
w 672 192 592 192 2
w 1248 160 1248 240 0
r 1040 240 1040 160 0 100000
w 1040 240 1088 240 0
w 1040 160 1088 160 0
o 13 64 0 291 0.0000762939453125 0.00009765625 0 -1
o 28 64 0 291 8.749002899132048 0.00546812681195753 1 -1
o 12 64 0 291 0.14615016373309028 9.765625e-55 2 -1
