$ 1 0.000005 7.010541234668786 40 5 43
a 224 560 320 560 1 50 0 1000000
g 704 592 704 608 0
w 224 576 224 624 0
w 656 512 704 512 2
R 224 544 192 544 0 0 40 4.2 0 0 0.5
R 704 304 704 272 0 0 40 5 0 0 0.5
r 704 304 704 384 0 0.1
w 704 384 704 416 0
r 320 624 224 624 0 10000
d 704 448 704 416 1 0.805904783
r 624 304 704 304 0 20
w 624 336 624 384 0
w 624 384 704 384 0
w 624 304 624 256 0
w 624 256 480 256 0
v 832 592 832 512 0 0 40 4 0 0 0.5
v 896 512 896 592 0 0 40 5 0 0 0.5
w 656 624 320 624 0
w 656 624 656 512 0
w 656 432 528 432 0
w 528 432 528 496 0
w 448 496 528 496 0
w 704 512 768 512 0
w 704 592 768 592 0
r 704 512 704 592 0 10000
d 704 448 704 512 1 0.805904783
r 384 560 320 560 0 1000
r 384 480 320 480 0 1000
t 656 432 704 432 0 -1 -0.3657793779602976 -0.5542209265538665 100
t 384 560 416 560 0 1 -3.812251778976003 0.6332305502719247 100
t 384 480 416 480 0 1 0.6498044069985047 0.6500587197412244 100
w 416 496 416 544 0
g 416 576 416 592 0
w 416 464 448 464 0
w 448 464 448 496 0
w 320 528 320 560 0
c 320 448 384 448 0 5e-11 9.904459929771694
w 384 448 384 480 0
w 320 448 320 480 0
c 320 528 384 528 0 5e-11 0.09908775211851806
w 384 528 384 560 0
r 800 528 800 608 0 1
r 480 256 368 256 0 10000
R 368 256 336 256 0 0 40 0 0 0 0.5
w 528 320 320 320 0
w 320 320 320 448 0
a 624 320 528 320 0 15 -15 1000000
o 41 64 0 289 0.0000762939453125 0.00009765625 0 -1
