$ 1 0.000005 14.235633750745258 40 5 43
r 544 336 640 336 0 49000
w 640 288 640 336 0
w 544 304 544 336 0
r 544 336 464 336 0 1000
r 416 272 416 336 0 0.1
g 416 336 416 352 0
a 544 288 640 288 1 15 -15 1000000
w 416 272 544 272 0
R 416 112 416 80 0 0 40 10 0 0 0.5
a 640 224 544 224 1 50 0 1000000
w 640 240 640 288 0
R 736 208 768 208 0 0 40 5 0 0 0.5
f 464 240 416 240 0 1.5
r 736 208 672 208 0 10000
w 640 208 672 208 0
t 704 256 672 256 0 1 0.6524147963155508 0.6532366741307324 100
w 672 208 672 240 0
g 672 272 672 288 0
r 704 256 768 256 0 1000
r 160 240 256 240 0 10000
w 160 192 160 240 2
r 256 176 336 176 0 10000
w 368 160 416 160 2
w 160 240 160 400 0
w 160 400 848 400 0
w 848 272 848 400 0
w 256 208 256 240 0
r 256 112 256 176 0 10000
r 256 208 336 208 0 10000
w 336 208 336 224 0
w 368 224 416 224 2
R 848 240 880 240 0 0 40 4.2 0 0 0.5
g 256 112 256 96 0
a 256 192 160 192 1 15 0 1000000
a 848 256 768 256 0 15 0 1000000
w 640 336 928 336 2
w 848 272 928 272 2
d 416 256 416 224 1 0.805904783
w 416 256 416 272 0
r 464 240 544 240 0 100
w 544 240 544 224 0
v 464 192 464 128 0 0 40 4 0 0 0.5
w 464 336 416 336 0
d 416 112 416 160 1 0.805904783
w 336 176 336 160 0
v 512 80 512 144 0 0 40 5 0 0 0.5
r 368 224 368 160 0 20000
w 368 160 336 160 0
w 336 224 368 224 0
o 1 64 0 35 0.009134385233318143 0.00009134385233318143 0 -1
o 12 64 1 35 0.0048828125 0.00009765625 1 -1
