$ 1 5.0000000000000004e-8 2.803162489452614 40 5 43
a 816 368 912 368 1 50 0 1000000
f 1040 336 1088 336 0 1.5 0.02
r 1088 384 1088 464 0 0.9
w 816 384 816 416 0
w 816 416 1040 416 0
w 1088 352 1088 384 0
g 1088 464 1088 480 0
R 1088 112 1088 80 0 0 40 7 0 0 0.5
172 624 352 592 352 0 6 2.75 5 0 0 0.5 Voltage
r 624 352 720 352 0 20000
r 720 352 720 432 0 4700
g 720 432 720 448 0
w 768 352 816 352 0
r 1168 112 1168 192 0 1
w 960 192 992 192 0
v 1232 112 1232 192 0 0 40 20 0 0 0.5
v 1264 192 1264 112 0 0 40 5 0 0 0.5
w 1040 336 992 336 0
f 1040 272 1088 272 0 1.5 0.02
w 1088 288 1088 320 0
d 1088 192 1088 256 1 0.805904783
a 272 256 368 256 1 15 -15 1000000
r 416 304 416 384 0 150
f 368 256 416 256 0 1.5 0.02
g 416 384 416 400 0
w 272 272 272 304 0
w 272 304 416 304 0
w 416 272 416 304 0
r 464 160 464 240 0 2200
R 464 160 464 128 0 0 40 7 0 0 0.5
172 96 240 64 240 0 6 2.5 5 0 0 0.5 Voltage
r 176 240 176 304 0 1800
g 176 304 176 320 0
r 176 240 96 240 0 22000
w 224 240 272 240 0
a 848 240 928 240 1 50 0 1000000
w 928 272 1040 272 0
w 848 192 848 224 0
w 640 256 768 256 0
c 1040 112 1040 192 0 0.000009999999999999999 4.09460554734372
w 1088 192 1040 192 0
w 1040 112 1088 112 0
a 816 496 720 496 1 15 -15 1000000
r 816 544 816 624 0 4700
r 720 544 816 544 0 20000
g 816 624 816 640 0
w 720 544 720 496 0
w 816 512 816 544 0
w 816 480 816 416 0
c 224 240 224 304 0 0.000009999999999999999 0.18702552103103265
g 224 304 224 320 0
w 224 240 176 240 0
c 768 352 768 432 0 0.000009999999999999999 0.4464186373396283
g 768 432 768 448 0
w 768 352 720 352 0
r 960 192 848 192 0 10000
a 800 144 720 144 1 15 -15 1000000
w 720 144 720 192 0
w 800 192 800 160 0
w 896 128 960 128 0
w 960 128 960 192 0
r 800 128 896 128 0 10000
x 868 241 897 244 0 10 hi_vin
w 720 192 800 192 0
x 751 147 780 150 0 10 hi_vin
r 720 144 624 144 0 10000
r 624 144 624 64 0 33000
g 624 64 640 64 0
w 624 144 544 144 2
w 1200 112 1200 192 0
r 992 192 992 112 0 100000
w 992 192 1040 192 0
w 992 112 1040 112 0
z 1136 384 1136 320 1 0.805904783 5.6
w 1088 256 1136 256 0
w 1136 384 1088 384 0
w 1088 320 1136 320 0
z 1136 320 1136 256 1 0.805904783 5.6
w 928 272 928 240 0
r 848 288 928 288 0 100000
w 928 272 928 288 0
w 848 288 848 256 0
r 1136 192 1136 112 0 1000
a 544 256 640 256 1 15 -15 1000000
w 544 240 464 240 0
w 544 272 544 304 0
w 544 304 640 304 0
w 640 304 640 256 0
r 768 256 848 256 0 1000
c 416 240 416 160 0 0.00001 -2.4927080315886228
w 416 160 464 160 0
w 416 240 464 240 0
c 848 320 928 320 0 1e-9 4.462786013814409
w 928 288 928 320 0
w 848 288 848 320 0
w 912 368 992 368 0
w 1040 416 1040 384 0
w 1040 384 1088 384 0
w 1104 112 1104 192 0
r 720 496 624 496 0 10000
w 992 368 992 336 0
c 560 496 560 560 0 1.0000000000000001e-7 2.475353917632964
g 560 560 560 576 0
w 560 496 624 496 0
c 544 144 544 208 0 1.0000000000000001e-7 3.191248588142927
g 544 208 544 224 0
d 560 496 560 432 1 0.805904783
R 560 432 560 400 0 0 40 5 0 0 0.5
d 544 144 544 80 1 0.805904783
R 544 80 544 48 0 0 40 5 0 0 0.5
x 572 257 601 260 0 10 hi_vin
x 761 499 790 502 0 10 hi_vin
x 844 371 873 374 0 10 hi_vin
x 297 259 326 262 0 10 hi_vin
o 13 64 0 291 0.0000762939453125 0.00009765625 0 -1
o 28 64 0 291 4.374501449566024 0.0013670317029893825 1 -1
o 12 64 0 291 0.5846006549323611 9.765625e-55 2 -1
o 70 64 0 291 5 0.00009765625 3 -1
