$ 1 0.000005 7.010541234668786 40 5 43
g 736 528 736 544 0
w 256 512 256 544 0
w 688 448 736 448 2
R 128 480 96 480 0 0 40 4.2 0 0 0.5
R 736 240 736 208 0 0 40 5 0 0 0.5
r 736 240 736 320 0 0.1
w 736 320 736 352 0
d 736 384 736 352 1 0.805904783
r 656 240 736 240 0 20
w 656 272 656 320 0
w 656 320 736 320 0
w 656 240 656 192 0
w 656 192 512 192 0
v 864 528 864 448 0 0 40 4 0 0 0.5
v 928 448 928 528 0 0 40 5 0 0 0.5
w 688 592 464 592 0
w 688 592 688 448 0
w 688 368 560 368 0
w 560 368 560 432 0
w 480 432 560 432 0
w 736 448 800 448 0
w 736 528 800 528 0
r 736 448 736 528 0 10000
d 736 384 736 448 1 0.805904783
r 416 496 352 496 0 1000
r 416 416 352 416 0 1000
t 688 368 736 368 0 -1 -0.36211474400235755 -0.5541975478001344 100
t 416 496 448 496 0 1 -3.8122753284667654 0.633230442543316 100
t 416 416 448 416 0 1 0.6498043485270246 0.6500586363919281 100
w 448 432 448 480 0
g 448 512 448 528 0
w 448 400 480 400 0
w 480 400 480 432 0
w 352 464 352 496 0
c 352 384 416 384 0 5e-11 9.904436571362652
w 416 384 416 416 0
w 352 384 352 416 0
c 352 464 416 464 0 5e-11 0.09908732513599672
w 416 464 416 496 0
r 832 464 832 544 0 1
r 512 192 400 192 0 10000
R 400 192 368 192 0 0 40 0 0 0 0.5
w 560 256 352 256 0
w 352 256 352 384 0
a 656 256 560 256 0 15 -15 1000000
w 208 480 256 480 0
r 128 480 208 480 0 1000
w 256 608 384 608 0
a 464 608 384 608 1 15 -15 1000000
w 464 624 464 656 0
w 464 656 384 656 0
w 384 656 384 608 0
r 256 544 256 608 0 1000
r 256 544 352 544 0 200000
w 480 544 480 480 0
w 480 480 448 480 0
a 256 496 352 496 1 15 -15 1000000
a 80 560 176 560 0 50 0 1000000
w 608 544 480 544 0
w 352 496 352 544 0
r 208 480 208 576 0 200000
g 208 576 208 592 0
o 39 64 0 289 0.0000762939453125 0.00009765625 0 -1
o 2 64 0 551 5 0.00009765625 1 -1
