$ 1 0.000005 14.235633750745258 40 5 43
a 560 448 656 448 1 50 0 1000000
r 704 512 704 592 0 1
g 704 592 704 608 0
w 560 464 560 512 0
w 656 512 704 512 0
R 560 432 528 432 0 0 40 4.2 0 0 0.5
f 656 448 704 448 0 1.5
R 704 272 704 240 0 0 40 10 0 0 0.5
r 704 272 704 352 0 0.1
a 784 288 880 288 0 50 0 1000000
r 704 272 784 272 0 10
f 752 400 704 400 0 1.5
w 704 416 704 432 0
w 784 304 784 352 0
w 704 352 784 352 2
w 704 352 704 384 0
w 784 272 784 224 0
w 784 224 928 224 2
w 880 288 880 400 0
w 880 400 752 400 0
g 928 320 928 336 0
t 960 288 928 288 0 1 -9.265428617958877 0.6336812157592221 100
t 960 288 992 288 0 1 0 0.6336812157592221 100
w 960 288 960 256 0
w 960 256 992 256 0
w 992 256 992 272 0
w 928 224 928 272 0
w 928 304 928 320 0
w 928 320 992 320 0
w 992 320 992 304 0
r 992 256 1072 256 0 400
172 1072 256 1104 256 0 6 4.75 5 0 0 0.5 Voltage
r 656 512 560 512 0 10000
v 1008 496 1008 416 0 0 40 4 0 0 0.5
v 1120 544 1120 624 0 0 40 5 0 0 0.5
r 816 480 816 560 0 100000
d 704 464 704 432 1 0.805904783
d 704 416 704 384 1 0.805904783
d 704 464 704 512 1 0.805904783
