$ 1 5e-9 13.097415321081861 50 5 43
R 256 496 224 496 0 2 15000 0.5 0.5 0 0.1
v 192 384 256 384 0 2 500000 0.1 0 0 0.5
w 352 384 496 384 0
r 256 384 352 384 0 75
t 304 496 352 496 0 1 -0.5910736702941588 4.999999999710444e-12 100
r 304 496 256 496 0 100
w 352 384 352 480 0
g 352 512 352 528 0
R 192 384 160 384 0 0 40 0.5 0 0 0.5
w 704 416 704 432 0
w 800 400 848 400 0
r 704 320 704 384 0 1000
r 656 432 656 496 0 1000
w 496 384 496 432 0
c 704 432 704 496 0 1e-8 0.020193894558029606
g 704 496 704 512 0
g 576 336 576 352 0
r 496 272 576 272 0 10000
w 672 240 720 240 0
w 576 256 576 272 0
r 576 272 576 336 0 200
R 496 272 464 272 0 0 40 5 0 0 0.5
a 576 240 672 240 1 5 0 1000000
w 576 224 416 224 0
w 416 224 416 336 0
w 416 336 496 336 0
w 496 336 496 384 0
d 496 384 576 384 1 0.805904783
d 496 432 576 432 1 0.805904783
g 656 496 656 512 0
w 656 432 704 432 0
g 704 320 704 304 0
r 576 432 656 432 0 10
w 576 384 704 384 0
r 800 400 800 320 0 1000
R 800 320 800 288 0 0 40 5 0 0 0.5
R 672 160 672 128 0 0 40 5 0 0 0.5
r 672 240 672 160 0 1000
a 704 400 800 400 1 5 0 1000000
x 293 361 483 364 0 24 "composite video"
o 2 32 0 551 0.9568131466127622 0.0002990041083164882 0 -1
o 10 32 0 551 10 0.00009765625 1 -1
o 18 64 0 551 10 0.00009765625 2 -1
