$ 1 5e-9 21.593987231061412 50 5 43
r 784 272 784 352 0 1
R 576 240 576 208 0 0 40 20 0 0 0.5
d 576 336 576 272 1 0.805904783
l 576 272 656 272 0 0.0005 1.9429321407140534
g 576 336 576 352 0
f 528 256 576 256 0 1.5 0.02
g 784 416 784 432 0
R 416 256 384 256 0 0 40 20 0 0 0.5
t 432 288 432 256 0 -1 -0.6669806563033305 0.030644415201749098 100
w 448 256 480 256 0
r 432 288 432 368 0 1000
r 480 256 480 336 0 1000
g 480 336 480 352 0
t 400 384 432 384 0 1 0.6280472594211413 0.6586916746235489 100
g 432 400 432 416 0
R 320 384 288 384 0 2 50000 5 0 0 0.8
r 320 384 400 384 0 1000
v 784 416 784 352 0 0 40 1 0 0 0.5
w 528 256 480 256 0
c 720 272 720 352 0 0.00009999999999999999 2.916853015762555
w 784 352 912 352 2
w 784 272 912 272 2
x 719 251 1003 254 0 16 subtract voltage from battery in software
w 720 272 784 272 0
r 656 272 656 352 0 1000
g 656 352 656 368 0
w 720 272 656 272 0
g 720 352 720 368 0
o 0 64 0 2083 6.2640463352675395 8.017979309142452 0 -1 0
o 3 64 0 2083 20 3.2 1 -1 0
o 21 64 0 2083 5 0.00009765625 2 -1 0
