$ 1 5e-9 9.001713130052181 50 5 43
r 752 144 752 224 0 1
R 544 112 544 80 0 0 40 20 0 0 0.5
d 544 208 544 144 1 0.805904783
l 544 144 624 144 0 0.00009999999999999999 0.987420718593688
g 544 208 544 224 0
f 496 128 544 128 0 1.5 0.02
g 752 288 752 304 0
R 384 128 352 128 0 0 40 30 0 0 0.5
t 400 160 400 128 0 -1 -0.027464202749005295 29.972535797150996 100
w 416 128 448 128 0
r 400 160 400 240 0 1000
r 448 128 448 208 0 1000
g 448 208 448 224 0
t 368 256 400 256 0 1 -29.972535797101 4.999999999801981e-11 100
g 400 272 400 288 0
r 288 256 368 256 0 1000
w 496 128 448 128 0
c 688 144 688 224 0 0.000001 2.002405167874539
w 752 224 880 224 2
w 752 144 880 144 2
w 688 144 752 144 0
r 624 144 624 224 0 1000
g 624 224 624 240 0
w 688 144 624 144 0
g 688 224 688 240 0
r 752 224 752 288 0 1
a 880 240 976 240 1 5 0 1000000 1 1.0012025839372698
R 880 176 848 176 0 0 40 4.2 0 0 0.5
a 880 160 976 160 1 5 0 1000000 4.2 2.002405167874539
R 880 256 848 256 0 0 40 1 0 0 0.5
152 1072 224 1184 224 0 2 5 5
w 1072 160 1072 208 0
w 288 256 288 368 0
182 976 240 1072 240 0 0.5 1.66 3.33
182 976 160 1072 160 0 0.5 1.66 3.33
w 528 352 1184 352 0
183 1184 224 1184 320 0 0.5 1.66 3.33
w 1184 320 1184 352 0
w 192 368 192 448 0
r 288 448 384 448 0 1000
c 384 480 384 544 0 1e-9 1.2612042320263175
g 384 544 384 560 0
154 400 368 288 368 0 2 0 5
182 384 448 464 448 0 0.5 1.66 3.33
w 416 400 400 384 0
150 528 400 416 400 0 2 0 5
w 528 352 528 384 0
w 528 352 400 352 0
w 528 416 528 448 0
w 528 448 464 448 0
w 192 368 288 368 0
d 192 448 288 448 1 0.805904783
r 192 480 384 480 0 2000
w 384 448 384 480 0
w 192 448 192 480 0
o 3 64 0 2091 20 1.6 0 -1 0
o 18 64 0 2082 1.093625362391506 9.946464728195733e-15 1 -1 0
o 0 64 0 2083 1.25 1.6 2 -1 0
