$ 1 1e-8 25.510281670702206 50 5 43
R -32 96 -64 96 0 2 10000 0.35000000000000003 0.6 0 0.5
r -32 96 48 96 0 1000
t 0 160 48 160 0 1 -5.24999999985 -4.99999999995 100
w 48 96 48 144 0
g 48 176 48 192 0
r 0 160 -80 160 0 1000
R -80 160 -112 160 0 2 15625 5 0 0 0.1
a 96 112 192 112 1 15 -15 1000000 0.24999749992500073 0.24999999989999996
w 192 112 192 160 0
w 192 160 96 160 0
w 96 128 96 160 0
w 96 96 48 96 0
r 464 144 464 64 0 20000
R 464 64 464 32 0 0 40 5 0 0 0.5
w 336 144 400 144 0
c 400 144 400 208 0 0.000001 1.0209944631751366
g 400 208 400 224 0
w 400 144 464 144 0
g 464 272 464 288 0
w 416 256 336 256 0
w 336 176 336 256 0
w 464 240 512 240 0
r 512 240 512 160 0 470
w 512 160 512 64 0
w 512 64 464 64 0
w 512 240 576 240 0
t 416 256 464 256 0 1 -4.60660446961099 0.3916254152713966 100
f 288 160 336 160 1 1 2
w 192 160 288 160 0
d 464 144 464 240 1 0.4
x 307 134 335 137 4 10 bss84
x 460 259 489 262 4 10 bc546
x 431 213 458 216 4 10 bat84
r 576 240 656 240 0 1000
c 656 240 656 320 0 4.700000000000001e-9 4.995093056652384
g 656 320 656 336 0
183 656 240 736 240 0 0.5 1.66 3.33
w 736 240 768 240 0
w 736 112 768 112 0
183 656 112 736 112 0 0.5 1.66 3.33
r 576 112 656 112 0 1000
w 576 240 576 112 0
x 722 99 771 102 4 24 sync
x 723 227 784 230 4 24 vsync
r 288 160 288 240 0 75
g 288 240 288 256 0
o 0 64 0 12291 0.95 0.0009471235810827204 0 2 0 3
o 3 64 0 4099 1.25 0.0015625 1 2 3 3
o 14 64 0 4099 2.5 0.00078125 2 2 14 3
o 25 64 0 4355 10 0.0125 3 2 25 3
o 17 64 0 4099 5 0.05 4 2 17 3
o 34 64 0 4099 10 0.00625 5 2 34 3
o 37 64 0 4099 0.0000762939453125 0.00009765625 6 2 37 3
o 38 64 0 4099 5 0.00009765625 7 2 38 3
