! XPM2
255	255 2 1
0 c #FFFFFF
1 c #000000
110000000000001111111111111111111111111111111111111111111111111111111111111111111111111111111111111111111111111111111111111111111111111111111111111111111110000000000000011100000000000011111111111111111111111111111111111111111111111111111111111111111111111
110000000000001111111111111111111111111111111111111111111111111111111111111111111111111111111111111111111111111111111111111111111111111111111111111111111110000000000000011000000000000111111111111111111111111111111111111111111111111111111111111111111111111
110000000000001111111111111111111111111111111111111111111111111111111111111111111111111111111111111111111111111111111111111111111111111111111111111111111110000000000000011000000000000111111111111111111111111111111111111111111111111111111111111111111111111
110000000000001111111111111111111111111111111111111111111111111111111111111111111111111111111111111111111111111111111111111111111111111111111111111111111110000000000000011000000000000111111111111111111111111111111111111111111111111111111111111111111111111
110000000000001111111111111111111111111111111111111111111111111111111111111111111111111111111111111111111111111111111111111111111111111111111111111111111110000000000000011000000000000111111111111111111111111111111111111111111111111111111111111111111111111
110000000000001111111111111111111111111111111111111111111111111111111111111111111111111111111111111111111111111111111111111111111111111111111111111111111110000000000000011000000000000111111111111111111111111111111111111111111111111111111111111111111111111
110000000000001111111111111111111111111111111111111111111111111111111111111111111111111111111111111111111111111111111111111111111111111111111111111111111110000000000000011000000000000111111111111111111111111111111111111111111111111111111111111111111111111
110000000000001111111111111111111111111111111111111111111111111111111111111111111111111111111111111111111111111111111111111111111111111111111111111111111110000000000000011100000000000011111111111111111111111111111111111111111111111111111111111111111111111
110000000000001111111111111111111111111111111111111111111111111111111111111111111111111111111111111111111111111111111111111111111111111111111111111111111110000000000000011100000000000111111111111111111111111111111111111111111111111111111111111111111111111
110000000000001111111111111111111111111111111111111111111111111111111111111111111111111111111111111111111111111111111111111111111111111111111111111111111110000000000000011000000000000111111111111111111111111111111111111111111111111111111111111111111111111
111111111111111111111111111111111111111111111111111111111111111111111111111111111111111111111111111111111111111111111111111111111111111111111111111111111111111110000000000000011100000000000111111111111111111111111111111111111111111111111111111111111111111
111111111111111111111111111111111111111111111111111111111111111111111111111100000000111111111111111111111111111111111111111111111111111111111111111111111111111111111111111111111111111111111111111111111111111111111111111111111111111111111111111111000000000
111111111111111111111111111111111111111111111111111111111111111111111111111110000000111111111111111111111111111111111111111111111111111111111111111111111111111110000000011111111111111111111111111111111111111111111111111111111111111111111111111111111111111
111111111111111111111111111111111111111111111111111111111111111111111111111100000000111111111111111111111111111111111111111111111111111111111111111111111111111110000000011111111111111111111111111111111111111111111111111111111111111111111111111111000000001
111111111111111111111111111111111111111111111111111111111111111111111111111110000000011111111111111111111111111111111111111111111111111111111111111111111111111110000000011111111111111111111111111111111111111111111111111111111111111111111111111111000000001
111111111111111111111111111111111111111111111111111111111111111111111111111110000000011111111111111111111111111111111111111111111111111111111111111111111111111111000000011111111111111111111111111111111111111111111111111111111111111111111111111111000000001
111111111110000000111111111111111111111111111111111111111111111111111111111111111111111111111110000000011111111111111111111111111111111111111111111111111111111111111111111111111111000000001111111111111111111111111111111111111111111111111111111111111111111
111111111110000000000000000000000000000000000000000000000000000000000000000000000000111111111111000000011111111111111111111111111111111111111111111111111111111111111111111111111111000000001111111111111111111111111111111111111111111111111111111111111111111
111111111110000000000000000000000000000000000000000000000000000000000000000000000000111111111111000000000000000000000000000000000000000000000000000000000000000000000000111111111111100000001111111111111111111111111111111111111111111111111111111111111111111
111111111110000000000000000000000000000000000000000000000000000000000000000000000000111111111111000000000000000000000000000000000000000000000000000000000000000000000000111111111111100000000000000000000000000000000000000000000000000000000000000000000000011
111111111110000000000000000000000000000000000000000000000000000000000000000000000001111111111110000000000000000000000000000000000000000000000000000000000000000000000000111111111111000000000000000000000000000000000000000000000000000000000000000000000000011
111111111110000000000000000000000000000000000000000000000000000000000000000000000001111111111110000000000000000000000000000000000000000000000000000000000000000000000000111111111111000000000000000000000000000000000000000000000000000000000000000000000000011
111111111111111111111111111111111111111111111111111111111111111111111111111110000000000000000000000000000000000000000000000000000000000000000000000001111111111111000000000000000000000000000000000000000000000000000000000000000000000000111111111111000000000
111111111111111111111111111111111111111111111111111111111111111111111111111110000000011111111111111111111111111111111111111111111111111111111111111111111111111111000000000000000000000000000000000000000000000000000000000000000000000000111111111111000000000
111111111111111111111111111111111111111111111111111111111111111111111111111110000000011111111111111111111111111111111111111111111111111111111111111111111111111111000000011111111111111111111111111111111111111111111111111111111111111111111111111111000000000
111111111111111111111111111111111111111111111111111111111111111111111111111100000000111111111111111111111111111111111111111111111111111111111111111111111111111110000000011111111111111111111111111111111111111111111111111111111111111111111111111111000000001
111111111111111111111111111111111111111111111111111111111111111111111111111100000000111111111111111111111111111111111111111111111111111111111111111111111111111110000000011111111111111111111111111111111111111111111111111111111111111111111111111111000000001
111111111111111111111111111111111111111111111111111111111111111111111111111100000000111111111111111111111111111111111111111111111111111111111111111111111111111110000000011111111111111111111111111111111111111111111111111111111111111111111111111111000000001
000000000000000000000000000000000000000000000000000000000000000111111100000000111111111111111111111111111111111111111111111111111111111111111111111111111110000000011111111111111111111111111111111111111111111111111111111111111111111111111111000000001111111
000000000001110000001000000000000001100000000001011101001000000101000000000001000000000001101000011000001010000110000000010000111111100110111110011111110000000000000000000000000000000000000000000000000000000000000000000000000000000000001111000000001111111
000000000011110000000000100000000000100000110111100110010000001000000000100000010000100000011000000000010000010001000101111000000011111000111110111111110000000000000000000000000000111100001100000000010000010000000001110000100001000000000000011000000101000
000000000011100000000000000000000000000001111101011100000100000000000010000000001011100000000101011000010000011011000001110111000111100011100111001111110000000000000000000000000000111100000001000001000000110000000110110100000000000000010000010000001000011
000000000001100000000010000000001000000100000110111100011100000000000011000000000100000000010000000001111000000000001111110001001011101100100011110011110000000000000000000000000000111100000000000000010000000000000011011111001000000000000000000000000000000
000000000011000100111000000000000000010001100111010000000000000000000001010000100000000000000000000001111100110001000001000000111000001111110011000111110000000000000000000000000000110010000000000000000000011101000001110100000100000000000000000000100000000
000000000011111110000000000000000101010100000111110000000110000000100000000000110000000010000000011101110000010000001000100101110100011001000100011011110000000000000000000000000000111010000001100000110001000001010011011000000000100000000000111100000000000
000000000001111111111110000000000000011100100001100000010001000001000000000000000000000000001000011000011100010100000000011000011110111000011000001111110000000000000000000000000000111111101110000000000000001000110001011100000000001100000000000000100000000
000000000011111111100011000000000000110000000000000000001011100000000000110000000000000110010000000000001110000000000011101001111101010110010000111011110000000000000000000000000000011111111010001100000001000000000010110000000000000011010000101000000000000
000000000011111100110111001000111100110110000001100000011000000000000000000011100000000000000000010000101111111000000011001101011100000001100011101011110000000000000000000000000000011111001111100100000000000010000000111100000100000000000000000001111000000
000000000001111111111000000000000000000000000000010010100000000000000001110000110001000011011000010000001111100000001000000000011000110111110001111011110000000000000000000000000000111111110110000000110000000001100000000100000011100000001000000000000000000
000000000011111111100000000000100000000000000000011000010110110000000000011010000010000000100000000000111011110000000011100011110011000111110100110011110000000000000000000000000000111111111111110000000001000000000000000000000001111100000111000000111110100
000000000011111011111000000010000000000000000000100000011000000010011001000000000000000011100000100000100000101010000000000001111111100011111010111111110000000000000000000000000000111111111110000001000000000111000000000000011100000000000000000000000000000
000000000011111110110000000000010000000000000100001111010110000001000000000000000011100011100000100000000101010101000000000001110000110111000011011111110000000000000000000000000000111111110010000110000111000001011000000010000011110000000101000000100100000
000000000011111111110000000000000001100000000000000100000100000000100000000000000011100000000000110000000111000010000001000100111110000110111100011111110000000000000000000000000000111111111110110000010000000000000000000000000110010000011000100000000000001
000000000011111000111000001101000000000000010000011000000000000000011000000111000000000000010000011000000101000000000110010011110111100011000111111011110000000000000000000000000000111110001101100000000000000000000010000000010100000000000001010000110001110
000000000011111111100000000000000000000000000000100000000000000100000010000100100011000000000000011000011110000011100000000000100001100001100000010000110000000000000000000000000000111111111110000000000000000000000000000100000000000000111000111010000011100
000000000011111111110000000000000000000000000000000100000011001111100000000000011100000001000001100011010000000011001100000001101100011010000111110000110000000000000000000000000000111111110000000000000000000000000000000001001010000001100001100000000000001
000000000011111111110000000000000000000000000100000010000000000111011000000000111000000000000000000001111100000000000011010111110101100111000001100000110000000000000000000000000000111111111000000000000000000000000010000000000000000111100000000000001100000
000000000011111111111000000000000000000000000100000000010000001100001100000001000000000000011000000011000010110111000000001110011100000111000001100001110000000000000000000000000000111111111100000001000000000000000000000000001001000010000000000000000011000
000000000011111111111000000000000000000000000000000000000000011100001000000000000000000100000000001000001000000010100000110000011101110110111001000000110000000000000000000000000000111111111100000000000000000000000000001010000001001111000000000100000100000
000000000011111111011100000000001100000000000000000000000000000010000010000000111100000000000000000000000110110000010000111011100000000111100010000000010000000000000000000000000000111111110100000000000010000000000000000000000000111000010110000000000000000
000000000011111111000100000000000000000000000000010000010110000000000110100000000000000000011110000011110000000010001100111111111110000001100010000001010000000000000000000000000000111111100010000000000000000000000000000000000000000000000001000011000000000
000000000011111111010010000000000000000000010000001100000110000001100000100000000000001110000000101100000000001000000100000000110000100011100100000000110000000000000000000000000000111111100011000000000000000000000000010010000001000000000000100000001001000
000000000011111111110010000000000000000000000000000000000000000010000001100000001011000000001000110000000010000100000011111111110000001000100100000000010000000000000000000000000000111111111101100000000000000000000000000000000000000000000000111000000000000
000000000011111110100011000000000000000000110000000000000110000100000001100000110000010010000000000000000000101100000011110000011000011010111000000000110000000000000000000000000000111111111000100000000000000000000000000000000000000000000001111100001000001
000000000011111111110001000000000000000000110000000000000000000001011000011000000100000000000111110100100001000111100111000100000000000110111000000001110000000000000000000000000000111111111000100000000000000000001100000000000000100010010000100000011000000
000000000011111111101100100000000000000000010000000000000000000000010001000000111100001000111000001000000010000110000001100000000000000000010000000100110000000000000000000000000000111111110011110000000000000000001100000000000000000011000110110000010000000
000000000011111111111110110000000000000000000000000000000000000011001010001000000000000100001000100010100000010000001011110000000010001111110000000011110000000000000000000000000001111111111110011000000000000000000000000000000100000100000000100000000001000
000000000011111111110010110000000000000000000000000000000000000001111000000100000100000000001101100000110011000011110011000000000001110110100000000100010000000000000000000000000001111111111111011000000000000000000000000000000100000000100110000110000000000
000000000011111111101000010000000000000000000000000000000000000010111001000010000000001111000000100001000111100110000000110001000000000001000000000000010000000000000000000000000001111111100011111000000000000000000000000000000000000001111100000000000000000
000000000011111111111111101000000000000000000000000000000000011011100000000000000010000100000100110111100001000011110000000000000000000011000000000000110000000000000000000000000001111111111111111100000000000000000000010000000000000000001100000000000001000
000000000011111111101001001100000000000000000000000000000000000011111000000000000000000000000001110011111100000001000000010000000000010110000000001001110000000000000000000000000001111111111000000110000000000000000010000000000000000001111110010001001010000
000000000011111111001000110100000000000000000000000000000000000110111000001000000000000000000111100001111100000000000000000000001011101100000000000000010000000000000000000000000001111111111000000010000000000000000000000000001000010011111000000000000001000
000000000011111111100001001110000000000000000000000000000000000000000000000000000000000000000000000000000000000000000000000000000000000000000000000000000000000000000000000000000000111111111000011111000000000000000000000000000000000000111101000000001000000
000000000011111111011100111110000000000000000000000000000000000000000000000000000000000000000000000000000000000000000000000000000000000000000000000000000000000000000000000000000000111111111100000011000000000000000000000000000000000000000000000000000000000
000000000011111111111111010001000000000000000000000000000001000000000010110000100111000000010001000011100011000001100000000000110000001000000001000010100000000000000000000000000001111111100100011001100000000000000000000000000000000000000000000000000000000
000000000011111111011110100001100000000000000000100000000000000000001110000000000100000000000000000000101111110000100000110000000000010000000000001101000000000000000000000000000001111111111111110000100000000000000000000000000000100000000100001100000001100
000000000011111111111110000000100000000000000000000000000000000000000000000000001111000000011000001000000001111011001100000000011000110000000000000011110000000000000000000000000001111111111101000100010000000000000000000000000000000000000010000000000000000
000000000011111111111100111000100000000000000000000000011000000000000011010000110110000000000000110000000001010011000010000000000000100000000000000011000000000000000000000000000001111111111111111000010000000000000000011000000000000000000100000000011001100
000000000011111111111110000000010000000000000000000000000000000000000000000001111010000001000001010010000110110000000000111000000000100000000000000001100000000000000000000000000001111111111111000000011000000000000000000000000000000000000111010000011000000
000000000011111111111110001100011000000000000000000000000000000000000011000000111110000000000000000000110000000000000000101100110001000000000000000001110000000000000000000000000001111111111100001100001000000000000000000000000010000000000000000000000110000
000000000011111111110011000000001000000000000000000000000000000000000000100001111000000000000000000000001111000010000000000000000110000000000000001101110000000000000000000000000001111111011111000000000100000000000000000000000000000001000000010000001100000
000000000011111111011111011000000100000000000000000000000000000001000000001111111100000000000000010001100000000011100000000100010110000000000000000011110000000000000000000000000001111111111111110000000110000000000000000000000010000000000000001000110010000
000000000011111111111101110000000100000000000000000000000000000000000001000111100000010000000000001000000001100011001100000000010100000000000010000001110000000000000000000000000001111111111111011000000010000000000000000000000000000000100000100000101100000
000000000011111111111101000000100110000000000000000000000000000000110000111111110000000000000000000010010001110000000001001111110100000000000000000001110000000000000000000000000001111111111010001100000001000000000000000000000000000000000000011111110110000
000000000011111111111010000000110010000000000000000000000000001111000000111111000000000000000000000000111111001111000001100000111000000000000000000000100000000000000000000000000001111111111111100000000001000000000000000000000000000000000000001101001010000
000000000011111111111110111111000001000000000000000000000000000000000100011110110000000000000001001100000011001000000011000100011000000000000000000111100000000000000000000000000001111111111111111100000001100000000000000000000000000000000000011100011000000
000000000011111111111110111000000001000000000000000000000000000010000000001110011000000000000000011010001111011000000011000000010000000000000000000011110000000000000000000000000001111111111110001100000000100000000000000000000000000100110000111110011010000
000000000011111111111110111000000000110000000000000000000000000000000000000001111100000000000001100100000001111100000100000010010000000000000000111000100000000000000000000000000000111111111010101110000000010000000000000000000000000000000100000001111100000
000000000011111111111011111100001000100000000000000000000000000000001000001111100000000000000000110000000001000010011000000001100000000000000000100000000000000000000000000000000001111111111111111000000001110000000000000000000000000000000000011100111000000
000000000011111111111101111000001110110000000000000000000000000001110000001100100000000000000001000010000011000000000000000001000000000000000011000000100000000000000000000000000001111111111111011000000110011000000000000000000000010000000000000000111100000
000000000011111111111110111101100100001000000000000000000000000000000000001101110000000000000000011100000001000000000000000111100000000000000000011100010000000000000000000000000000111111111111111000000011001100000000000000000000001100000000000011111000000
000000000011111111111001111111000000001000000000000000000000000000001100011010000000000010001100011001000000000000111001101010000000000000000000011011010000000000000000000000000001111111111101111011001011000100000000000000000000000000000010000010110000000
000000000011111111111111110000000000000100000000000000000000000000110000000111000110000000000010000011110000001000000000011110000000000000000000000011110000000000000000000000000000111111111101110110000000000010000000000000000000000000010000010110110000000
000000000011111111111111110000000100000010000000000000000000000000000100001000000000000000011100111000000010000000010000100110000000000000000000011010010000000000000000000000000000111111111111110010000100000011000000000000000000000000010000111111100000000
000000000011111111111111110000000110010011000000000000000000001000000000111100000000000000000011100001111101100110000100000100000000000000000000111011000000000000000000000000000000111111111111111110000000110001100000000000000000000000000000010101000000000
000000000011111111111111010000000010000011000000000000000000000000000011110000000000000000011000100000000000001000000000011000000000000001000000110000000000000000000000000000000001111111111110111100001100000001000000000000000000000110000000110100000000100
000000000011111111111111111011110000100001000000000000000000000000010011111000000001000001010000000001100000100001000000101000000000000010000000100111010000000000000000000000000000111111111111111100010000000000000000000000000000000010000000011000000000101
000000000011111111111111000111000000110010100000000000000000000000010000011000000000000000000011000100000000110000000001111000000000000000000001000110000000000000000000000000000000111111111111101111110011111001010000000000000000000000000010011010000000000
000000000011111111111111110111111111000110110000000000000000000100000001110000000000000000000000011000011000000000000001110000000000110000010000000111000000000000000000000000000000111111111110101100010000000000011000000000000000000010010000011100000000000
000000000011111111111111100001110001100100010000000000000000000000010111100000000000000010010000100000000000000001110001100000000000000000000000000001110000000000000000000000000000111111111110111110011100011110001000000000000000001000000000110000000000000
000000000011111111111111110001101111000011011000000000000000000000001111000000000010000000001110000000000000000000001011100000000000000000000000000011010000000000000000000000000000111111111101110011101110000011111100000000000000000000100001110000000000000
000000000011111111111111110001000010001111001000000000000000000100000010000000000000000001111100110000000100011101000001000000000000000000000001000000000000000000000000000000000000111111111111111100011101101001000100000000000000000000000100100000000100000
000000000011111111111111111000111101110011000100000000000000000000000000001100001000001000000001001000010000000000001011000000000000000000000110100010000000000000000000000000000000111111111111110111111110001001100110000000000000000001000010000000000000000
000000000011111111111111111101111001100001000110000000000000100000000000000100000000000000000011000000000000000001100110000000000000000000000000000000000000000000000000000000000000111111111111111100110010000001100010000000000000001000000000000010001000000
000000000011111111111111101011001100000000000010000000000011010000000000000000000000000000000010000000000010001111101100000000000000000000000000000000000000000000000000000000000000111111111111111000111000001101100001000000000000001000001000000011001000000
000000000011111111110111110011000001111010000001000000000000000000000000000000000000000000000000000000000000000000000000000000000000000000000000000000000000000000000000000000000000111111111111100111001100000000000001100000000000001000000000000010100000000
000000000011111111111111110110010101100000000001000000000000000000000000000000000000000000000000000000000000000000000000000000000000000000000000000000000000000000000000000000000000111111111111111110011000000000000000100000000000000000000000000000000000000
000000000011111111111111010110011111000000000001100000000000000000000001000001000000000000000000001000010000111000001000000000000000000001000000000001110000000000000000000000000000111111111111001011101000010000000000110000000000000000000000000000000000000
000000000011111111111101111000111100001000000000100000000100001000000001000000000000000000000000101100000000100000010000000000000000001110000000000001000000000000000000000000000000111111111110001100011100001110000001010000000000000000000000010110100000000
000000000011111111111111111111001101100110000000010010000101000000000000110000000000000000100010001000001100110000100000000000000000000001000000011101110000000000000000000000000000111111111111111111110001100011000001111000000010000000000000000000000000000
000000000011111111111111110111000100000100010001010000000000000000000001000000000000000011100000100000011000011111100000000000000000000000000000000011110000000000000000000000000000111111111111110011001000001100000000011000000000110000000000010000000000000
000000000011111111111100111101100000100000000101111000000000000000000000000000100000000110000000000000000011111111000000000000000000000000000011110000000000000000000000000000000000111111111111111111100011000000000001011000000000000000000000000000000000000
000000000011111111111111101110000111001100001110111000000000000000000000000000000011000000000000001000011010001001000000000000000000100000000000111110000000000000000000000000000000111111111111111110011001011110000110001100000000000000000000000000000000001
000000000011111111111110110001111000000100010000010100000000000000000000000001111000000000010000000000111011000010000000000000000000000000000000000000100000000000000000000000000000111111111111110000011000000111100000000111000000000000000000000000000000000
000000000011111111111111101111100000000100001110011110000000000000000000000001101000000000000000000000000111111010000000000000000000000100100000000001110000000000000000000000000000111111111111111100111101000001000000100111000000000000000000000000000000000
000000000011111111111111111001100110000000000011110010000000000000000001110000000000000000000000000000000011001100000000000000000000001010000000000000110000000000000000000000000000111111111111110111011100000000001100001111000000000000000000000000010110000
000000000011111111111101100111011101000000011001100010000000000001000000001000000000000000000000000000000011001100000000000000000000000000000000110000110000000000000000000000000000111111111111101110000111000000011000000001000000000000011000000000001000000
000000000011111111111111111111110100000000111110000001000000000000000011100000100000000000100000000000011000011000000000000000000000000110100000000001110000000000000000000000000000111111111111111110011000001000001110111000100000000000000000110000001000000
000000000011111111111111111110110000001101000000000001100000000000000011000000000000000000000000000000011100011000000000000000000000001111100100000011000000000000000000000000000000111111111111100001101101100000000011100001110000000000000000100000010000000
000000000011111111111111011110001100000000001000111101100000000000001000000000000000000001111000000001000000010000000000000000000000001100000000000000110000000000000000000000000000111111111111111100111100110000000110000000010000000000000111100000000000000
000000000011111111111111011111100010111100000000000001110000000001110000000000000000000100010000001100101110100000000000000000100000000100000000000000000000000000000000000000000000111111110111100101111101101000000110000000001000000000001000000000000000000
000000000011111111111100111110110000000000000110000000010000000000000000000000000000000000000000010000010011100000000000000000000000000100000000001110000000000000000000000000000000111111111110110011111100010100000111100000001000000000011000000000000000000
000000000011111111111100011101001000011100100010000100001000000000000000000000000000011000011110000000011001000000000000000000000000100000000000111000000000000000000000000000000000111111111101101111100110000110000001100000001100001000000100000000000000000
000000000011111111111111111111000110010001111010001000001100000000000000000000000001000000000000010001111001000000000000001100000000000100000000111000000000000000000000000000000000111111111111111100110011011000000110100110000100000000000000000000000000010
000000000011111111111111111111100010101100011001111000000100000000000000000000000101100000111000000000000010000000000001100000000000000000000000110000010000000000000000000000000000111111111111111101111100000010000000111011000010000000000000000000000000011
000000000011111111111111110011000001010000011100000000010100000000000000000000000000110011111000000000000100000000000000000100000001000000001110000000000000000000000000000000000001111111111110011011111111000110000001011111100011000000000000000000000000111
000000000011111111111111111111000111100010011111100011000111000000000000000000011000000000000010000000000100000000000000000000000000001000000000000000000000000000000000000000000000111111111111110101101001111010000011110011000111000000000000000000000000001
000000000011111111111101111111110110000000000001100000011111000000000000000000000000000000000000000000000000000000000000000000000000000000000000000000000000000000000000000000000000111111111111111011000110000000000110011100001111000000000000000000001000000
000000000011111111111111011101000110000000010110111001111101000000000000000000000000000000000000000000000000000000000000000000000000000000000000000001000000000000000000000000000001111111111110010111111110000000011111001000111110110000000000000000000000000
000000000011111111110111111110110000100000011000111110011000100000000000000000000000000000011101110000010000000000000000000000000000000000000010101010000000000000000000000000000001111111111111111111111100001001011100001100000100110000000000000000000000000
000000000011111111111111111110000100000111100000011110111110100000000000000000000000000001000010000001110000000000000000001000000000000000100000000001010000000000000000000000000000111111111111111111000010011000000000011100001100010000000000000000000000000
000000000011111111111101111001110000001110010000011111111111010000000000000100000000000000110000000000100000000000000000000110001001100000000000000000000000000000000000000000000001111111111111111111111000000001001100000110111111001000000000000000000000000
000000000011111111111011011101111110110100011000011100011100010000000000000000000001000011010000000001000000000000000000000000000001110000000000001000100000000000000000000000000001111111111111100111101011000011000100001111001110001000000000000010000000000
000000000011111111101110110000110100011101111111100000011001001000000000000000000100000101111000000001000000000000000000100000000011000000000001000000000000000000000000000000000001111111111111101101011010101100001000111110000110001100000000000000000001000
000000000011111111111111110000000000001100101111000011011000001000000000000000000011100011111000000010000000000000100010000000000011100000000000000000000000000000000000000000000001111111111111111001010000111111011111110000001100000110000000000000000000100
000000000011111111111111111110100000111011111111000000111100100100000000000000000000000110011110000010000000000000000000010000000011010000000000010010100000000000000000000000000001111111111110111111011010000011000111110011100110000010000000000000000000000
000000000011111111111100010001110000000001111101110000011111100000000000000000000000001111110001000100000000000000000000010000000011010000000000000000000000000000000000000000000001111111111111111110111111111101000011100000001101111110000000000000000000000
000000000011111111111111011001101111010101111110000000110001100010000000000000000000000111001000101000000000000000000000000000100001010000000000000000110000000000000000000000000001111111111111110011111100011001111111110000001100111101000000000000000000000
000000000011111111110011001101110000000011111100000000000111000001000000000000000100001110111100001000000000000000000000000000001000001110000000100011100000000000000000000000000001111111111111100001111000101000111111100000001100110000100000000000000000000
000000000011111111111110001111110001100111111010000001100000000001000000000000001000011000110000001000000000000000000000000000001110110100000000000011000000000000000000000000000001111111111111111110111100000011111111000000010001000000100000000000000000000
000000000011111111111111101101111000001111111000000001100000000000100000000000000000000000011110010000000000000000000000001010000001101100000000000010100000000000000000000000000001111111111111110111101110001011110110100100000000000000010000000000000001000
000000000011111111111000001101010000011110000000000011100000000000111111111111100000000000000000000000000000000000000000000000000000000000000000000000000000000000000000000000000001111111111111111110111110000011001000000000111010000000010000000000000000010
000000000011111111111011101101100001111000000000000111100000000000111111111111110000000000000000000000000000000000000000000000000000000000000000000000000000000000000000000000000001111111111111110011111000000111010100011111100000000010011111111111111000000
000000000011111111111011100000000001100000000000001100000000000010000000000011100000000100110000100000000000010000110000101010111111000000000001100000000000000000000000000000000001111111111111000110000110011111000000001111110000000000001111111111111000000
000000000011111111111110111111000101111000001100000111110000000100000000000000000000000000000000000000000000000010101100000001110110000000011100100000000000000000000000000000000001111111111011111110110001011000000000100110001100000000000001100000011000000
000000000011111111111111111111111111000000001100011110000000001010000000000000000000100000000000000000100010000000000000010110000001000000000001100000000000000000000000000000000001111111111111111111111010011110000000000101110100000111000000000000000000010
000000000011111111111110110111011001100001111100010010000001001000101010000001100000000000000000000000000000000001000000111101000001000110100011100000000000000000000000000000000001111111111111000011101111001001110011000011111000001100000101100000000000000
000000000011111111111111100111111000000100011000011101000001010000000001011000000000000000000000100000000011000000000000000000011111110000000000100000010000000000000000000000000001111111111101111111111000000111011110001100000010110110100101100000110000000
000000000011111111111111111111111111000001001111001000010010100011000111111000000000000000000001000000000000000000000001001111010011100000000000000000000000000000000000000000000001111111111111111101111010010011001110000010110000100100000100111000000000000
000000000011111111111111110110100011000001111111111000001000000000011000011000000000000000000000000000000000000000001000001111111000010000000000000000000000000000000000000000000001111111111111111110111100000010001111101100111110000001100101011110000101000
000000000011111111111110111111100000010001111110000000001111000000000001111000000000000000000000000000010000001001100000111100110000110010000100001000100000000000000000000000000000111111111111111111101011101001100011100110100000000000100000001100000000000
000000000011111111111110000001110100010000011111000101101110000000000000000000000000000000000001100000000000000000001000000000001000011000001100000001010000000000000000000000000001111111111110111101100011110000010111100000000111110000100000010110000000000
000000000011111111111111111111110000001010011000011111111010000000011000000000000000000000000000000000000000000000000011100101000000000001100000010000000000000000000000000000000001111111111111111010001111100000001111110011110011100000000000000000000000000
000000000011111111111111111111111100000000000001111111010000000011011100000000000000000000010000000000000000000001100000000000000000010001100001100000000000000000000000000000000001111111111111111111000110000110000110111111111111110000101100000000000000000
000000000011111111011111110111000000000000000000001100100000000011111100000000000000000000000000000000000000000010000111000010000000000000000000000000000000000000000000000000000001111111111111111111110100000001000001011111110100000000110000000000000000000
000000000011111111111111111101011011111000000000110100010000000000111100000000000000000000000000000100000100000000000001000000000010000000000011000000000000000000000000000000000001111111111111110011100001101001000000001111110100000000111110000000000000000
000000000011111111111111011111110111000000000111110000000000000001111110000000000000000000000000001100001000000000001111101110000100100011011001010000000000000000000000000000000001111111111111111111011111000000000000001001000000000000011111100000000000000
000000000011111111111110110001111011011111000111000000000000000111110100000000000000000010000100010000010000000000100011100000011100000111111100000000000000000000000000000000000001111111111011110011010001111110001000110000110000000001111110000000000000000
000000000011111111111110111111111111111011000000000000000000000001110000110000000000000000000000000000000101000001100010011000111000100100000010000000000000000000000000000000000001111111111111111001111000110111101100000000000000000000111000000000000000000
000000000011111101110111111111111111001011001111000000110100000000010000000011000000000000000000000000000001000001000001100111101101000010000000000000000000000000000000000000000000111111111111101111111011110000100010000000010000000000001101000000000000000
000000000011111111111111111111110111011111010000100000110000000000000000001101000000000000100000100000000000000000000000011100101100000100000100000000000000000000000000000000000000111111111111111111100011101111100111010000000000000000000100000000110000000
000000000011111111111111111101111111000111000111100001000000000000010000011000011001000000000111000000000000000010001110000100000000000000111100000111000000000000000000000000000000111111111111111111111111111011111111110000000000000111000000000000111000000
000000000011111111111111111111100001101110011100010101100000000000000000001000000000000000000000000000000000000000001001100001111100000000000100000000010000000000000000000000000000111111111111111111111111110001100001110000010000000000000000000100000000000
000000000011111111111111110000000001111000001000010111000111111100000001100000000000000000000000000000000000001000110011110000001000000111100000000000000000000000000000000000000000111111111111111100000110111110000111001000111001000000000100000100000000110
000000000011111111111111101000000000110000000000100000011100111000000010001100000000000010000000000000000000000000011000000000000000000011111000000000000000000000000000000000000000111111111111011100010000010110000000000001111011111111000000011000000000000
000000000011111111111111101110000100000000000000110000000000000000000000111100001101000000000000000000000000000010001000110111110010000010011100000000110000000000000000000000000000111111111111110001001000011000000000000000001111011110000000000010100000000
000000000011111111111111111111000000000000000000100000000000100001000000001100000111000000000000000000000001000111100000010001010000000001110000000110010000000000000000000000000000111111111111101100000000000000000000011000000000000000000000011110000011010
000000000011111111111111111101111100000000000000000000000000001100000000000000000000000110100000010000111000000001100010011011001010000000111011111110000000000000000000000000000000111111111111111111100100010000000000011000000000000100000000011011000011110
000000000011111111111110011110111111110010000000000000000000011000000000000000000000010000000000001111011100011000011001111000000110000000000010011000010000000000000000000000000000111111111111111111111111100000000000000000000000000011000000000000000000000
000000000011111111101111100000001110111111111000000000000000000000000000000000000000000000000000000000001000111111111111111110000010000011100000001000000000000000000000000000000000111111111011101111111111111000000000000000000000001010000000000000000000000
000000000011111111101111101111000000000000001111000000000000000000000100000000000000000000000000000000000000000010001111000010000011110011111000001011110000000000000000000000000000111111110011110000000111101111111110000000000000000000000000000000000000000
000000000011111111100111101111110001000000010111000000000000000000000110000000000000000000000000000000000000000000000000001100011001000011111000000000010000000000000000000000000000111111111011111111110000000000000111100000000000000000010010000000000000000
000000000011111111101111101111110011001110000000000000100000001001110001011000000000000000000000000000000000000000001001111000000000000000111000000000010000000000000000000000000000111111110011110111111100100000000001000100000000000000000001100000000000000
000000000011111111101111101111110001001110001110000000000000101111111010110100000000000000000000000000000000000000000000110000100000000000010000000001110000000000000000000000000000111111111011111111111100100111000000000000011000000010011100001100000000000
000000000011111111101111111111110011001111001111100000000001101011000100010100001000000000000000000000010000000000000000010000000010000011110000110010110000000000000000000000000000111111110011111011111100100111100010000000000000001011111100111011000000000
000000000011111111100111101111111001001110001111100011001100000000001110000000001000000000000000000000001000000001001000000000000111110000110000000111110000000000000000000000000000111011111011111011111100110011100111111000000000011101110011000100000000000
000000000011101111100111101111111001001111001111110011001100011001100011100000000000000000000000000000000000000000000000000000000001110000011001000000110000000000000000000000000000111011111011111011111100110011100111111001100011000000001011100000000100000
000000000011111111100111100111110001001111001111110011001100011001111100010000000000000000000000000000011001100011110000000000010011100000000000001000110000000000000000000000000000111011111011111011111100110011100111111000100011001100010001110000000000000
000000000011100111100111101111111001001111001111110011001100011001111100011111110000000111000100000000000000001000000000001100001110001110001101111111110000000000000000000000000000111111111011111011111100110011100111111001100011000100011110001100001000000
000000000011100111100111101111111001001111001111110011001100011001111100011111110000000111001111100000001111000110000011100000100001100001000000000000110000000000000000000000000000111011111011111011111100110011100111111000100011001100011110001111111000000
000000000001110111100111100111111001001111001111110011000110011001111100011111110000000111001111100000001111100110000111110000100001100011100111001110010000000000000000000000000000111011110011111011111100110011100111111000110011000110011110001111111000000
000000000001100111110111100111111001001111001111110011000110011000111100011111110000000111001111100000001111100110000011100000100001100011100111001110000000000000000000000000000000111011111011111011111100110011100011111000100011000100011110001111101000000
000000000011111111100111100111111001001111001111110011000110011001111100011111110000000111001111100000001111100110000111100000100001100011100111011110000000000000000000000000000000111011111011111011111100110011100111111000110011000110011111000111111000000
000000000011100111100111100111111001001111001111110011000110011000111100011111110000000111001111100000001111000110000011100000100001100011100111011110000000000000000000000000000000111011111011111001111100110011110111111000110011001100011110000111111000000
000000000011100111100111100111111001001111001111110011000110011000111100011111110000000111001111100000001111100110000111100001100001100011100111011110000000000000000000000000000000111011111001111011111100110011100111111000110011000110011111000011111000000
000000000011100111100111110111111001100111001111110011000110011000111100011111110000000111001111100000001111000110000111100000100001100011100111011110000000000000000000000000000000111011111001111011111110010011100011111000110011000110011110001111111000000
000000000011100111100111110111111001101111001111110001000110011000111100011111110000000110001111100000001111100110000011100001100001100011100110011110100000000000000000000000000000111011111011111011111100010011100111111000110011001100011111001111111000000
000000000011110111100111110111111001101111001111110001000110011000111100011111110000000111001111100000001111100110000111100000100001100011100110011110000000000000000000000000000000111001111001111011111100010011100111111000110011000110001111000111111000000
000000000011110111110111110111111001000111001111110001000110011000111100011111110000000111001111100000001111100110000111100000100001100011100111011110100000000000000000000000000000111001111001111011111110010011110011111000110011000110011111001111111000000
000000000011110111110111110111111001100111001111110001000110011000111100011111110000000111001111100000001111000110000111100001100001100011100110011110000000000000000000000000000000111011111001111001111110010011100011111100110011000110011111000111111000000
000000000011110111110111110111111001100111001111110001000110011000111100011111110000000111001111100000001111000110000111100001100001100011100110011110000000000000000000000000000000111101111001111111111110010011110011111100110011000110011111001111111000000
000000000011100111110011110111111001100111001111110001100110011100111100011111110000000111001111100000001111100110000111100001100001000011100111011110100000000000000000000000000000111001111001111001111110010011110011111100110011000110001111001111111000000
000000000011110111110111111111111001100111001111110001100110001100111100011111110000000111001111100000001111100110000111100001100001100011100110011100100000000000000000000000000000111001111001111001111110010001110011111100110001000110001111000111111000000
000000000011110111110011110111111001100111100111110001100110001100111100011111100000000011001111100000001111100110000111100001100001000011100110011100000000000000000000000000000000111001111001111101111110010001110011111100110001100110001111000111111100000
000000000011110011110011110111111101100111001111110001100110001100111100011111110000000111001111100000001111000110000111100001100001000011100110011100100000000000000000000000000000111001111001111101111110010011110011111100110001100110001111001111111000000
000000000011110011110011110111111001100111000111110001100110001000111100011111110000000111001111100000001111000110000111100001100001000011101110011100000000000000000000000000000000111001111101111001111110010011110011111100110011000110001111000111111000000
000000000011110011110011110111111100100111100111110001100110001100111110011111110000000111001111100000001111100110000111100001100001000011101110011100100000000000000000000000000000111001111101111101111110011001110011111100110001100110001111000111111100000
000000000011110011110011110011111100100111100111111001100110001100111100011111110000000111001111100000001111000110000111100001100001000011101110011100000000000000000000000000000000111001111101111101111110010011110011111100110001000110001111001111111100000
000000000011111011110011110111111100100111000111110001100110001000111000011111110000000110001111100000001111000110000111100001100011000111101110111100000000000000000000000000000000111101111001111101111110010011110011111100110001100110011111000111111000000
000000000011111011110011110011111100100111100111111001100110001100111110011111110000000111001111100000001111000110000111100001100011000011101110111100000000000000000000000000000000111001111101111101111110011001110011111100110001100110001111000111111100000
000000000011110011110011110011111100100111100111111001100110001100111110011111110000000111001111100000001111000110000111100001100011000111101110111100000000000000000000000000000000111101111100111101111110011001110011111100010001100110001111000111111100000
000000000011111011110011110011111100100111100111111001100110001100011110011111110000000111001111100000001111000110000111100001100011000111101110011100000000000000000000000000000000111100111100111111111110011001110011111100010001100110001111000111111100000
000000000011110011111011110011111100100111100111111001100110001100011100011111110000000111001111100000001111000110000111100001100001000111001110111100000000000000000000000000000000111100111100111101111110011001110001111100011001100110001111000111111100000
000000000011111011110011110011111100100111100111111001100110001100111110001111110000000111001111100000001111000110000111100001100011000111001110111100000000000000000000000000000000111101111100111101111111001001110011111100010001100110001111000111111000000
000000000011111011111011111011111100110011100111111001100011001100111110001111110000000111001111100000001111000110000111100001100011000111001100111101000000000000000000000000000000111101111100111101111111011001110001111100010001100110001111000111111100000
000000000011111011111011111011111100110011100111111001100011001100111110001111110000000111001111100000001111000110000111100001000011000111001110111000000000000000000000000000000000111111111100111100111111001001111001111100011001100110001111000111111100000
000000000011111111111001111011111110110011100111111000100011001100011110011111110000000011001111100000001111000110000111100001100011000111001110111100000000000000000000000000000000111110111110111110111111001001111001111110011001100011001111000111111100000
000000000011111011111011111011111100110011100111111000100011001100111110001111110000000111001111100000001111000110000111100001100011000111001100111100000000000000000000000000000000111100111110111110111111001001111001111110011001100011001111000111111100000
000000000011111001111011111011111110110011100111111000100011001100011110001111110000000011001111100000001111000110000111100001000011000111001100111000000000000000000000000000000000111110111100111111111111001001111001111110011001100010001111000111111100000
000000000011111111111001111001111110110011110011111000100011001100011110001111110000000111001111100000001111000110000111100001100011000111011100111000000000000000000000000000000000111100111110111110111111001101111001111110011000100011001111000111111100000
000000000011111011111101111001111110010011100111111000110011001100011110001111110000000011001111100000001111000110000111100001000011000111001100111000000000000000000000000000000000111110011110111111111111001001111001111110011001100011001111100111111100000
000000000011111101111101111101111110010011100011111100110011001100011110001111111000000011001111100000001111000110000111100001100011000111011100111000000000000000000000000000000000111110111110111110111111101100111001111110011000100011001111100111111100000
000000000001111110111101111101111110011001110011111100010001100110011111001111111000000011100111100000001111100110000111100001100011000111001110111100000000000000000000000000000000111110011111011111111111100100111100111110001100110011000111100011111110000
000000000011111101111101111111111110011011110011111100110011001110011110001111111000000011001111100000001111000100000111100011000011000111011101111000000000000000000000000000000000111110111110111110111111001100111001111110011000110011001111000111111100000
000000000011111101111101111101111110011011110011111100110011000110011110001111110000000011001111100000001111001100000111100001000011000111011100111000000000000000000000000000000000111110111110011110111111001100111100111110011000110011001111100111111100000
000000000001111110111100111101111111001001111001111100010001100110001111000111111000000011100111100000001111100110000111100001100011000111001100111000000000000000000000000000000000111111001111011111011111100110011100111111001100110001100111100011111100000
000000000011111100111100111101111110011001110011111100110011000110011110001111111000000011001111100000001111001100000111000011000010000111011101111000000000000000000000000000000000111111011110011110011111100100111100111110001000110011001111100111111100000
000000000001111110111110111110111111001101111001111100011001100110001111001111111000000011000111110000001111100110000111100001100011000111001100111000000000000000000000000000000000111111001111001111011111100110011100111111001100011001100111100011111110000
000000000001111110111110111110111111001001111001111110011001100010001111001111111000000011100111100000001111100110000111100001100011000111001100111000000000000000000000000000000000111111111111001111011111100110011100111111000100010001100111100011111110000
000000000001111110011110111110111111001100111001111110011001100110001111000111111000000011100111110000000111100110000111100001100011000111001100111000000000000000000000000000000000111111101111101111111111110110011100111111000100011001100111110011111110000
000000000001111110111110111110111111001100111001111110011001100011001111000111111000000011100111110000001111100110000111100001000011000111011101111000000000000000000000000000000000111111101111001111011111110110011110011111000100011001100111110011111110000
000000000001111111111110011110111111001100111001111110011001100011001111000111111000000011100111100000001111100110000111100001100011000111011101111000000000000000000000000000000000111111101111101111011111110010011110011111000100011001100111110011111110000
000000000001111111011110011110011111001100111001111110011001100011001111000111111000000011100111100000001111100110000111100011000011000111011101110000000000000000000000000000000000111111101111101111001111110010011110011111000100011001100111110011111110000
000000000001111111011111011110111111100100111100111110011000100011001111000111111100000001100111110000001111100110000111100001100011000111011101111000000000000000000000000000000000111111111111101111101111110010011110011111000110011001100011110011111110000
000000000001111111011111011111011111100100111101111110001001110011001111000111111000000011100111110000001111100110000111100011000011001110011101110000000000000000000000000000000000111111101111101111101111110011011110011111100110011001100011110011111110000
000000000001111111011110011111011111100100111100111110001000110011001111100111111100000001100111110000001111100110000111100011000010000110011101110000000000000000000000000000000000111111100111101111101111110011001110011111100110011001100011110011111110000
000000000001111110001111011111011111100100111100111110001000110011001111000111111000000001100111100000001111100110000111100011000010001110011001110000000000000000000000000000000000111111100111101111101111110011011110011111100110011001100011110011111110000
000000000001111111001111011111011111100100111100111110001000110011001111100111111000000011100111100000001111100110000111000011000110001110011001110000000000000000000000000000000000111111110111100111101111110011001110011111100110011001100011110011111110000
000000000001111111001111011111011111100100011100111110001100110011001111000111111100000001100111100000001111000110000111000011000110001110011001110000000000000000000000000000000000111111110111100111111111110011001110011111100110011001110011110011111110000
000000000001111111001111001111011111100100011100111110001100110011001111100111111100000011100111110000001111100110000111000011000110001110111001110000000000000000000000000000000000111111110111110111111111111001001110011111100110011001110011110001111110000
000000000001111111101111001111011111100110011100111111001100110011001111100111111100000001100111100000001111001110000111000011000110001110011001100000000000000000000000000000000000111111110011110111110111111001001110011111100110001101110011110001111110000
000000000001101111101111101111011111100010011100111111001100110011000111100111111100000011100111100000001111100110001111000011000110001110111011110000000000000000000000000000000000111111110011110011110111111001001110001111100010011000110011110001111110000
000000000001111111101111101111101111110110011100111111001100110011000111100111111100000001100111110000001111001110001111000011000110001110111011110000000000000000000000000000000000111111111011110011110111111001000111001111100010001100110011110001111110000
000000000011111111100111101111101111110010011100111111001100110011000111100111111100000011100111100000001111001110001111000011000110001110111011100000000000000000000000000000000000111111110011110011110111111001000111001111100010001000110011110001111110000
000000000001111111100111101111101111110010011110011111001100110011100111100111111100000001100111110000001111100100001111000011000110001110111011100000000000000000000000000000000000111111111011111011110011111001100111001111100011001100110011110001111110000
000000000001111111100111100111111111110011011110011111000100010001100111100111111100000001100111110000001111001110001111000010000110001110111011100000000000000000000000000000000000111111111001111011110111111001100111001111100011001100110011110001111110000
000000000001111111110111100111101111110010001110011111000100010001100111100111111100000001100111110000001111101110001111000011000110001100110011100000000000000000000000000000000000111111111001111011111011111100100111001111110011001100110011110001111110000
000000000001111111110011110111111111111011001110011111000100011001100111100011111100000001100111110000001111100110001111000011000110001110111011100000000000000000000000000000000000111111111001111011111011111100100111001111110011001100110001111001111111000
000000000001111111110011110111111111111001001110011111000100011001100111100011111100000001100111110000001111001100001111000010000110011100110011100000000000000000000000000000000000111111111001111001111011111100100111000111110011001100110011111001111111000
000000000001111011110011110011110111111001001110011111100110011001100111100011111100000001100111110000001111101110001111000010000110001100110011100000000000000000000000000000000000111111111101111001111011111100100111100111110011001100010001111001111111000
000000000011111111110011110111110111111011001110011111000100011001100111100111111100000001100111100000011111001100001110000110001100011101110111100000000000000000000000000000000000111111111001111011111011111100100111001111110011001100110011110001111110000
000000000001111011110011110011110111111001001110011111100110011001100111100011111100000001100111110000001111001100001111000110001100011101110011001000000000000000000000000000000000111111111101111001111111111100100011100111110011001100010001111001111111000
000000000001111111111011110011111111111001001111001111100110011001100111100011111100000001100111110000001111001110001111000110001100011101110111100000000000000000000000000000000000111111111100111101111101111100010011100111110001001100011001111001111111000
000000000011111111110011110011110111111001001110011111100110011001100111100111111100000011100111100000001111001100001110000100001100111001100111000000000000000000000000000000000000111111111100111001111011111100100111100111110011001100110011111001111110000
000000000011111111111001111011111111111001000111001111100110011001100111100011111100000001100111100000001111001100001111000110001100011101110111000000000000000000000000000000000000111110111100111101111101111110010011100111110001000110010001111001111111000
000000000011111001111001111011110111111001001110001111100110011001100111100011111100000001100111100000011111001100001110000110001100111011100111000000000000000000000000000000000000111111111100111101111101111100110011100111110001001100110001111001111110000
000000000001111101111101111001111011111100100111001111100010011001100111110011111100000001100111110000001111001100001110000110001100111001100111010000000000000000000000000000000000111110111110111100111101111110010011100111111001100110011001111001111111000
000000000011111101111001111001111011111101100111001111100110011001110111110011111100000001100111100000001111001100011110000110001100111001100111010000000000000000000000000000000000111111111110111100111101111110010011100111111001000110011001111001111111000
000000000011111101111101111001111011111100100111001111100110011001100111110011111100000001100111100000001111001100001110000110011000111011101110010000000000000000000000000000000000111110011110011110111101111110000011100111111001100110011001111001111111000
000000000011111111111100111101111011111100100111001111100010001101100011110011111100000001100111110000001111001100011110000100011000111011101110010000000000000000000000000000000000111111011110011110011110111110010011110111111001100110011001111000111111000
000000000011111111111100111101111011111100100111000111100110011100110111110011111100000001100111110000011111001100011110000100011000111011001110100000000000000000000000000000000000111111011110011110011110111110011011100111111001100110011001111001111111000
000000000011111110111100111100111001111100100111001111110011001100110111110011111100000001100111100000011111001100011110001100011000111011001110100000000000000000000000000000000000111111011111011110011110111110001001110011111001100110011001111000111111000
000000000011111111111100111100111101111100110011101111110011001100110011110011111110000001100111100000001111001100011110001100011000111011001110100000000000000000000000000000000000111111011111001110011110111110011001110011111001100110011001111001111111000
000000000011111111111110011100111101111100010011100111110011001100110011110011111110000001100111110000001111001000011110001100011000110011001110100000000000000000000000000000000000111111111111001111011110011111001001110011111001100110011001111000111111000
000000000011111111111110111110011101111110010011100111110011001100110011110011111100000001100111100000011111001000011110001100011001110011011110000000000000000000000000000000000000111111101111001111001110111111001001110011111001100110011001111000111111000
000000000011111111111110011110111101111110010011100111110011001100110011110011111110000001100111100000001111001100011110001100011001110011011100000000000000000000000000000000000000111111111111101111001110011111001101111011111000100110001100111000111111000
000000000011111111111110011110011110111110010011100111110011001100110011110011111100000001100111100000011110001000011110001100010001110111011101000000000000000000000000000000000000111111101111101111001110011111001001110001111101100010001101111100111111000
000000000011111111111110011110011110111110010011100111111011001100110011110011111110000001100111100000011110011000011100001000110001110110011101000000000000000000000000000000000000111111111111100111001111011111101001111011111000100111011101111100111111000
000000000011111111111111001110011110111111010011100111110001001100111011110001111110000001100111100000011110011000011100001100010001110110011100000000000000000000000000000000000000111111111111100111001111011111100100111001111100110011001100111100111111000
000000000011111111111111001111011110111111011011110111110001001110110011110001111110000001100111100000011110011000011100001000110001100110111100001000000000000000000000000000000000111111111111110111101111011111100100111001111100110011011100111100111111000
000000000011111111101111001111011110011111011001110011111001100110110011111011111110000001100111100000011110011000011100011000110001100110111000000000000000000000000000000000000000111111111111100111100111101111100100111001111100110011011101111100111111000
000000000011111111111111000111001111011111001011110011111001100110111011111011111110000001100111100000011110011000111100011000110001100110111000000000000000000000000000000000000000111111111111110111100111101111100100111001111100110011001100111100111111000
000000000011111111111111001111001110011111001001110111111001100110111011111001111110000001100111110000011110011000111100011000110011101110111100000000000000000000000000000000000000111111111111100011100111111111100100111001111100110011001101111100111111100
000000000011111111111111100111001111111111001001110011111001100110111011111001111110000001100111100000011110011000111100011000100011101111110000000000000000000000000000000000000000111111111111110011110011101111110110111101111110110011001101111100111111000
000000000011111111111111100111001110111111101101110011111001100110011011111011111110000001100111110000011110011000111100011000100011001111111000000000000000000000000000000000000000111111111111110011110011101111110110111101111110110011111100111100111111000
