! XPM2
255	255 2 1
0 c #FFFFFF
1 c #000000
111100000000000000000000000000000000000000000000000000000000000000000000000000000000000000000000000000000000000000000000000000000000000000000000000000000000000000000000111110000000000000000000000000000000000000000000000000000000000000000000000000000000000
111110000000000000000000000000000000000000000000000000000000000000000000000000000000000000000000000000000000000000000000000000000000000000000000011111000000000000000000111111000000000000000000000000000000000000000000000000000000000000000000000000000000000
111100000000000000000000000000000000000000000000000000000000000000000000000000000000000000000000000000000000000000000000010000000000000000000000000000000000000000000000111111000000000000000000000000000000000000000000000000000000000000000000000000000000000
111100000000000000000000000000000000000000000000000000000000000000000000000000000001100000001110000000000000000000000000000000000000000000000000000000000000000010000000000000011111000000000000000000000000000000000000000000000000000000000000000000000000000
111100000000000000000000000000000000000000000000000000000000000000000000000000000000000000000000000000000000000000000000000000000000000000000000000000001100000000000000111110000000000000000000000000000000000000000000000000000000000000000000000000000000000
000000000001111000000000000100000000000000000000000000000000000000000000000000000000000000000000000000000000000000000000000000000000000000000000000000000000000000000000000000000000000000010000000010000000000000000000000000000000000000000000000000000000000
111100000000000000000000000000000000000000000000000000000000000000000000000000000000000000000000000000000000000000000000000000000000000000000000000000000000000000000000111111000000000000000000000000000000000000000000000000000000000000000000000000000000000
110000000000000000000000000000000000000000000000000000000000000000000000000000000001111000000000000000000000000000000011000000000000000000000000000000000000000000000000000000000000111000000000000000000000000000000000000000000111000000000000000011000000000
111000000000000000000000000000000000000000000000000000000000000000000000001100000001110000000000000000000000000000000000000000000000000000000000000000000000000000000000111100000000000000000000000000000000000000000000000000000000000000000000000000000000011
111000000000000000000000000000000000000000000000000000000000000000000000111100000001111000000000000000000000000000000000000000000000000000110000000000000000000000000000111100000000000000000000000000000000000000000000000000000000000000000000000000000000011
100000000000000000000000000000000000000000000000000000000000000000000000000000000000111110000000000000000000000000000000000000000000000000000000000000000000000010000000110000000000000000000000000000000000000000000110000000000000000000000000000000000000011
111100000000000000000000000000000000000000000000000000000000000000000000000000000000111110000000000000000000000000000000000000000000000000000000000000000001111110000000011000000000000000000000000000000000000000000000000000000000000000000000000000000000011
000000000000000000000000000001000000000000000000000000000000000000000000000000000000000000000000000000000000000000000000000000000000001000000000000000000000000000000000000000000000110000000000111000100000000000000000000000000000000000000000000000000000000
111111111110000000000000000000000000000000000000000000000000000000000000000000000001111111111111000000000000000000000000000000000000000000000000000000000000000000000000111111111111000000011111111111111111100011111100001111111111111111100000000000000000000
111111111110000000000000000000000000000000000000000000000000000000000000000000000001111111111111000000000000000000000000000000000000000000000000000000000000000000000000111111111111100000000000000000000000000000000000000000000000000000000000000000000000011
000000000001010111100000100000100000000000000000000000000000000000000000000000000000000000000000000000000000000000000000000000000000100000000000000000000000000000000000000000000000100110100000110000010000000000000000000000000000000000000000000000000000000
111111111110000000000000000000000000000000000000000000000000000000000000000000000001111111111111000000000000000000000000000000000000000000000000000000000000000000000000111111111111100000000000000000000000000000000000000000000000000000000000000000000000011
111111111110000000000000000000000000000000000000000000000000000000000000000000000001111111111111000000000000000000000000000000000000000000000000000000000000000000000000111111111111000000000000000000000000000000000000000000000000000000000000000000000000111
111000000000000000000000000000000000000000000000000000000000000000000000000000000000110000000000000000000000000000000000000000000000000000111000000000000000000000000000000000000000000000000000000000000000000000000000000000000000000000111111111111000000000
111000000000000000000000000000000000000000000000000000111000000000000000000000000001111100000000000000000000000000000000000000000000000000000000000000000000000000000000111100000000000000000000000000000000000000000000000000000000000000000000000000000000000
110000000000000000000000000000000000000000000100000001100000000000000000000000000000111100000000000000000000000000000000000000000000000000000000000000000000000010000000111110000000000000000000000000000000000000000000000000000000000000001110000110000000011
110000000000000000000000000000000000000000000000000000000000111111100000000000000001100000000000000000000000000000000000000000000000000000000000000000000000000000000000111100000000000000000000000000000000000000000000000000000000000000000000000000000000000
111000000000000000000000000000000000000000000000000000000000110000000000000000000001111000000000000000000000000000000000000000001100000000000000000000000000000000000000111100000000000000000000000000000000000000000000000000000000000000000000000011000000011
000000000000000000000000000000000000000000000000000000000000000000000000000000000000000000000000000000000000000000000000000000000000000000000000000000000000000000111100000000000000000000000000000000000000000000000000000000000000000000000000000000011110000
000000000000000000000000000000000000000000000000000000000000000000000000000000000001111000000000000000000000000000000000000000000000000000000000000000000000000000000000111110000000000000000000000000000000000000000000000000000000000000111111110000000000011
000000000000000000000000000000000000000000000000000000000000000000000000000000000000000000000000000000000000000000000000000000000000000000000000000001110000000000000000000000000000000000000001000000000000000000000000000000000000000000000000000000000001100
000000000000010111000000000000000000110000000000000000000000000000000000000000000000000000000000000000000000000000000000000000100000000000000000000000000000000000000000000000000000110011000100000000000000011000000000000000000000000000000000000000000000000
000000000000000000000000000000000000000000000000000000000000000000000000000000000000000000000000000000000000000000000000000000000000000000000000000011100000000000000000000000000000011000000000000000000000000000000000000000000000000000000000000000000000000
000000000000101000000000000000000000000000000000000000000000000000000000000000000000000000000001100000000000000000000000000000000000000000000000010011100000000000000000000000000000100000000000000000100000000000000000000000000000000000000000000000000000000
000000000000000000000000000000000000000000010000000000000000000000000000000000000000000000000000000000000000000000000000000000000000000000000000000001100000000000000000000000000000000000000000000000000000000000000000000000000000000000000000000000000000000
000000000001100000000000000000001000000000000000000000000000000000000000000000000000000000000000000000000000000010000000000000000000000000000000000011110000000000000000000000000000111010000000010000000000000000000010000000000000000000000000100100000000000
000000000001111101000000000000000000000010000000000000000000000000000000000000000000000000000000000000000000000000000000000100000000000000000000000000000000000000000000000000000000111101000000000000000000000001000000000000000000000000000000000000000000000
000000000010000000000000000000000000000000100000000000000000000000000000000000000000000000000000000000000000000000000000000000000000000000000000000011100000000000000000000000000000000000000000000000000000000000000000000000000000000000000000000000000000000
000000000011110000000000000000000000000000000000000000000000000000000000000000000000000000000000010000000000000000000000000000000000000000000000000000000000000000000000000000000000000000000000100000000000000000000000000000000000000000000000000000000000000
000000000000111000000000000000000000000000000000000000000000000000000001000000000000000000000000000000000000000000000000000000000000000000000000000000110000000000000000000000000000000000000010000000000000000000000000000000000000000000000000000000000000000
000000000011110000000111000000000000000000100000000000000000000000000000000000000000000000000000000000000000000000000000000000000000000000000000000000000000000000000000000000000000111111100001010000000000000000100000000000000000000000000000000000000000000
000000000001100000000010000000000000000000000000000000000000000000000000000000000000000000000000000000000000000000000000000000000000000000000000000000110000000000000000000000000000100000000000000000000010000000000000000000000000010000000000010000000000000
000000000011000000000000011000000000000000000000000000110000000000000000000000000000000000010000000000000000000000000000000000000000000000000000000000010000000000000000000000000000001000000000000000000000000000000000000000000000000000000000000000000000000
000000000000011100000000000100010000000000000000000000000000000000000000000000000000000000000000000000000000000000000000000000000000000000000000000000010000000000000000000000000000001000000010100000110010000000000000000000000000000000000000000010000000000
000000000000000001000000000000000000000000000000000000000000000000000000000000000000000000000000000000000000000000000000000000000000000000000000010000000000000000000000000000000000000000000000000000000000000000000000000000000000000000000000000000000000100
000000000001111000001001000000000000000000000000000000000000000000000000000000000000000000000000000000000000000000000010000000000000000000000000000000000000000000000000000000000000111111000111111000000000000000000010000000000000000000000000000000000000000
000000000000000000100000000000000000000000000000000000000000000000000000000000000000000000000000000000000000000000000000000000000000000000000000100000000000000000000000000000000000000000010000000000000000000000000000000000000000000000000000000000000000000
000000000000000000100000000000000000000000000000000000000000000000000000000000000000000000000000000000000001100000000000000000000000000000000000010000000000000000000000000000000000000000010000000000000000000000000000000000000000000000000000000000000000000
000000000001101100000000000000000000000000000010000000000000000000000000000000000000000000000000000000000000000000000000000000000000000000000000000000000000000000000000000000000000110000000000000000000000000000000001000000000000000000000000000000000000000
000000000000010000010000000000000000000000000000000000000000000000000000000000000000000000000000000000000000000000000000000000000000000000000001000000000000000000000000000000000000001000001000000000000000000000000000000000000000000000000000000000000000000
000000000000000000000100000000000000000000000000000000000000000000000000000000000000000000000000000000000000000000000000000000000000000000000100000000000000000000000000000000000000000000000010000000000000000000000000000000000000000000000000000000000000000
000000000000000000000100000000000000000000000000000000000000000000000000000000000000000000000000000000000000000000000000000000000000000000000100000000000000000000000000000000000000000000000010000000000000000000000000000000000000000000000000000000000000000
000000000000000000010100000000000000000000000000000000000000000000000000000000000000000000000000000000000000000000000000000000000000000000000100000000000000000000000000000000000000000000000010000000000000000000000000000000000000000000000000000000000000000
000000000000101100000010000000000000000000000000000000000000000000000000000000000000000000000000000000000000000000000000000000000000000000000100000000000000000000000000000000000000000000000011000000000000000000000000000000000000000000000000000000000000000
000000000000000000000010000000000000000000000000000000000000000000000000000000000000000000000000000000000000000000000000000000000000000000000100000000000000000000000000000000000000011000000001000000000000000000000000000000000000000000000000000000000000000
000000000010101000000011100000000000000000000000000000000000000000000000000000000000000010000000000000000100000000000000000000000000000000100000000000000000000000000000000000000000110000000000100000000000000000000000000000000000000000000000000000000000000
000000000000000011000101100000000000000000000000000000000000000000000000000000000000000000000000000000000000000000000000000000000000000000010000000000000000000000000000000000000000011000000000100000000000000000000000000000000000000000000000000000000000000
000000000001100000000000100000000000000000000000000000000000000000000000000000000000000000000000000000000000000000000000000000000000000000100000000000000000000000000000000000000000011010000000010000000000000000000000000000000000000000000000000000000000000
000000000011111001000000100000000000000000000000000100000000000000000000000000000000000000000000000000000000001000000000000000000000000000000000000000000000000000000000000000000001111111010100000000000000000000000000000010000000000000000000000000000000000
000000000011110000000000000100000000000000000000000000000000000000000000000000000000000000000000100000000000000000000000000000000000000010000000000000000000000000000000000000000000110000000000000010000000000000000000000000000000000000000000000000000000000
000000000011110000000000000000000000000000000000000010000000000000000000000000000000000000000000000000000000001000000000000000000000000000000000000000000000000000000000000000000000111111000000001000000000000000000000000001000000000000000000000000000000000
000000000000000000000000000100000000000000000000000000000000000000000000000000000000000000000000000000000000000000000000000000000000000100000000000000000000000000000000000000000001111100000000000110000000000000000000000000000000000000000000000000000000000
000000000000000000000000000000000000000000000000000000000000000000000000000000000000000000000000000000000000000000000000000000000000000000000000000000100000000000000000000000000000000000000000000000000000000000000000000000000000000000000000000000000000000
000000000000000000000000000000000000000000000000000000000000000000000000000000000000000000000000000000000000000000000000000000000000000000000000000000100000000000000000000000000000000000000000000000000000000000000000000000000000000000000000000000000000000
000000000000000000000000000000000000000000000000000000000000010000000000000000000000000000000000000000000000000000000000000000000000000000000000000000000000000000000000000000000000000000000000000000000000000000000000000000000000001000000000000000000000000
000000000000000000000000000010000000000000000000000000000000000000000000000000000000000000000000000000000000000000000000000000000000000000000000000000000000000000000000000000000000000000000000000001000000000000000000000000000000000000000000000000000000000
000000000000000000000000000010000000000000000000000000000000000000000000000000000000000000000000000000000000000000000000000000000000000000000000000000000000000000000000000000000000000000000000000001000000000000000000000000000000000000000000000000000000000
000000000000000000000000000000000000000000000000000000000000000000000000000000000000000000000000000000000000000000000000000000000000000000000000000000100000000000000000000000000000000000000000000000000000000000000000000000000000000000000000000000000000000
000000000011111111110000000000000000000000000000000000000100000000000000000000000000000000000000000000000110000000000000000000000000000000000000000000000000000000000000000000000000111111111000010000000000000000000000000000000010000000000000000000000000000
000000000001001110010000000010000000000000000000000000000000000000000000000000000000000000000000000000000000000100000000000000000000010000000000000000000000000000000000000000000000110111010000000000100000000000000000000000000000000000000000000000000000000
000000000001111000000000000001000000000000000000000000000000000000000000000000000000000000000000000001100000100000100000000000000000010000000000000000000000000000000000000000000000111111000001100000100000000000000000000000000000000000000000000000000000000
000000000011111111100000000001100000000000000000000000000000000000000000000000000000000000000000000000000000000000000000000000000000010000000000000000000000000000000000000000000000111111100001000000110000000000000000000000000000000000000000000000000000000
000000000011111011000000000000100000000000000000000000000000000000000000000000000000000000000111100000100000000000000000000000000000100000000000000000000000000000000000000000000000110111100000000000010000000000000000000000000000000000000000000000000000000
000000000011111010100000000000010000000000000000000000000000000000000000000000000000000000000111000000000000000000000000000000000001000000000000000000000000000000000000000000000000111110110000000000001000000000000000000000000000000000000000000000000000000
000000000011111011001100001000010000000000000000000000000000000000000000000000000000000000000000010000000000000000000000000000000010000000000000000000000000000000000000000000000000110011111010010000001000000000000000000000000000000000000000000000000000000
000000000000111000000000000000001000000000000000000000000000000000000000000000000000000000000000000000000000000000000000000000000010000000000000000000000000000000000000000000000001110000000000000000001100000000000000000000000000000000000000000000000000000
000000000001111111000000000000000000000000000000000000000000001000000000000000000000000000000000000001000000000000000000000000000000000000000000000000000000000000000000000000000000111101100000000000000000000000000000000000000000000100000000000000000000000
000000000011110000000000000000000100000000000000000000000000000000000000000000000000000000000000000000000011100000000000000000100100000000000000000000000000000000000000000000000001111110000000000000000010000000000000000000000000000000000000000000000000000
000000000011111000011000000000000000000000000000000000000000000100000000000000000000000000000000000110000000000000000000000000000000000000000000000000000000000000000000000000000000111111000000000000000000000000000000000000000000000010000000000000000000000
000000000001111110001010000000000010000000000000000000000000000000000000000000000000000000000000000000000000000100000000000000001000000000000000000000000000000000000000000000000000111111111110000000000001000000000000000000000000000000000000000000000000000
000000000011111100000000000000000011000000000000000000000000000000000000000000000000000000000000000000000000000000000000000000010000000000000000000000000000000000000000000000000000111101000000000000000000000000000000000000000000000000000000000000000000000
000000000001110000000000000000000001000000000000000000000000000000000000000000000000000000000000000000000000000000000000000000010000000000000000000000000000000000000000000000000000011110100000000000000000100000000000000000000000000000000000000000000000000
000000000011111111000000000000000000100000000000000000000000000000000000000000000000000000000000001001000000000001110000000000100000000000000000000000000000000000000000000000000001111101000000011000000000100000000000000000000000000000000000000000000000000
000000000010111110000000000000000000100000000000000000000000000000000000000000000000000000000000000000000000000010000000000000100000000000000000000000000000000000000000000000000000111011000000000000000000010000000000000000000000000000000000000000000000000
000000000000111000000001000000000000000000000000000000000000000000111100000000000000000000000000000000000000000000000000000000000000000000000000000000000000000000000000000000000000011110000000000000000000000000000000000000000000000000010000000000000000000
000000000011101010000000000000000000010000000000000000000000000000000000000000000000000000000000000100000000000000000000000011000000000000000000000000000000000000000000000000000000110010000000000000000000001000000000000000000000000000000000000000000000000
000000000000011100000000000000000000001000000000000000000000000000000000000000000000000000000000000000000000000000000000000010000000000000000000000000000000000000000000000000000000011111110100000000000000000100000000000000000000000000000000000000000000000
000000000011111000000000000000000000001000000000000000000000000000000000000000000000000000000000000000000010000000000000000100000000000000000000000000000000000000000000000000000000111110010000000000000000000010000000000000000000000000000000000000000000000
000000000001111100000000000000000000000010000000000000000000000000000000000000000000000000000000000000000000000000000000000100000000000000000000000000000000000000000000000000000000111111000000000000000000000010000000000000000000000000000000000000000000000
000000000011111111111110100000000000000000000000000000000000100100000001000010000000000000000000000000000000000000000000000000000000000000000000000000000000000000000000000000000000111110000100110000000000000000000000000000000000000010100000000000000000000
000000000011111000000000000000000000000010000000000000000000000000000000000000000000000000000000000000000000000000000000001000000000000000000000000000000000000000000000000000000000111000000000000000000000000001000000000000000000000000000000000000000000000
000000000011111111011000100000000000000000000000000000000000000010000000110000000001000000000000000000000000000000000000000000000000000000000000000000000000000000000000000000000001111111011111110000000000000000000000000000000000000011000000000000000000000
000000000011111111111010000000000000000000000000000000000000000000000000000000000000000000000000000000000000000000000000000000000000000000000000000000000000000000000000000000000000111111111011010000000000000000000000000000000000000000000000000001000000000
000000000001111110100000010000000000000000100000000000000000000000000000000000000000000000000000000000000000000000000000010000000000000000000000000000000000000000000000000000000000111111110000100000000000000000000000000000000000000000000000000000000000000
000000000011111110000000000000000000000000010000000000000000000000000000000000000000000000000000000000000000000000000000100000000000000000000000000000000000000000000000000000000000111111000000000000000000000000001000000000000000000000000000000000000000000
000000000001111111111110000000000000000000001000000000000000000001100100000000000000000000000000000000000100000000000000000000000000000000000000000000000000000000000000000000000000111111001111100000000000000000001100000000000000000000000000000000000000000
000000000011100000000000000000000000000000001000000000000000000000000000000000000000000000000001000000000000000000000001000000000000000000000000000000000000000000000000000000000000111111000000000000000000000000000100000000000000000000000000000000000000000
000000000011111111110000000000000000000001000000000000000000000000000000000000000000000000000010001000000001100000000010000000000000000000000000000000000000000000000000000000000000111101100010000000000000000000000100000000000000000000000000000000000000000
000000000001111111111111100000000000000000001000000000000000001110000000000000000000000000001000000000000000000000000000000000000000000000000000000000000000000000000000000000000000111111111100111000000000000000000000000111000000000110011001100000000000000
000000000001111111100000011000000000000000000000000000000100000000000000000000000000000000000000000000000000000000000000000000000000000000000000000000000000000000000000000000000000111111111111001000000000000000000000000000100000000001110000000000000000000
000000000000111100000000000000000000000000000010000000000000000000000000000000000000000000000000000000000000000000000000000000000000000000000000000000000000000000000000000000000000011000000000000000000000000000000001000000000000000000000000000000000000000
000000000001111101111110000000000000000000000001000000000000000000000000000000000000000000000000000000000000000000000000000000000000000000000000000000000000000000000000000000000000000000011000000000000000000000000000100000000000000000000000000000000000000
000000000001111100011010100000000000000000010000000000000000000000000000000000000000000000000000000000001100000000010000000000000000000000000000000000000000000000000000000000000000111110000000111000000000000000000000100000000000000000000000000000000000000
000000000011111011001110000000000000000000000000100000000000000000000000000000000000000000000000000100000000000000010000000000000000000000000000000000000000000000000000000000000000111011111000000111000000000000000000010000000000000000000000000000000000000
000000000011100000000000000000000000000000000000100000000000000000000000000000000000000000000000000000000000000000000000000000000000000000000000000000000000000000000000000000000000111110010110000000000000000000000000000000000000000000000000000000000000000
000000000011111111000000000000000000000000000000010000000000000000000000000000000000000000000000010100000001101000100000000000000000000000000000000000000000000000000000000000000000111111001110000000000000000000000000001000000000000000000000000000000000000
000000000011001111010001010000000000000000000000001000000000000000000000000000000000000000000000000000000000000001000000000000000000000000000000000000000000000000000000000000000000111001000000000000000000000000000000001000000000000000000000000000000000000
000000000011111111100010110000000000000000000000000000110110011111111000000010100000000000000000000000000000000000000000000000000000000000000000000000000000000000000000000000000000111001111011000000000000000000000000001110111110110110011100000110010000000
000000000011111000000000010000000110000000000000000000000000000000000000000000000000000000000000000000000000000000000000000000000000000000000000000000000000000000000000000000000000111111000000001100111111100000000000000000000000000000000000000001101111110
000000000011111100000000000000000000000000000000000000000000000010000000000000000000000000000000000000000000000000000000000000000000000000000000000000000000000000000000000000000000111111100000000000000000000000000000000000000000000000000000000000000000000
000000000001111110100001000000000000000000000000000010000000000000000000000000000000000000000000001000000000000100000000000000000000000000000000000000000000000000000000000000000000111111111100010100000000000000000000000011000000000000000000000000000000000
000000000011111000000000000000000000000000000111111001110000000001100000000100000000000000000000000000000000000000000000000000000000000000000000000000000000000000000000000000000001111010100000000000000000000101101000000000110000000000000000000000000000000
000000000011101100001000010000000000000000000000000011000000000000000000000000000000000000001000000000000000001000000000000000000000000000000000000000000000000000000000000000000000111111100001000000000000000000000000000000100000000000000000000000000000000
000000000011111100111100000000000000000000000001000001000000000000000000000000000000000000000000000000011000010000000000000000000000000000000000000000000000000000000000000000000000111111000000110000000000000000000000000000100000000000000000000000000000000
000000000011111101000001101110000000000000000000000000000000000000010000000000000000000000000000000000000000000000000000000000000000000000000000000000000000000000000000000000000001111110110000011010000000000000000000000000000000000000000010000000000001100
000000000011110000000000000000000000000000000000000000100000000000000000000000000000000000000000000000000010100000000000000000000000000000000000000000000000000000000000000000000000111001000000010000000000000000000000000000000000000000000000000000000000000
000000000001111110000001001000000000000000000000000000010000000000000000000000000000000000000000000000000001000000000000000000000000000000000000000000000000000000000000000000000000111111000000000000000000000000000000000000001000000000000000000000000000000
000000000011110001000000000000000000000000000000000000011000000000000000000000000000000000000000010000000001000000000000000000000000000000000000000000000000000000000000000000000000111111000100000000000000000000000000000000001100000000000000000000000000000
000000000011111011001110100000000000000000000000000000001000000000000000000000000000000000000000000000000010000000000000000000000000000000000000000000000000000000000000000000000000111111110111100000000000000000000000000000000100000000000000000000000000000
000000000011111110000000000000000000000000000000000000000100000000000000000000000000000000000000000000000010000000000000000000000000000000000000000000000000000000000000000000000000111011000000000000000000000000000000000000000010000000000000000000000000000
000000000011111100100000010011000001100100001111110001111111100010000011000111111000000000110000000000000000000000000000000000000000000000000000000000110000000000000000000000000000111111011000011001110000010011000011111000111111110001000111000000001000000
000000000000000000000000000000000000000000000000000000000010000000000000000000000000000000000000000000000100000000000000000000000000000000000000000000000000000000000000000000000000111110110100100010000000000000000000000000000001000000000000000000000000000
000000000000000000000000000000000000000000000000000000000011000000000000000000000000000000000000000000000000000000000000000000000000000000000000000000000000000000000000000000000000000000000000000000000000000000000000000000000001000000000000000000000000000
000000000011111110000000000000000000000000000000000000000001000000000000000000000000000000000000000000000000000000000000000000000000000000000000000000000000000000000000000000000000000000000000000000000000000000000000000000000000100000000000000000000000000
000000000001111111100000000000000000000000000000000000100001000000000000000000000000000000000000000000010000000000000000000000000000000000000000000000000000000000000000000000000000100111100000110000000000000000000000000000000000110000000000000000000000000
000000000011011000000000000000000000000000000000000000001000100000000000000000000000000000000000000000100000000000000000000000000000000000000000000000000000000000000000000000000000111111101001111100000000000000000000000000000100010000000000000000000000000
000000000011111110011101000000000000000000000000000000000000010000000000000000000000000000000000000000100000000000000000000000000000000000000000000000000000000000000000000000000000111111010000110000000000000000000000000000000000010000000000000000000000000
000000000011111000100110000000000000000000000000000000000000110000000000000000000000000000000000000001000000000000000000000000000000000000000000000000000000000000000000000000000001111111000001000100000000000000000000000000000000001000000000000000000000000
000000000011111100010000110011100001100100000111110001111111000010001111000111111000010000100000000111100010011000000011000000000001110000000100000000000000000000000000000000000001111111001000001001100000010011000011111100111111010000000011110011111110001
000000000011110010000111000000000000000000000000000000000000001000000000000000000000000000000000000010000000000000000000000000000000000000000000000000000000000000000000000000000000111010100111100000000000000000000000000000000000000100000000000000000000000
000000000011110100000111000000000000000000000000000000000000000100000000000000000000000000000000000100000000000000000000000000000000000000000000000000000000000000000000000000000000111111000001011000000000000000000000000000000000000010000000000000000000000
000000000011111100001000000000010000000000000000000000000000000100000000000000000000000000000000000100000000000000000000000000000000000000000000000000000000000000000000000000000000110111100000000000000000000000000000000000000000000010000000000000000000000
000000000011111110011000001001100000110011000011111001111100110011000111100001101100011000010000000110000011111100000000001111000000110000000000000000000000000000000000000000000000111111100100000100111000001001100001111100001111111000110011111001111111000
000000000011111001000110011010000000000000000000000000000000000010000000000000000000000000000000001000000000000000000000000000000000000000000000000000000000000000000000000000000000111111100000000000000000000000000000000000000000000001000000000000000000000
000000000011110000011100000000000000000000000000000000000000000001000000000000000000000000000000010000000000000000000000000000000000000000000000000000000000000000000000000000000001111110000000000000000000000000000000000000000000000000100000000000000000000
000000000000100000000000000000000000000000000000000000000000000001100000000000000000000000000000010000000000000000000000000000000000000000000000000000000000000000000000000000000000111111000000000000000000000000000000000000000000000000110000000000000000000
000000000000110000000000000000000000000000000000000000000000000000111100000000000000000000000000000000000000000000000000000000000000000000000000000000000000000000000000000000000000000100000000000000000000000000000000000000000000000000010000000000000000000
000000000011111110111111100000000000000000000000000111100000000000111100000000000000000000000000000000000000000000000000000000000000000000000000000000000000000000000000000000000000011100000000000000000000000000000000000000000000000000011110000000000000000
000000000011111011001000001001110000010011000111111000111111100001000111100011111100001000000000000011100000101000000000001110000001100010000100000000000000000000000000000000000000111111100010000110111000001100100001111110011110111000010011110001111110000
000000000011110000000011100000000000000000000000000000000000000000000000000000000000000000000000000000000000000000000000000000000000000000000000000000000000000000000000000000000000011110000011010000000000000000000000000000000000000000000000000000000000000
000000000011111110100001000000000000000000000000000100000000000000100000000000000000000000000000000000000000000000000000000000000000000000000000000000000000000000000000000000000000111100000000000000000000000000000000000000000010000000000000000000000000000
000000000011111111001000001101110000011011000011111100111111100000000111100011111110010000100001000101100001101000000001001110000001100000000000000000000000000000000000000000000001111111100000000010011100001100110001111110001111111100010001011001101111000
000000000011111111111111100000000000000000000000000100000000010101000000011000000000010000000000000000000000000000000000000000000000000000000000000000000000000000000000000000000001111111110000110000000000000000000000000001010100000000000000111001100000000
000000000011111100100001100000000000000000000000000000000000000000000000000000000000000000000000000000000000000000000000000000000000000000000000000000000000000000000000000000000001111111111011111000000000000000000000000010001100000011000000000000100001000
000000000011111111100000000000000000000001100000000000000000000000000000000000000000000000000000000000000000000000000000000000000000000000000000000000000000000000000000000000000000111111000000000000000000000000000000000000000000000000000000000000000000000
000000000011111110000011100000000000000000000000000000000000000000000001000000010000000000000000000000000000000000000000000000000000000000000000000000000000000000000000000000000001111111001110111000000000000000000000000000000000000000000000000000000000000
000000000011111111111111110000000000000000000011010000000000000011000000100000000000000000001000000000000000000000000000000000000000000000000000000000000000000000000000000000000000011111011111000000000000000000000010000000000000000000000000000000000000000
000000000011111111100110000010011000001101100001111100011111111000000011110001111110001100010000000001100001110000000001001100000001100000000100000000000000000000000000000000000000111110011001000001001110000010011000111111001111111100001000011000111111100
000000000001111100000000000000000000000000000000000000000000000000000000000000000000000000000000000000000000000000000000000000000000000000000000000000000000000000000000000000000000111111010100000000000000000000000000000000000000000000000000110000000000000
000000000011111110000000000000001000000000000000000000000000000111100001000000000000000000000000000000000000000000000000000000000000000000000000000000000000000000000000000000000000111111111001010000000000000000000000000000000000001110011000100000000000000
000000000011111111110001110000000000000000000000000000000000000010010000000000000000000000000000000000000000000000000000000000000000000000000000000000000000000000000000000000000000111111111110000000000000000000000000010000001000000011100000000000000000000
000000000011101111111110001000000000000000001000000000000000000010000000001000000000000000000000000000000000000000000000000000000000000000000000000000000000000000000000000000000000111111111100000000000000000000000000000000000000000001100000000000000000000
000000000011111110110010000000011100000100110000111110001101111000000001110001111110001100001000100011100000000000000001001110000001100100001000000000000000000000000000000000000000111111001001000000101110000010011000011111000111111000001000111100011111100
000000000011011110110010000010011100000100100000111110011111111000000001110000111110001000110001100011100011111000000010001100000010000000010000000000100000000000000000000000000001111011001001100001101110000010011000011111000111110110001000111100111111000
000000000001110111011010000101000000001000000000001100010000001101000011000101100000000000000000000000000000000000000000000000000000000000000000000000000000000000000000000000000000111111101111100000000000000000000000000000011000000000000000000111000000000
000000000011111110010000000010011100000100110000111110001111111000010001111001111100000100010000100101100000011000000010001100000011100000000000000000010000000000000000000000000000111111001000100000000110000011001000011111100111111110000000111100011111100
000000000011111111111100100000000000000001000000000010000000000011110110010000000000000000000000000000000000000000000000000000000000000000000000000000000000000000000000000000000000111100000000000000000000000000000000000001000000000000110000001001000000000
000000000011111110010010000011011100001100110000111110011111110000010011110001010110001000010000000111100011110000000010001100000011000000000000000000100000000000000000000000000001111111101100000000101110000011011000011111000111111110001000111100011111100
000000000001001110111000100000000000000000000000000000011100111101000000111000000000000000000000000000000000000000000000000000000000000000000000000000000000000000000000000000000000110111110010000000000000000000000001011111110010000110111100111110000000000
000000000011111100000000000000000000000000000000000000000000000000000000000000000000000000000000000000000000000000000000000000000000000000000000000000000000000000000000000000000000000000000000001100000000000000000000000000000000000111000000000000000000000
000000000011111111100010111000000100000000000000100000001100000000000100111111011110000000000000000000000000000000000000000000000000000000000000000000000000000000000000000000000000111111100000011000000000000000000000000000000000000000000111000010000000000
000000000011000000001000000000010000000000000000000001000000000000000000000111100000000000000000000000000000000000000000000000000000000000000000000000000000000000000000000000000000011101100000010000000010000000000000000000000000000000000000000000001111000
000000000011111101101100000000101110000011011000011111000110111100000001111000111111000000011001100011100010010000000000011100000001000000110000000000000000000000000000000000000000111110010110000000010011100001100100001111110011101111000000001110011110000
000000000011111000100000000000000000000000000000001000011000000000000000000000000000000000000000000001100000000000000001000000000000000000000000000000000000000000000000000000000000111100000000000000000000000000000000001100100000000001000000000000000000000
000000000011111101100000100000000000000000000000000000000000000000000110000000000000000000000000000000000000000000000000000000000000000000000000000000000000000000000000000000000000111110010000000000000000000000000000000110000000000000000000000000000000000
000000000011111101100000100111000000000000000000000000000000000000000000000000000000000000000000000000000000000000000000000000000000000000000000000000000000000000000000000000000000111110011000011000000000000000000000000000000110000000000000000001000000000
000000000011111100100001110111000001000000000000000000000000000000000000000000000000000000000000000000000000000000000000000000000000000000000000000000000000000000000000000000000000111110011000011011100000000000000000000000000000000000000000000000000000000
000000000011111100100000100111000001001100000000000000000000000100000000000000000000000000000000000000000000000000000000000000000000000000000000000000000000000000000000000000000000111110010000011011100000110000000000000000000000000000000000000000000000000
000000000011111100100000100111000001001100001111100000000000000000000000000000000000000000000000000100000000000000000000000000000000000000000000000000000000000000000000000000000000111110011000011011100000110010000000000000000000000000100000000000000000000
000000000011111101100000100111000001001100001111110011100000000000000000000000000000000000000000000000000000000000000000000000000000000000000000000000000000000000000000000000000000111111111000011001100000110010000111110000000000000000000000000000000000000
000000000011111100100000100111000001000100001111110001111111000000000000000000000000000000000000000000000000000000000000000000000000000000000000000000010000000000000000000000000000111110011000001001100000110011000111111000110000000000000000000000000000000
000000000011111100100000100111000001000100001111110001111011000010000000000000000000000000000000000000000000000000000000000000000000000000000000000000110000000000000000000000000000111111011000011011110000110011000011111000111111100000000000000000000000000
000000000011111100100000110111000001000100001111110011111110000000001111000111110000000000000000000000000000000000000000000000000000000000000000000000110000000000000000000000000000111111011000011001100000010011000011111000101111110001100000000000000000000
000000000011111100000000100011000001100100001111110011111101100110000111000111111100011000110011000111100000010000000000000000000000000000000000000000110000000000000000000000000000111110001000011001110000110011000011111000111111110000100111110011111100000
000000000011111100000000110011000001100110001111110011111110000010001011000111010100000001100001000111100011110000000001000001000000110000000000000000000000000000000000000000000000111111001000001001100000010011000011111100111111110001000001100011011000001
000000000011111100000000010011000001100100001111110001111111100010001111100011111100000000000001000100100001110000000000000011000000111000000110000000000000000000000000000000000000111111000000001001110000010011000011111000111101100001100001100011111010000
000000000011111100010000010001000001100110000111110001101111000010001111000011110100001000100001000011100010110000000000000000000000011000000010000000000000000000000000000000000000111111000000001101110000011011000011111100111111100000100011110011111110000
000000000011101110000000010011000000100100001111110000111111100011000111000011111000000000110011000101100011111100000001000100000000011000000010000000000000000000000000000000000000111110001000001100110000011011000011111100111111110000100011110001111010000
000000000011111100010000010011100000100110000111110001111110100000000111100111110000011000000011000100000000011100000001000110000000011000000000000000000000000000000000000000000000111111001000001101110000010011000011111100001110100000100011110000111110000
000000000011111100010000010011000001100110001111110001111111100010000111100111101100000001100000000111000010110000000011000111000001110001000010000000000000000000000000000000000000111110001000001100110000011011000011111000101110000000000111110001111100000
000000000011111110110000010011000000100110000111110001111111100011000110000111111100001000000010000011100001111100000011000101000001110000000000000000000000000000000000000000000000111111001000001100110000011001000011111100011111110000100011110001111011000
000000000011111110010000010011100000100110000111111001111111000111001111000111001100001000000001000111100001111000000011000100000001110000000110000000000000000000000000000000000000111111001100001100110000011001000011111100011111111000100011110001111000000
000000000011111110000000010011100000100010000111111001111111100010000110000111110000000000110011000001100000010000000001001110000000110000000000000000000000000000000000000000000000111111000100000100110000011001000011111100111111010001000011110001111010000
000000000011111110011000011011100000100110000111111000111111100011000111100111111100011000100000000010100001011000000011001110000001110000000000000000000000000000000000000000000000111111100100001100111000011001100011111100111111110000000011110001111110000
000000000011111110011000011001100000110010000111111001111111100001000111000011111100011000110001000110000001111100000001000111000001110000000100000000000000000000000000000000000000111111000100000101111000001001100001111100011111101001100011110001111110000
000000000000000111011110110010000010111000001001000011111001111111000000011000011111100100011001100110100111110000001000000000000000000000010000010000000000000000000000000000000000000011111101011000000000101110000100110001111100111111110000000110000111110
000000000011111110011000001001100000110010000111111000110110110011000111100011111100011000110010000111100000111000000001001111000000110000001110000000000000000000000000000000000000111111100100000100111000001100100001111100001111110000110011110001111111000
000000000011111111001000001001110000110011000111111001110111110001000100100011110000011000110000000000100010011100000001001110000000110000000000000000000000000000000000000000000000111111100100000100011000011001100001111110011111011000010011110000111111000
000000000011111110000000001001110000110011000111111001111111010001000111100011111100001000110000000011000000001100000011001110000001110000000100000000000000000000000000000000000000111111100100000110111000001001100001111110001111111000110011110001111111000
000000000011111110000000001001110000010010000111111001111100000001000111000001111100001000010000000111000000011000000001001110000001100010000000000000000000000000000000000000000000111111100110000110111000001101100001111110011110111000100001110001111101000
000000000011111110001000001001100000110011000011111000011110110000000111100011110100000000110000000100000001011100000000001110000001110000001100000000000000000000000000000000000001111111100000000000011000001001100001111110011011111000110011100001111111000
000000000011111111001000001001110000010011000011111100111110110000000111100011111100000000110000000110000010110000000011001100000001000000000000000000000000000000000000000000000001111111100100000110111000001100100001111110001111111000110011111001111111000
000000000011111111001000001101110000011001000011111000110111110001000111100001111110011000110011000011000011110000000011001110000001100010000000000000000000000000000000000000000000111111100000000010011000001100100001111110011001101000010001111000111111000
000000000011111111001000000101110000011011000011111100111111010001000111100011111100001000110000000011000000000000000001001110000001100000000000000000000000000000000000000000000000111111100010000010011000001100110001111110011111110000010001111000111111000
000000000011111011001000000101110000011001000011111000111111110001100011100011111100001000110000000111100000101000000000001110000001100000000000000000000000000000000000000000000000111110110000000010011100001100100001111110001101010000110001111000011111000
000000000011111111001100000100110000011001000011111100111111110000000111100011111100001000000000000111100000001000000010001110000001100000000000000000000000000000000000000000000001111110100010000010011000001100110000111110001101111100010001111000110111000
000000000011111001001100000100110000011001000011111100111111110001000001100001111100000000000000000001100011010000000010001110000001100000000100000000000000000000000000000000000001111110110010000000011100001100110000111110011111111100000001111000111111000
000000000011111101100100000100110000011011000011111100111111110000100011110011111110000000010000000010100101011000000000000110000001100000000100000000000000000000000000000000000001111111110010000010011100000100110000111110000111110100000000111000111111000
000000000011111101000100000100101000001001000011111100011111110000100101100011111110001000010000000000000011101000000010000110000001100000000000000000000000000000000000000000000001111110110010000000011100000100110000111110001111111100010001111000111111000
000000000011111101100100000100111000001001100011111000011111110000100111110011111110000000000000000111100001111000000010011100000001100000000000000000000000000000000000000000000001111110110000000010011100000110110000111110001111110100000000011000111111000
000000000011111101100100000100111000011001000001111100111111000000100011100000111110011000010010000111100111100000000010000100000001100000000000000000000000000000000000000000000001111110110011000000011100000100110000111110001111111100000001111000111011000
000000000011111101100100000100111000001001100011111100111111100000100011010001111110001000110001000111100001101000000010001000000011000100001000000000000000000000000000000000000001111111110000000001011100000110010000111110001111111100000001111000111111000
000000000011111100100000000000111000001001100001111100011111110000000011110001111110001000110001000111000001110000000010011100000000000100010000000000000000000000000000000000000001111110010001000001011100000110010000111111001111111100011000111000011110000
000000000011111101100000000110111000001000100001111100001111011000100011110001111110001100110001000011100010111000000010001100000011000000011000000000000000000000000000000000000001111111011001000001001110000110010000111111001111111100000000111000111001000
000000000011111110100000000010111000001100100001111110011111111000100001110001111110001000110001000111100000000000000010011100000011000000010000000000000000000000000000000000000001111111000001000001001100000110011000111111000110111100000001111000011111000
000000000011110100100010000010011000001100100001111110011111011000000010110001110110001000010001000110100010011000000010001100000011000000001000000000000000000000000000000000000001111111011000000000001110000110011000011111001111111100000000111000111111000
000000000011111100100000000010011100001100100001111110011111111000000011000001111110001100110000000111100110001000000010001100000000000000010000000000000000000000000000000000000001111111001001000000001110000010011000011111000111111100001000011100111111000
000000000011111110100000000010011100000100100001111110001111111000100011110001111110001000110011000111000111110000000110001100000011000000010000000000000000000000000000000000000001111111011001000001001110000010011000011111001111111100001000111100111111000
000000000011110110010010000010011100000100100000111110011111101000010011110001111110000000110001000110100111111000000100011100000000000000000000000000100000000000000000000000000001111111011000000000101110000010001000011110000111111100000000011100011011000
000000000000011111100011110000000000000000011000011011000111110111111100110011100011110001001111111111111111111111111111111000000000000000000000000000000000000000000000000000000000001111111000110000000000100001001110001101100011111001111110001001110001111
000000000011111110010000000010011100000110110000111110010011111000000011110001111110001100010001000111100000011000000110000100000011000000010000000000100000000000000000000000000001111101001000100000101110000011001000011111100111111110001000111100011101100
000000000000011111000111110011000000001111111111111111000011110011111111111111111111111111111111111111111111111111111111100000000000000000000000000000000000000000000000000000000000001111110001111111000000001111111111000000100001111001111111011111111111111
000000000011101011001000000001001110000110010000111111000101111000110001111001011110000000010000000111100011100000000000011100000011000000010000000000100000000000000000000000000001111100101000100000110111000001001000001111100111111110000000101100011101100
000000000011111011011000000000101110000010011000011111000111111100000001111000111110000100011001100011100000000000000010001100000011000000000000000000100000000000000000000000000000111111110110000000010011000001100100001111100011111111001100011110001111000
000000000011100011000000000001001110000010010000111111001111111100010001111000111111001100010001100111100010010000000100011100000011001000000000000000000000000000000000000000000001111100111100000000010111000001001100001111100011111110000000011100001111100
000000000011110000001000000000100111000011001000011111000111111110011000011000011101000100000001100110100011010000000000001000000011000000000000000000100000000000000000000000000000111100110010000000010011100001100100000111110011111111000100011110011110110
000000000011110001100100000000110111000011001000011111100101111110000001111000011111000000010001100011100010101000000000011000000010000000000000000000100000000000000000000000000000111100010010000000011011100000100110001111110011111111000000011110001111100
000000000011111110100100000000110111000001001000011111100110111110001000111000110101000100011001100011100010000000000110001100000000000000110000000000000000000000000000000000000000111100010010000000001011100000100110000111110011111011000000011110001111110
000000000011111000100100000000110111000001001000011111100111111110001000111000011111000100011000100011100001000000000010001000000110000000010000000000000000000000000000000000000000111100010011000000001011100000110110000111110011111111000100011110000011110
000000000011111010100000000000010111000001001100011111100011111110001000100000111111000000001001100011100011010000000010011100000011000000000000000001000000000000000000000000000000111100000010000000001001100000110110000111110011111101000110011110000011110
000000000011111000000000000000010111000001101100001111100111111110000000111100001111000000001000100011100011000000000000011000000111000000110000000001000000000000000000000000000000111110000001000000001101110000110010000111111001111111000000001110001111110
111100000011111111111111111111111111100001111111111111111111111111111111111111111111111111111111111111111111111111111111100000000000000000000000000000000000000000000000000000000000000000011111110111111111110000111111111111111111111111111111111111111111111
000000000001111100010010000000011011100001100100001111100011110110000000111100001111100000001000100011100010011000000010001100000101000000000000000001010000000000000000000000000000111110001000000000000101110000010010000111111001110110100010001110001010110
000000000011111100010010000000010011100001100100001111100111101110001000111100010111000000000000000011100011100000000010111100000000010000000000000001010000000000000000000000000000111110001101000000000101110000010011000111111001111111000010000010001111010
000000000011111100010010000000011011100001100100001111100011111110000000011100001110000110001000100011100011110000000110011000000100000000000000000000000000000000000000000000000000111110000001000000000101110000011011000011111000111111100010001110001111110
000000000011111100010010000000001011100000100110001111110011111110000000111100111111000110000001100000100011111000000100001000000010010000000000000010010000000000000000000000000000111110000100000000000100110000011011000011111001111111100000001110000010010
000000000001111100011010000000001011100000110110001111110011111110000000011100011110000110011001100111100110000000000100011000000000000000000000000010000000000000000000000000000000111111000100000000000000111000011001000011111001111111100010001110000111110
000000000001111110011011000000001101110000110110000111110011111100001100001100001111100000001001100011100011101000000000101000000000000001000000000010000000000000000000000000000000011111000100100000000010111000011001000011111000111111100000001111000100110
000000000001111111001010000000001101110000110110000111110011111111000100011100011100100000001000100011100011111000000100000000001000000001000000000000000000000000000000000000000000011111101110100000000010111000001001100011111000111111100000001111000000000
000000000000011111101111000000001101110000010110000111110011111111000100111100011011000110001000100111100011100000000100011000000010000000000000000100100000000000000000000000000000011111000111100000000010111000001001100011111001111111100000001110001111110
111000000000000000000000000000000000000000000000000000000000000000000000000000000000000000000000000000000000000000000000000000000000001100001100000000000000000000000000111110000000000000000000000000000000000000000000000000000000000000000000000000000000000
000000000000011111101101000000000101110000010010000111111001111111000000001100001110100000001000100011100111000000000100011000001100000000000000000001000000000000000000000000000000000111111110110000000010011100001101100011111100111111100000001101001010000
000000000000001111111101000000000101110000010010000111110011111111000000000000011101000100001001100111100011110000001000110000001100000000000000001001000000000000000000000000000000001111111111110000000000011100001001100011111100111111100010000000000111110
000000000000000111101101100000000010111000011011000111111001111010000000001010011111100010001000100011100001111000001100111000000000000000000000001101000000000000000000000000000000000011111110011000000001011100000100100001111100111111100001000111000000000
000000000000001111111110100000000010111000011011000011111001111111100100010010001111100010001000100011100011111000000100110000001100000000001000001001100000000000000000000000000000000011111011011000000000011100000100110001111110011011110000000000000010000
000000000000000111111110110000000010111000001001000011111001111111000000011110001110100010001000100111100011110000001100110000000100000000000000001000000000000000000000000000000000000011111111001000000000101110000100110001111100111111100000000111000110110
000000000000000111111110110000000000111000001001100011111101111111100000001100001111100010001001100010100011110000001100000000011100000000000000011000000000000000000000000000000000000011110111011000000000101110000100110001111110111111110001000010000011100
000000000000000011111110110000000001011100001001100011111001111111100000011010000011100010001000100111100111111000001000110000010100000110000000001001010000000000000000000000000000000001111111101000000000001110000110110000111110011111110000000010000011111
000000000000000011111110010001000001011000001101100001111101111111100000000110001111100010001000100011100011111000001000100000000000000010010010000001000000000000000000000000000000000001111111101100100000101110000110010000111110011111110000000011000001111
000000000000000011101111110000000001011100001101100011111111111111000010001110001111000010001001100111100111110000001000110000001001000100010000000000000000000000000000000000000000000001111101101100000000101110000010010000111110011111110000000000000001110
000000000000000011111111011000000001001100001101100001111111111111100010000000000011000010001000100111100111110000001001110000011000000100010111000000000000000000000000000000000000000001111111111100000000100110000010010000111111111111110000000000000111111
000000000000000011111111011001000001011100000100110001111111111111100000001000001111100010001001100111100111110000001000010000011000000100000000000000000000000000000000000000000000000000111111101100000000110111000010010000111111111111111000000101000001111
000000000000000001111111001000000000101110000100110001111111111111100000000000000111100010001001100011100111110000001001100000001000000100001000000000000000000000000000000000000000000000111111110110010000010111000011011000111111111111111000000010000111111
000000000000000001111111101100100000101110000110110001111111111111110000000110001111100000001000100111100111110000001001100000010000000000011000000000000000000000000000000000000000000000111111110110010000010111000001011000111111111111111000000001100011111
000000000000000001111111101100100000100110000010110001111111111111100000000000001111100000011101100011100111110000001001100000000000001100000001000000000000000000000000000000000000000000011111110110000000010011000011001000111111111111111000000001100001111
000000000011000000111111101100100000100110000010010000111111111111110000000110000111100011001000100111100111110000001001000000100000001100000000000000000000000000000000000000000000100000011111110110000000010011000001001000011111111111111000000000000011111
000000000011000000111111100100000000100110000010010001111111111111110000000000000011100010001100100111100111110000001011100000010000001000000000000000000000000000000000000000000000110000011111011010001000001011100001101100011111111111111000000001100001111
000000000011100000111000100100000000110110000010010000111111111111110000000110001111100010001001100111100111110000011001100000010010110000000000000000000000000000000000000000000000110000001110110010001000001011100001101100011111111111111000000001000001111
000000000011110000011010100100010000010111000011011000111111111111110000001010001111100010001101100111100111110000000001000000110010000000010000000000000000000000000000000000000000110000001110001011001000001011100001101100011111111111111000000011100011111
000000000011111100011100010010000000010011000011011000111111111111110000000011000111110011001001110111110111110000001001100000010110000000000000000000000000000000000000000000000000111000001110001001000100000101100000100100011111111111111000000000000011111
000000000011111100001100000010000000010011000001001000111111111111110001000111000111110011001000111111111111110000000001100001111100000000000000000000000000000000000000000000000000111110000110000000000000000101110000100100011111111111111100000001000011111
000000000001111110000100000000001000000001000001001000111111111111110000000111000111110011001100110111100111110000010000100001111011100000000000000000000000000000000000000000000000111111000110000000100000000101110000110100001111111111111100100001100011111
000000000001111110000110001000001000001011000001001000011111111111111000000111000111110010001101111111111111110000010011101111110100000000000000000000000000000000000000000000000000111111000011000100000000000100110000110110001111111111111100000011100001111
000000000001111110000010001001000000001001100001101100011111111111111000000111000111110011001101111111111111110000010011111111110000000000000000000000000000000000000000000000000000111111000001100100000000000100110000010010001111111111111100010001110011111
000000000001111000110000000001000000001001100001101100011111111111111000000111000111110011001100111111111111110000010111111111110000000000000000000000000000000000000000000000000000111111001000110100100010000110110000010010001111111111111100010011100011111
000000000001111100110000000001000000000001110000100100011111111111111000100011000111110011001101111111111111110000011111111111110000000000000000000000000000000000000000000000000000011110001000000010000010000010111000010010001111111111111100010011100011111
000000000001111100100000000101100000000101100000100100011111111111111000100111000111111001001101111111111111111111111111111111100000000000000000000000000000000000000000000000000000011110001100000010010010000010011000011011000111111111111110010001110011111
000000000011111101100000000000100100000101110000100100011111111111111000100111000111110011011111111111111111111111111111111111000000000000000000000000000000000000000000000000000000011110111100000010010010000010011000011011000111111111111100010001110011111
000000000000111101100010000000100000000100110000110110001111101111111000100111000111110001001111111111111111111111111111111110000000000000000000000000000000000000000000000000000000011110111000000001010000000010011000011011000111111111111100010001110011111
000000000000111101100011000000010010000110111000110010001111100111111100100011100011110001111111111111111111111111111111111000000000000000000000000000000000000000000000000000000000011111011000010000011001000001011000001001000111111011111110011001110001111
