0  0
1  2
2  4
3  6
4  8
5  0
6  2
7  4
                                |
0                               |1111 1111 1111 1111
3                            111|1111 1111 1111 1     shift 3, 1 nib
+                           1010|1111 1111 1111 1
4                         1 0101|1111 1111 1111
+                         1 1000|1111 1111 1111
5                        11 0001|1111 1111 111
6                       110 0011|1111 1111 11         2 nib
+                      1001 0011|1111 1111 11
7                    1 0010 0111|1111 1111 1
+                    1 0010 1010|1111 1111 1
8                   10 0101 0101|1111 1111
+                   10 1000 1000|1111 1111
9                  101 0001 0001|1111 111             3 nib
+                 1000 0001 0001|1111 111
10              1 0000 0010 0011|1111 11
11             10 0000 0100 0111|1111 1
+              10 0000 0100 1010|1111 1
12            100 0000 1001 0101|1111                 4 nib
+             100 0000 1100 1000|1111
13           1000 0001 1001 0001|111
+            1011 0001 1100 0001|111
14         1 0110 0011 1000 0011|11
+          1 1001 0011 1011 0011|11
15        11 0010 0111 0110 0111|1
+         11 0010 1010 1001 1010|1
16       110 0101 0101 0011 0101

                  r18       r17       r16
0                |              |1111 1111 1111 1111
3                |           111|1111 1xxx 1111 1111     shift 3, 1 nib
+                |          1010|1111 1xxx 1111 1111
4                |        1 0101|1111 xxxx 1111 1111
+                |        1 1000|1111 xxxx 1111 1111
5                |       11 0001|111x xxxx 1111 1111
6                |      110 0011|11xx xxxx 1111 1111         2 nib
+                |     1001 0011|11xx xxxx 1111 1111
7                |   1 0010 0111|1xxx xxxx 1111 1111
+                |   1 0010 1010|1xxx xxxx 1111 1111
8                |  10 0101 0101|xxxx xxxx 1111 1111
+                |  10 1000 1000|xxxx xxxx 1111 1111
9                | 101 0001 0001|1111 111             3 nib
+                 1000 0001 0001|1111 111
10              1 0000 0010 0011|1111 11
11             10 0000 0100 0111|1111 1
+              10 0000 0100 1010|1111 1
12            100 0000 1001 0101|1111                 4 nib
+             100 0000 1100 1000|1111
13           1000 0001 1001 0001|111
+            1011 0001 1100 0001|111
14         1 0110 0011 1000 0011|11
+          1 1001 0011 1011 0011|11
15        11 0010 0111 0110 0111|1
+         11 0010 1010 1001 1010|1
16       110 0101 0101 0011 0101


15        11 0010 0111 0110 0111|1
+         11 0010 0111 1001 1010|1
16       110 0100 1111 0011 0101
