! XPM2
255 255 2 1
1 c #FFFFFF
0 c #000000
110000000000001111111111111111111111111111111111111111111111111111111111111111111111111111111111111111111111111111111111111111111111111111111111111111111110000000000000011100000000000111111111111111111111111111111111111111111111111111111111111111111111111
110000000000001111111111111111111111111111111111111111111111111111111111111111111111111111111111111111111111111111111111111111111111111111111111111111111110000000000000011100000000000111111111111111111111111111111111111111111111111111111111111111111111111
110000000000001111111111111111111111111111111111111111111111111111111111111111111111111111111111111111111111111111111111111111111111111111111111111111111110000000000000011100000000000111111111111111111111111111111111111111111111111111111111111111111111111
110000000000001111111111111111111111111111111111111111111111111111111111111111111111111111111111111111111111111111111111111111111111111111111111111111111110000000000000011100000000000111111111111111111111111111111111111111111111111111111111111111111111111
110000000000001111111111111111111111111111111111111111111111111111111111111111111111111111111111111111111111111111111111111111111111111111111111111111111110000000000000011100000000000111111111111111111111111111111111111111111111111111111111111111111111111
110000000000001111111111111111111111111111111111111111111111111111111111111111111111111111111111111111111111111111111111111111111111111111111111111111111110000000000000011100000000000111111111111111111111111111111111111111111111111111111111111111111111111
110000000000001111111111111111111111111111111111111111111111111111111111111111111111111111111111111111111111111111111111111111111111111111111111111111111110000000000000011100000000000111111111111111111111111111111111111111111111111111111111111111111111111
110000000000001111111111111111111111111111111111111111111111111111111111111111111111111111111111111111111111111111111111111111111111111111111111111111111110000000000000111100000000000111111111111111111111111111111111111111111111111111111111111111111111111
110000000000001111111111111111111111111111111111111111111111111111111111111111111111111111111111111111111111111111111111111111111111111111111111111111111110000000000000111100000000000111111111111111111111111111111111111111111111111111111111111111111111111
110000000000001111111111111111111111111111111111111111111111111111111111111111111111111111111111111111111111111111111111111111111111111111111111111111111110000000000000111100000000000111111111111111111111111111111111111111111111111111111111111111111111111
111111111111111111111111111111111111111111111111111111111111111111111111111111111111111111111111111111111111111111111111111111111111111111111111111111111111111110000000000000011100000000000011111111111111111111111111111111111111111111111111111111111111111
111111111111111111111111111111111111111111111111111111111111111111111111111110000000111111111111111111111111111111111111111111111111111111111111111111111111111111111111111111111111111111111111111111111111111111111111111111111111111111111111111111000000000
111111111111111111111111111111111111111111111111111111111111111111111111111110000000011111111111111111111111111111111111111111111111111111111111111111111111111110000000011111111111111111111111111111111111111111111111111111111111111111111111111111111111111
111111111111111111111111111111111111111111111111111111111111111111111111111110000000011111111111111111111111111111111111111111111111111111111111111111111111111110000000011111111111111111111111111111111111111111111111111111111111111111111111111111000000001
111111111111111111111111111111111111111111111111111111111111111111111111111100000000111111111111111111111111111111111111111111111111111111111111111111111111111110000000011111111111111111111111111111111111111111111111111111111111111111111111111111000000001
111111111111111111111111111111111111111111111111111111111111111111111111111100000000111111111111111111111111111111111111111111111111111111111111111111111111111110000000011111111111111111111111111111111111111111111111111111111111111111111111111111000000001
111111111110000000111111111111111111111111111111111111111111111111111111111111111111111111111111000000001111111111111111111111111111111111111111111111111111111111111111111111111111000000001111111111111111111111111111111111111111111111111111111111111111111
111111111110000000000000000000000000000000000000000000000000000000000000000000000001111111111110000000011111111111111111111111111111111111111111111111111111111111111111111111111111000000001111111111111111111111111111111111111111111111111111111111111111111
111111111110000000000000000000000000000000000000000000000000000000000000000000000001111111111110000000000000000000000000000000000000000000000000000000000000000000000000111111111111000000001111111111111111111111111111111111111111111111111111111111111111111
111111111110000000000000000000000000000000000000000000000000000000000000000000000001111111111110000000000000000000000000000000000000000000000000000000000000000000000000111111111111000000000000000000000000000000000000000000000000000000000000000000000000011
111111111110000000000000000000000000000000000000000000000000000000000000000000000001111111111110000000000000000000000000000000000000000000000000000000000000000000000000111111111111000000000000000000000000000000000000000000000000000000000000000000000000011
111111111110000000000000000000000000000000000000000000000000000000000000000000000001111111111111000000000000000000000000000000000000000000000000000000000000000000000000111111111111000000000000000000000000000000000000000000000000000000000000000000000000011
111111111111111111111111111111111111111111111111111111111111111111111111111100000000000000000000000000000000000000000000000000000000000000000000000001111111111110000000000000000000000000000000000000000000000000000000000000000000000001111111111111000000000
111111111111111111111111111111111111111111111111111111111111111111111111111100000000111111111111111111111111111111111111111111111111111111111111111111111111111110000000000000000000000000000000000000000000000000000000000000000000000000111111111111000000000
111111111111111111111111111111111111111111111111111111111111111111111111111100000000111111111111111111111111111111111111111111111111111111111111111111111111111110000000011111111111111111111111111111111111111111111111111111111111111111111111111111000000000
111111111111111111111111111111111111111111111111111111111111111111111111111100000000111111111111111111111111111111111111111111111111111111111111111111111111111110000000011111111111111111111111111111111111111111111111111111111111111111111111111111000000001
111111111111111111111111111111111111111111111111111111111111111111111111111110000000111111111111111111111111111111111111111111111111111111111111111111111111111110000000011111111111111111111111111111111111111111111111111111111111111111111111111111000000001
111111111111111111111111111111111111111111111111111111111111111111111111111100000000111111111111111111111111111111111111111111111111111111111111111111111111111110000000011111111111111111111111111111111111111111111111111111111111111111111111111111000000001
000000000000000000000000000000000000000000000000000000000000000000000000000000111111111111111111111111111111111111111111111111111111111111111111111111111110000000011111111111111111111111111111111111111111111111111111111111111111111111111110000000011111111
000000000011111111000011111000000001111000011111111111111111111111111111111111111111111111111111111111111111111111111111111111111111111111111100000000000000000000000000000000000000000000000000000000000000000000000000000000000000000000000000000000011111111
000000000011111111100011111000000001111000011111111111111111111111111111111111111111111111111111111111111111111111111111111111111111111111111110000000000000000000000000000000000000111111111001111110000000011110001111111111111111111111111111111111111111111
000000000011111111000111110000000011111000011111111111111111111111111111111111111111111111111111111111111111111111111111111111111111111111111110000000000000000000000000000000000000111111110001111100000000111110000111111111111111111111111111111111111111111
000000000011111111000111110000000011111000000111111111111111111111111111111111111111111111111111111111111111111111111111111111111111111111111110000000000000000000000000000000000000111111110011111100000000111110000011111111111111111111111111111111111111111
000000000011111111001111100000000111111100000111111111111111111111111111111111111111111111111111111111111111111111111111111111111111111111111111000000000000000000000000000000000000111111110001111000000001111110000011111111111111111111111111111111111111111
000000000011111111000111000000000111111100000011111111111111111111111111111111111111111111111111111111111111111111111111111111111111111111111111000000000000000000000000000000000000111111100011110000000001111110000001111111111111111111111111111111111111111
000000000011111110001111000000001111111100000001111111111111111111111111111111111111111111111111111111111111111111111111111111111111111111111110000000000000000000000000000000000000111111100011100000000011111111000000111111111111111111111111111111111111111
000000000011111110001110000000001111111110000000111111111111111111111111111111111111111111111111111111111111111111111111111111111111111111111111000000000000000000000000000000000000111111100011100000000011111111000000111111111111111111111111111111111111111
000000000011111110001110000000001111111110000000011111111111111111111111111111111111111111111111111111111111111111111111111111111111111111111111000000000000000000000000000000000000111111100011100000000011111111000000011111111111111111111111111111111111111
000000000011111110001110000000011111111110000000011111111111111111111111111111111111111111111111111111111111111111111111111111111111111111111111000000000000000000000000000000000000111111100011100000000011111111100000000111111111111111111111111111111111111
000000000011111100001100000000011111111111000000000111111111111111111111111111111111111111111111111111111111111111111111111111111111111111111111100000000000000000000000000000000000111111000111000000000111111111100000000111111111111111111111111111111111111
000000000011111110001100000000011111111111000000000111111111111111111111111111111111111111111111111111111111111111111111111111111111111111111111100000000000000000000000000000000000111111000111000000000111111111100000000011111111111111111111111111111111111
000000000011111100011100000000011111111111000000000011111111111111111111111111111111111111111111111111111111111111111111111111111111111111111111100000000000000000000000000000000000111111000111000000001111111111110000000011111111111111111111111111111111111
000000000001111110001100000000011111111111110000000001111111111111111111111111111111111111111111111111111111111111111111111111111111111111111111110000000000000000000000000000000000111111100111000000000111111111110000000000011111111111111111111111111111111
000000000011111100011100000000011111111111100000000001111111111111111111111111111111111111111111111111111111111111111111111111111111111111111111110000000000000000000000000000000000111111000110000000001111111111111000000000111111111111111111111111111111111
000000000001111111100000000000011111111111110000000000111111111111111111111111111111111111111111111111111111111111111111111111111111111111111111110000000000000000000000000000000000111111000111000000001111111111111100000000011111111111111111111111111111111
000000000011111100110000000000111111111111110000000000011111111111111111111111111111111111111111111111111111111111111111111111111111111111111111100000000000000000000000000000000000111111010000000000001111111111111100000000011111111111111111111111111111111
000000000011111100100000000000111111111111111000000000011111111111111111111111111111111111111111111111111111111111111111111111111111111111111111110000000000000000000000000000000000111111011000000000001111111111111000000000011111111111111111111111111111111
000000000000011111111000000000111111111111111000000000001111111111111111111111111111111111111111111111111111111111111111111111111111111111111111111000000000000000000000000000000000111111001100000000001111111111111110000000000111111111111111111111111111111
000000000000111101111000000001111111111111111000000000001111111111111111111111111111111111111111111111111111111111111111111111111111111111111111110000000000000000000000000000000000011111011100000000011111111111111110000000000111111111111111111111111111111
000000000000011101111000000001111111111111111100000000001111111111111111111111111111111111111111111111111111111111111111111111111111111111111111111000000000000000000000000000000000001111111100000000011111111111111111000000000111111111111111111111111111111
000000000000011111111100000001111111111111111100000000000111111111111111111111111111111111111111111111111111111111111111111111111111111111111111111000000000000000000000000000000000001111011110000000111111111111111111000000000001111111111111111111111111111
000000000000011101111010000001111111111111111110000000000011111111111111111111111111111111111111111111111111111111111111111111111111111111111111111100000000000000000000000000000000000111111111000000011111111111111111100000000001111111111111111111111111111
000000000000011111111010000001111111111111111110000000000001111111111111111111111111111111111111111111111111111111111111111111111111111111111111111100000000000000000000000000000000001110011101100000111111111111111111100000000000111111111111111111111111111
000000000000011101110001000011111111111111111111000000000000111111111111111111111111111111111111111111111111111111111111111111111111111111111111111100000000000000000000000000000000001110111100100000111111111111111111100000000000011111111111111111111111111
000000000000111001110001000111111111111111111111000000000000111111111111111111111111111111111111111111111111111111111111111111111111111111111111111100000000000000000000000000000000011110111100100001111111111111111111110000000000111111111111111111111111111
000000000000111011110000100111111111111111111111100000000000011111111111111111111111111111111111111111111111111111111111111111111111111111111111111100000000000000000000000000000000001110011100010001111111111111111111111000000000001111111111111111111111111
000000000000111011110000100111111111111111111111100000000000011111111111111111111111111111111111111111111111111111111111111111111111111111111111111100000000000000000000000000000000011100111000010011111111111111111111111000000000001111111111111111111111111
000000000000111011110000011111111111111111111111111000000000001111111111111111111111111111111111111111111111111111111111111111111111111111111111111110000000000000000000000000000000001100111000001001111111111111111111111000000000000111111111111111111111111
000000000000011011100000011111111111111111111111111000000000000111111111111111111111111111111111111111111111111111111111111111111111111111111111111110000000000000000000000000000000001100111000001111111111111111111111111100000000000111111111111111111111111
000000000000110011100000111111111111111111111111111100000000000111111111111111111111111111111111111111111111111111111111111111111111111111111111111110000000000000000000000000000000001100111000001111111111111111111111111110000000000011111111111111111111111
000000000000110011100000111111111111111111111111111100000000000011111111111111111111111111111111111111111111111111111111111111111111111111111111111110000000000000000000000000000000001101111000001111111111111111111111111110000000000001111111111111111111111
000000000000110111100001111111111111111111111111111110000000000001111111111111111111111111111111111111111111111111111111111111111111111111111111111111000000000000000000000000000000001001111000011111111111111111111111111110000000000001111111111111111111111
000000000000110011100000111110000000000000000000000000000000000000000000000000000000000000000000000000000000000000000000000000000000000011111111111111000000000000000000000000000000001101111000011111111111111111111111111111000000000000111111111111111111111
000000000001100111000011111110000000000000000000000000000000000000000000000000000000000000000000000000000000000000000000000000000000000111111111111111000000000000000000000000000000011001110000111111000000000000000000000000000000000000000000000000000000000
000000000001100111000011111111111111111111011111111111000000000000111111111111111111111111111111111111111111111111111111111111111111111111111111111111000000000000000000000000000000010011110000111111000000000000000000000000000000000000000000000000000000000
000000000001100111000011111111111111111111111111111111100000000000011111111111111111111111111111111111111111111111111111111111111111111111111111111111000000000000000000000000000000011001110000111111111111111110111111111111110000000000011111111111111111111
000000000001100111000111111111111111100001111111111111100000000000011111111111111111111111111111111111111111111111111111111111111111111111111111111111000000000000000000000000000000110001100001111111111111111101111111111111110000000000001111111111111111111
000000000001001111000111111111100100000000111110111111110000000000001111111111111111111111111111110111111111111111111111111111111111111111111111111111000000000000000000000000000000110011100001111111111111111000011111111111111000000000000111111111111111111
000000000001100111000111111111111111000000011111111111111000000000001111111111111111111111111111111111111111111111111111111111111111111111111111111111110000000000000000000000000000010001110001111111111111111100001111111111111000000000000111111111111111111
000000000001100111000111111111111110000000001111111111111100000000000111111111111111111111111111111111111111111111111111111111111111111111111111111111110000000000000000000000000000010001110001111111111100000000001111111111111110000000000011111111111111111
000000000001000111000111111111111100000000011111111111111000000000000111111111111111111111111111111111111111111111111111111111111111111111111111111111110000000000000000000000000000010001110001111111111110000000000111111111111110000000000011111111111111111
000000000001100111001111111111111100000000001111111111111100000000000011111111111111111111111111111111111111111111111111111111111111111111111111111111110000000000000000000000000000010011110011111111111110000000000111111111111111000000000001111111111111111
000000000001001111011111111111111110000000001111111111111110000000000011111111111111111111111111111111110111111111111111111111111111111111111111111111110000000000000000000000000000010011110011111111111111000000000011111111111111000000000001111111111111111
000000000001001111001111111111111111000000001111111111111111000000000001111111111111111110111111111111000001111111111111111111111111111111111111111111110000000000000000000000000000000011110111111111111111000000000011111111111111100000000000111111111111111
000000000001001111111111111111111111000000001111111111111111100000000001111111111111111111111111111111000011111111111111111111111111111111111111111111110000000000000000000000000000000011110111111111111111100000000001111111111111100000000000011111111111111
000000000000001111111111111111111111000000000111111111111111100000000000111111111111111111111111111111000011111111111111111111111111111111111111111111110000000000000000000000000000010011111111111111111111100000000111111111111111111000000000011111111111111
000000000000001111111111111111111111100000000011111111111111100000000000011111111111111111111111011100000011111111111111111111111111111111111111111111110000000000000000000000000000000111111111111111111111110000000011111111111111111000000000001111111111111
000000000000001111111111111111111111110000000011111111111111110000000000001111111111111111101001111100000011111111111111111111111111111111111111111111110000000000000000000000000000010011111111111111111111110000000011111111111111111000000000001111111111111
000000000000001110111111111111111111110000000011111111111111111000000000001111111111111111000000011111000011111111111111111111111111111111111111111111110000000000000000000000000000000111111111111111111111101000000000111111111111111100000000000111111111111
000000000001000011111111111111111111110000000001111111111111111100000000000111111000011111000001111110000111111111111111111111111111111111111111111111110000000000000000000000000000000011111111111111111111111000000000111111111111111100000000000011111111001
000000000000001111111111111111111111001000000000011111111111111100000000000111111000001111000000000110000111111111111111111111111111111111111111111111110000000000000000000000000000000011111111111111111111111100000000111111111111111110000000000001111111000
000000000001011111111111111111111111111100000001101111111111111110000000000011110000000111000000000111111111111111111111111111111111111111111111111111110000000000000000000000000000000011111111111111111111111100000000111111111111111111000000000001111100000
000000000001111111111111111111111111110100000000011111111111111110000000000000000000000111100000000111111111111111111111111111111111111111111111111111110000000000000000000000000000011111111111111111111111111110000000001111111111111111000000000000111000000
000000000001111111111111111111111111111110000000011111111111111110000000000000000000000010000000000111111111111111111111111110111101111111111111111111110000000000000000000000000000011111111111111111111111111111000000011111111111111111100000000000011000000
000000000001111111111111111111111111011110000000111111111111111111100000000000000000000001000000000111111111111111111111111100100011111111111111111111110000000000000000000000000000111111111111111111111111111111000000001111111111111111110000000000000000000
000000000001111111111111111111111111111011000000011111111111111111100000000000000000000000000000000111111111111111111111111000000000111111111111111111110000000000000000000000000000111111111111111111111111111111100000001111111111111111110000000000000000000
000000000011111111111111111111111111111111000000001111111111111111110000000000000000000000000000000011111111111111111111111000000000011111111111111111110000000000000000000000000000111111111111111111111111111111100000000111111111111111110000000000000000000
000000000011111111111111111111111111111111100000000111111111111111110000000000000000000000000000000011111111111111111111110000000000000011111111111111110000000000000000000000000000111111111111111111111111111111110000000111111111111111111000000000000000000
000000000011111111111111111111111111111111110000001111111111111111111000000000000000000000000000000011111111111111111110110000000000000101111111111111110000000000000000000000000000111111111111111111111111111111111000000001111111111111111000000000000000000
000000000011111111111111111111110011111111110000000011111111111111111000000000000000000000000000000001111111111111111110100000000000000001111111111111110000000000000000000000000000111111111111111111111111111111111000000011111111111111111100000000000000000
000000000011111111111111111111111111111111110000000111111111111111111000000000000000000000000000000001111111111111111111000000000000000011111111111111110000000000000000000000000000111111111111111111111111111111111000000001111111111111111110000000000000000
000000000011111111111111111111111111111111101000000011111111111111111100000000000000000000000000000001111111111111111111000000000000000011111111111111110000000000000000000000000000111111111111111111111111111111111100000001111111111111111110000000000000000
000000000011111111111111111111111111111111111100000000111111111111111110000000000000000000000000000000111111111111111110000000000000000011111111111111110000000000000000000000000000111111111111111111111111111111110110000001111111111111111111000000000000000
000000000011111111111111111111111111111111111100000001111111111111111111000000000000000000000000000000111111111111111110000000000000000011111111111111110000000000000000000000000000111111111111111111111101111111111110000000011111111111111111000000000000000
000000000011111111111111111111111111111111111110000000111111111111111111000000000000000000000000000000011111111111111110000000000000000001111111111111110000000000000000000000000000111111111111111111111111111111111111000000000111111111111111110000000000000
000000000011111111111111111111111111111111111110000000000000000000000000000000000000000000000000000000000000000000000011000000000000000011111111111111110000000000000000000000000000111111111111111111111111111111111111000000001111111111111111100000000000000
000000000011111111111111111111111111111111111111000000000000000000000000000000000000000000000000000000000000000000001111100000000000000001111111111111110000000000000000000000000000111111111111111111111111111111111111100000000000000000000000000000000000000
000000000011111111111111111111111111111111111111100000001111111111111111000000000000000000000000000000000111111111111111000000000000000001111111111111110000000000000000000000000000111111111111111111111111111111111111100000000000000000000000000000000000000
000000000011111111111111111111111111111111111111100000000111111111111111000000000000000000011110000000000011111111111111000000000000000001111111111111110000000000000000000000000000111111111111111111111111111111111111110000000111111111111111100000000000000
000000000011111111111111111111111111111111111111100000000011111111111111000000000000000000000111100000000011111111111111100000000000000000111111111111110000000000000000000000000000111111111111111111111100111111111111111000000001111111111111100000000000000
000000000011111111111111111111111111111111111111110000000011111111111111000000000000000111111111110000000001111111111111100000000000000000111111111111110000000000000000000000000000111111111111111111111111111111111111111000000011111111111111110000000000000
000000000011111111111111111111111111111111111111111000000001111111111111000000000000111101111111110000000001111111111111100000000000000000111111111111110000000000000000000000000000111111111111111111111111111111111111111100000001111111111111110000000000001
000000000011111111111111111111111111111111111111111000000001111111111111000000000001111111111111111000000000111111111111100000000000000000111111111111110000000000000000000000000000111111111111111111111111111111111111111100000000111111111111100000000000011
000000000011111111111111111111111111111111111111111100000000111111111110000000000001111111111111111100000000111111111111100000000000000000011111111111110000000000000000000000000000111111111111111111111111111111111111111110000000111111111111100000000000011
000000000011111111111111111111111111111111111111111100000000111111111111000000000001111111111111111100000000011111111111110000000000000000011111111111110000000000000000000000000000111111111111111111111111111111111111111111000000011111111111100000000000111
000000000011111111111111111111111111111111111111111110000000111111111110000000000011111111111111111110000000111111111111110000000000000000011111111111110000000000000000000000000000111111111111111111111111111111111111111111000000011111111111100000000000111
000000000011111111111111111111111111111111111111111110000000111111111110000000000111111111111111111111000000011111111111111000000000000000011111111111110000000000000000000000000000111111111111111111111111111101111111111111000000000111111111000000000001111
000000000011111111111111111111111111111111111111111011000000000111111110000000000111111111111111111111000000011111111111111000000000000000001111111111110000000000000000000000000000111111111111111111111111111111111111111111100000000111111111100000000011111
000000000011111111111111111111111111111111111111111111100000000011111100000000001111111111001111111111100000011111111111111000000000000000001111111111110000000000000000000000000000111111111111111111111111111111111111111111110000011101111111000000000001111
000000000011111111111111111111111111111111111111111111100000000011111110000000001111111101111011111111100000010111111111111100000000000000001111111111110000000000000000000000000000111111111111111111111111111111111111111111110000000001111111000000000011111
000000000011111111111111111111111111111111111111111111100000000011111000000000001111111111100011111111100000100011111111111000000000000000000111111111110000000000000000000000000000111111111111111111111111111111111111111111110000000001111110000000000011111
000000000011111111111111111111111111111111111111111111110000000001111100000000000000001111110011111111110001000011111111111100000000000000000111111111110000000000000000000000000000111111111111111111111111111111111111111111111000000000111110000000000011110
000000000011111111111111111111111111111111111111011111111000000001111000000000001000000111110000011111110001000011111111111110000000000000000111111111110000000000000000000000000000111111111111111111111111111111111111111111111100000000111100000000000110000
000000000011111111111111111111111111111111111111111111111100000001111000000000000000000111100000011111110000000111111111111110000000000000000011111111110000000000000000000000000000111111111111111111111111111111111111111111111100000000111100000000000000000
000000000011111111111111111111111111111111111111111111111100000001111000000000000000000111110000001111111010000111111111111110000000000000000111111111110000000000000000000000000000111111111111111111111111111111111111111111111110000001111100000000000000000
000000000011111111111111111111111111111111111111111111111100000001110000000000000000000111100000000111111100000111111111111111000000000000000111111111110000000000000000000000000000111111111111111111111111111111111111111111111110000000011100000000000000000
000000000011111111111111111111111111111111111111111111111110000000110000000000000000000111110000000111111100000111111111111111000000000000000011111111110000000000000000000000000000111111111111111111111111111111111111111111111111000000001100000000000000000
000000000011111111111111111111111111111111111111111111111111000000000000000000000000000000000000000000000000000000000000011000000000000000000011111111110000000000000000000000000000111111111111111111111111111111111111111111111111000000111100000000000000000
000000000011111111111111111111111111111111111111111111111111000000000000000000000000000000000000000000000000000000000000001111000000000000001111111111110000000000000000000000000000111111111111111111111111111111111111111111111111100000000000000000000000000
000000000011111111111111111111111111111111111111111111111111000000000000000000000000000000000000000001110000001111111111111111100000000000001111111111110000000000000000000000000000111111111111111111111111111111111111111111111111100000000000000000000000000
000000000011111111111111111111111111111111111111111111111111100000000000000000000000000000000000000001110000001111111111111111110000000000011111111111110000000000000000000000000000111111111111111111111111111111111111111111111111110000000000000000000000000
000000000011111111111111111111111111111111111111111111111111110000000000000000000000000000000000000000100000001111111111111111111000000000111111111111110000000000000000000000000000111111111111111111111111111111111111111111111111110000000000000000000000000
000000000011111111111111111111111111111111111111111111111111010000000000000000000000000000000000000001000000001111111111111111111100000000011111111111110000000000000000000000000000111111111111111111111111111111111111111111111111101000000000000000000000000
000000000011111111111111111111111111111111111111111111111111111000000000000000000000000000000000000011000000001111111111111111111000000000111111111111110000000000000000000000000000111111111111111111111111111111111111111101111111101100000000000000000000000
000000000011111111111111111111111111111111111111111111111111111100000000000000000000000000000000000011000000000111111111111111111000000000111111111111110000000000000000000000000000111111111111111111111111111111111111111111111111111110000000000000000000000
000000000011111111111111111111111111111111111111111111111111111100000000000000000000000000000000000110000000000011111111111111111100000000011111111111110000000000000000000000000000111111111111111111111111111111111111111111111111111110000000000000000000000
000000000011111111111111111111111111111111111111111111111111111100000000000000000000000000000000000100000000000011111111111111111100000000011111111111110000000000000000000000000000111111111111111111111111111111111111111111111111111110000000000000000000000
000000000011111111111111111111111111111111111111111111111111111010000000000000000000000000000000001100000000000011111111111111111110000000011111111111110000000000000000000000000000111111111111111111111111111111111111111111011111111111000000000000000000000
000000000011111111111111111111111111111111111111111111111111111111000000000000000000000000000000001000011110000011111111111111111110000000011111111111110000000000000000000000000000111111111111111111111111111111111111111111111111111111100000000000000000000
000000000011111111111111111111111111111111111111111111111111111111000000000000000000000000000010010000011100000001111111111111111110000000011111111111110000000000000000000000000000111111111111111111111111111111111111111111111111111111100000000000000000000
000000000011111111111111111111111111111111111111111110111111111111000000000000000000000000011110010000111110000001111111111111111111000000111111111111110000000000000000000000000000111111111111111111111111111111111111111111111111111110110000000000000000000
000000000011111111111111111111111111111111111111111111111111111110111111110000000000000000000000000000000000000000001111111111111111000000111111111111110000000000000000000000000000111111111111111111111111111111111111111111111111111111110000000000000000000
000000000011111111111111111111111111111111111111111111111111111110011111111000000000000000000000000000000000000000001111111111111111000000111111111111110000000000000000000000000000111111111111111111111111111111111111111111111111111111111111111100000000000
000000000011111111111111111111111111111111111111111111111111111110000000000000000000000001111110000000111111100011111111111111111111100111111111111111110000000000000000000000000000111111111111111111111111111111111111111111111111111111101111111100000000000
000000000011111111111111111111111111111111111111111111111111111110000000000000000000000001111111000001111111000011111111111111111111111111111111111111110000000000000000000000000000111111111111111111111111111111111111111111111111111111000000000000000000000
000000000011111111111111111111111111111111111111111111111111111110000000000000000000000001111111000000111111000011111111111111111111111111111111111111100000000000000000000000000000111111111111111111111111111111111111111111111111111111000000000000000000000
000000000001111111111111111111111111111111111111111111111111111111000000000000000000000000011111100000001111000001111111111111111111111111111111111111110000000000000000000000000000111111111111111111111111111111111111111111111111111110000000000000000000000
000000000011111111111111111111111111111111111111111111111111111110000000000000000000000000111111110000011111000011111111111111111111111111111111111111110000000000000000000000000000111111111111111111111111111111111111111111111111111111100000000000000000000
000000000011111111111111111111111111111111111111111111111111111010000000000000000000000000011111110000011111000011111111111111111111111111111111111111100000000000000000000000000000111111111111111111111111111111111111111111111111111110000000000000000000000
000000000011111111111111111111111111111111111111111111111111111110000000000000000000000000011111110000011111000111111111111111111111111111111111111111100000000000000000000000000000111111111111111111111111111111111111111111111111111111000000000000000000000
000000000001111111111111111111111111111111111111111111111111111110000000000000000110000000001111111100011111000011111111111111111111111111111111111111110000000000000000000000000000111111111111111111111111111111111111111111111111111111000000000000000000000
000000000011111111111111111111111111111111111111111111111111111100000000000000001100000000001111111111111111000111111111111111111111111111111111111111100000000000000000000000000000111111111111111111111111111111111111111111111111111111000000000000000111000
000000000001111111111111111111111111111111111111111111111111111111000000000000000000000000000111111111111111000011111111111111111111111111111111111111110000000000000000000000000000111111111111111111111111111111111111111111111111111111100000000000000011000
000000000001111111111111111111111111111111111111111111111111111100000000000000000000000000000011111111111111000011111111111111111111111111111111111111110000000000000000000000000000111111111111111111111111111111111111111111111111111111100000000000000001000
000000000001111111111111111111111111111111111111111111111111111110000000000000000000000000000011111111111111000011111111111111111111111111111111111111110000000000000000000000000000111111111111111111111111111111111111111111111111111111000000000000000011000
000000000001111111111111111111111111111111111110111111111111111110000000000000000110000000000011111111111111000011111111111111111111111111111111111111110000000000000000000000000000111111111111111111111111111111111111111111111111111111100000000000000000000
000000000011111111111111111111111111111111111111111111111111011100000000000000001100000000000011111111111110000111111111111111111111111111111111111111100000000000000000000000000000111111111111111111111111111111111111111111111111111001000000000000000011000
000000000001111111111111111111111111111111111111111111111111111100000000000000011110000000000001111111111111000011111111111111111111111111111111111111110000000000000000000000000000111111111111111111111111111111111111111111111111111111000000000000000111000
000000000001111111111111111111111111111111111111111111111111111110000000000000000110000000000011111111111111100001111111111111111111111111111111111111110000000000000000000000000000111111111111111111111111111111111111111111111111111111100000000000000100000
000000000001111111111111111111111111111111111111111111111111101110000000000000000110000000000111111111111111100001111111111111111111111111111111111111110000000000000000000000000000111111111111111111111111111111111111111111111111111111000000000000000001000
000000000001111111111111111111111111111111111111111111111111111111000000000000001000000000000111111111111111100000111111111111111111111111111111111111110000000000000000000000000000111111111111111111111111111111111111111111111111111111000000000000001111000
000000000001111111111111111111111111111111111111111111111111111111000000000000110000000000001111111111111111100000111111111111111111111111111111111111110000000000000000000000000000111111111111111111111111111111111111111111111111111111000000000000010110000
000000000011111111111111111111111111111111111111111111111111011110000000000000011000000000001111111111111111100000011111111111111111111111111111111111110000000000000000000000000000111111111111111111111111111111111111111111111111111111100000000000001101000
000000000001111111111111111111111111111111111111111111111111111110000000000000000000000000001111111111111111100000011111111111111111111111111111111111110000000000000000000000000000111111111111111111111111111111111111111111111111111111100000000000000011000
000000000001111111111111111111111111111111111111111111111111111111000000000000000000000000011111111111111111100000001111111111111111111111111111111111110000000000000000000000000000111111111111111111111111111111111111111111111111111111100000000000000010000
000000000011111111111111111111111111111111111111111111111111111100000000000000000000000000011111111111111111000000001111111111111111111011111111111111100000000000000000000000000001111111111111111111111111111111111111111111111111111111000000000000000000000
000000000011111111111111111111111111111111111111111111111111101110000000000000000000000000011111111111111111100000000111111111111111111111111111111111110000000000000000000000000000111111111111111111111111111111111111111111111111111111100000000000000000000
000000000011111111111111111111111111111111111111111111111111111110000000000000000000000000011111111111111111000000000111111111111111111111110111111111110000000000000000000000000000111111111111111111111111111111111111111111111111111111000000000000000000000
000000000011111111111111111111111111111111111111111111111111111110000000000000000000000000001111111111111111000000000111111111111111111111111111111111110000000000000000000000000000111111111111111111111111111111111111111111111111111111000000000000000000000
000000000011111111111111111111111111111111111111111111111111111110000000000000000000000000001111111111111111000000000111111111101111111111111111111111110000000000000000000000000000111111111111111111111111111111111111111111111111111111100000000000000000000
000000000011111111111111111111111111111111111111111111111111111100000000000000000000000000001111111111111111000000000011111111111111111111111111111111110000000000000000000000000000111111111111111111111111111111111111111111111111110111100000000000000000000
000000000011111111111111111100111111111111111111111111111111111000000000000000000000000000001111111111111111000000000001111111111111111110111111111111110000000000000000000000000000111111111111111110111111111111111111111111111111111111000000000000000000000
000000000011111111111111111100111111111111111111111111111111111100000000000000000000000000000111111111111111000000000011111111111111111111111111111111110000000000000000000000000000111111111111111100011111111111111111111111111111111111100000000000000000000
000000000011111111111111111110011111111111111111111111111111111110000000000000000000000000000111111111111111000000000001111111111111111111111111111111110000000000000000000000000000111111111111111111011111111111111111111111111111111111100000000000000000000
000000000011111111111111111110011111111111111111111111111111111110000000000000000000000000000111111111111111000000000001111111111111111111111111111111110000000000000000000000000000111111111111111111001111111111111111111111111111111111100000000000000000000
000000000011111111111111111110001111111111111111111111111111111110000000000000000000000000000011111111111111000000000001111111111111111111111111111111110000000000000000000000000000111111111111111110000111111111111111111111111111111111000000000000000000000
000000000011111111111111111111000011111111111111111111111111111110000000000000000000000000000011111111111111000000000000111111111111111111111111111111110000000000000000000000000000111111111111111111000011111111111111111111111111011111000000000000000000000
000000000011111111111111111111000111111111111111111111111111111110000000000000000000000000000111111111111111000000000000111111111111111111111111111111110000000000000000000000000000111111111111111111100001111111111111111111111111111111000000000000000000000
000000000011111111111111111111000011111111111111111111111111111111000000000000000000000000000111111111111111000000000000111111111111111111111111110111110000000000000000000000000000111111111111111111100001111111111111111111111111111111100000000000000000000
000000000011111111111111111111100001111111111111111111111111100110000000000000000000000000000111111111111111000000000000011111111111111111111111111111110000000000000000000000000000111111111111111111110001111111111111111111111111111111100000000000000000000
000000000011111111111111111111100000111111111111111111111111111111000000000000000000000000001111111111111111000000000000011111111111111111111110111111110000000000000000000000000000111111111111111111110000111111111111111111111111111111100000000000000000000
000000000011111111111111111111110000111111111111111111111111111110000000000000000000000000000111111111111111000000000000011111111111111111111111101111110000000000000000000000000000111111111111111111111000011111111111111111111111111111100000000000000000000
000000000011111111111111111111110000111111111111111111111111101111000000000000000000000000000111111111111111000000000000001111111111111111111110111111110000000000000000000000000000111111111111111111111000011111111111111111111111111111100000000000000000000
000000000011111111111111111111111000011111111111111111111111111111000000000000000000000000000111111111111110000000000000001111111111111111111111111111110000000000000000000000000000111111111111111111111000001111111111111111111111111111100000000000000000000
000000000011111111111111111111111000001111111111111111111111111111000000000000000000000000000111111111111110000000000000000111111111111111110111110111110000000000000000000000000000111111111111111111111100000111111111111111111011111110100000000000000000000
000000000011111111111111111111111100000111111111111111111111111100000000000000000000000000000111111111111110000000000000000111111111111111111111111101100000000000000000000000000000111111111111111111111110000011111111111111111111111111100000000000000000000
000000000011111111111111111111111100000011111111111111111111110110000000000000000000000000000011111111111110000000000000000011111111111111111110011111110000000000000000000000000000111111111111111111111111000011111111111111111111110011110000000000000000000
000000000011111111111111111111111110000011111111111111111111101100000000000000000000000000000011111111111110000000000000000011111111111111111111011111110000000000000000000000000000111111111111111111111111100001111111111111111111111111100000000000000000000
000000000011111111111111111111111111000011111111111111111111111100000000000000000000000000000011111111111110000000000000000011111111111111110110110111110000000000000000000000000000111111111111111111111111000001111111111111111111101111000000000000000000000
000000000011111111111111111111111111000001111111111111111111111011000000000000000000000000000001111111111110000000000000000011111111111111111100011111110000000000000000000000000000111111111111111111111111000000111111111111111110011111110000000000000000000
000000000011111111111111111111111111000000111111111111111111111111000000000000000000000000000011111111111110000000000000000011111111111111111000011111110000000000000000000000000000111111111111111111111111110000111111111111111111111111100000000000000000000
000000000011111111111111111111111111110000111111111111111110111111000000000000000000000000000001111111111110000000000000000011111111111111111100011111110000000000000000000000000000111111111111111111111111110000011111111111111111111111100000000000000000000
000000000011111111111111111111111111111000011111111111111110111110000000000000000000000000000011111111111100000000000000000001111111111111111110001111110000000000000000000000000000111111111111111111111111111000001111111111111111111111100000000000000000000
000000000011111111111111111111111111111000001111111111111111111111000000000000000000000000000001111111111110000000000000000001111111111111100011000001110000000000000000000000000000111111111111111111111111111100001111111111111111110111110000000000000000000
000000000011111111111111111111111111111100001111111111111111011111000000000000000000000000000001111111111110000000000000000001111111111111111000011001110000000000000000000000000000111111111111111111111111111100000111111111111110111011100000000000000000000
000000000011111111111111111111111111111100000111111111111111111111000000000000000000000000000011111111111110011000000000000001111111111111001111010001110000000000000000000000000000111111111111111111111111111110000011111111111111111111100000000000000000000
000000000011111111111111111111111111111110000011111111111011111111000000000000000000000000000011111111111100011000000000000111111111111111110100000001110000000000000000000000000000111111111111111111111111111111000001111111111111101111110000000000000000000
000000000011111111111111111111111111111110000011111111111111111111100000000000000000000000000111111111111100111000000000000111111111111000011111000010000000000000000000000000000000111111111111111111111111111111100000111111111101111011110000000000000000000
000000000011111111111111111111111111111111000000111111111111111111100000000000000000000000001111111111111100111000000000001110111111111111000000011100100000000000000000000000000000111111111111111111111111111111100000111111111101111111100000000000000000000
000000000011111111111111111111111111111111000000111111111100111111100000000000000000000000011111111111111100111000000000010111111111111111110000000000110000000000000000000000000000111111111111111111111111111111110000011111111111111111110000000000000000000
000000000011111111111111111111111111111111100000011111111111111111110000000000000000000000011111111111111100010000000000111111111111111111110000000110010000000000000000000000000000111111111111111111111111111111110000001111111111111111111000000000000000000
000000000011111111111111111111111111111111111000001111111111111111110000000000000000000000011111111111111100010000000000111111111111111111110000001111110000000000000000000000000000111111111111111111111111111111111000000111111100111111111100000000000000000
000000000011111111111111111111111111111111111000000111111111111111110000000000000000000000001111111111111100000000000000111111111111011111000000011111110000000000000000000000000000111111111111111111111111111111111100000111111111011111111100000000000000000
000000000011111111111111111111111111111111111100000011111011111111111000000000000000000000011111111111111000000000000001111111111111101110100000011111110000000000000000000000000000111111111111111111111111111111111110000001111111111111111000000000000000000
000000000011111111111111111111111111111111111110000000110011111111111000000000000000000000001111111111111100000000000011111111111111111100000000011111110000000000000000000000000000111111111111111111111111111111111101000000111111111111111100000000000000000
000000000011111111111111111111111111111111111110000000000001111111111000000000000000000000001111111111111000000000000001111111111110110000000000111111110000000000000000000000000000111111111111111111111111111111111111000000011111111111111100000000000000000
000000000011111111111111111111111111111111111111000000000111111111111100000000000000000000001111111111111100000000000111111111111111110000000000111111110000000000000000000000000000111111111111111111111111111111111111100000000000111111111110000000000000000
000000000011111111111111111111111111111111111111100000000001111111111000000000000000000000000111111111111000000000000001111111111111100000000000111111110000000000000000000000000000111111111111111111111111111111111111100000000000111111111110000000000000000
000000000011111111111111111111111111111111111111100000000001111111111100000000000000000000000111111111111100000000000011111111111110000000000001111111110000000000000000000000000000111111111111111111111111111111111111100000000000111111111111000000000000000
000000000011111111111111111111111111111111111111100000000001111111111110000000000000000000000111111111111100000000000011111111110100000000000000111111110000000000000000000000000000111111111111111111111111111111111111110000000000011111111111000000000000000
000000000011111111111111111111111111111111111111110000000001111111111110000000000000000000000111111111111100000000000001111111110000000000000001111111110000000000000000000000000000111111111111111111111111111111111111110000000000111111111111000000000000000
000000000011111111111111111111111111111111111111110000000001111111111110000000000000000000000011111111111100000000000001111111000000000000000001111111110000000000000000000000000000111111111111111111111111111111111111111100000000011111111111000000000000000
000000000011111111111111111111111111111111111111111000000001111111111000000000000000000000000011111111111100000000000001111100000000000000000001111111110000000000000000000000000000111111111111111111111111111111111111111100000000011111111111000000000000000
000000000011111111111111111111111111111111111111111100000000111111111110000000000000000000000011111111111110000000000000111100000000000000000001111111110000000000000000000000000000111111111111111111111111111111111111111100000000011111111111100000000000000
000000000011111111111111111111111111110011111111111100000000111111111100000000000000000000000001111111111100000000000011111000000000000000000001111111110000000000000000000000000001111111111111111111111111111111111111111110000000011111111111000000000000000
000000000011111111111111111111111111100011101111111100000000111111111110000000000000000000000001111111111110000000000001100000000000000000000001111111110000000000000000000000000001111111111111111111111111111001111111111110000000011111111111100000000000000
000000000011111111111111111111111111100011101111111110000000011111111111000000000000000000000001111111111110000000000000000000000000000000000001111111110000000000000000000000000001111111111111111111111111111001110111111111000000001111111111000000000000000
000000000011111111111111111111111111000011001111111110000000001111111110000000000000000000000000111111111110000000000000000000000000000000000011111111110000000000000000000000000001111111111111111111111111110001110111111111100000001111111110000000000000000
000000000011111111111111111111111111000011101111111111000000001111111100000000000000000000000000111111111110000000000000000000000000000000000001111111110000000000000000000000000000111111111111111111111111110000110111111111100000000111111111100000000000000
000000000011111111111111111111111111000001001111111111000000000111111111000000000000000000000000111111111110000000000000000000000000000000000011111111110000000000000000000000000000111111111111111111111111110000110111111111100000000011111110100000000000000
000000000011111111111111011111111111000011011111111111000000000011111111100000000000000000000000111111111110000000000000000000000000000000000011111111110000000000000000000000000000111111111111101111111111110000110111111111110000000001111110000000000000000
000000000011111111111110001111111111000000011111111111111000000001111111000000000000000000000000111111111110000000000000000000000000000000000111111111110000000000000000000000000000111111111111100111111111110000101111111111111000000000111111110000000000000
000000000011111111111110001111111111000000011111111111111000000000111111000000000000000000000000111111111110000000000000000000000000000000000011111111110000000000000000000000000000111111111111100011111111100000000111111111111100000000011111110000000000000
000000000011111111111110000111111110000000011111111111111111000000001111000000000000000000000000011111111100000000000000000000000000000000000011111111110000000000000000000000000001111111111111000011111111100000000111111111111111000000000111110000000000000
000000000011111111111100000111111111000000011111111111111111000000000111100000000000000000000000011111111100000000000000000000000000000000000011111111110000000000000000000000000000111111111111000011111111100000101111111111111111100000000111110000000000000
000000000011111111111100000011111111000000011111111111111111100000000111100000000000000000000000011111111100000000000000000000000000000000000111111111110000000000000000000000000001111111111111000001111111100000001111111111111111110000000011110000000000000
000000000011111111111100000011111110000000111111111111111111111000000111100000000000000000000000011111111100000000000000000000000000000000001111111111110000000000000000000000000001111111111111000001111111100000001111111111111111110000000001110000000000000
000000000011111111111100000011111111000000111111111111111111111000000011100000000000000000000000011111111100000000000000000000000000000000000111111111110000000000000000000000000001111111111111000001111111100000011111111111111111111100000001110000000000000
000000000011111111111100000001111111111111111111111111001111111000000011100000000000000000000000011111111100000000000000000000000000000000000111111111110000000000000000000000000001111111111111000000111111100000011111111111100111111100000001110000000000000
000000000011111111111100000001111111111111111111111110001111111100000011100000000000000000000000001111111000000000000000000000000000000000000111111111110000000000000000000000000001111111111111000000111111111111111111111111100011111111000001110000000000000
000000000011111111111100000000111111111111111111111110001111111110000011000000000000000000000000011111111000000000000000000000000000000000001111111111110000000000000000000000000001111111111110000000111111111111111111111111000111111111000001111000000000000
000000000011111111111100000000011111111111111111111110001111111111000111000000000000000000000000011111111100000000000000000000000000000000000011111111110000000000000000000000000000111111111110000000011111111111111111111111100001111111110001111000000000000
000000000011111111111000000000011111111111111111111110001111111111111110000000000000000000000000011111111000000000000000000000000000000000000011111111110000000000000000000000000001111111111110000000001111111111111111111111100111111111110001110000000000000
000000000011111111111000000000011111111111111111111110011111111111111000000000000000000000000000011111111100000000000000000000000000000000000111111111110000000000000000000000000001111111111110000000001111111111111111111111100011111111111111100000000000000
000000000011111111111000000000011111111111111111111111111111111111110000000000000000000000000000011111111000000000000000000000000000000000000011111111110000000000000000000000000001111111111100000000000111111111111111111111100111111111111110000000000000000
000000000011111111111000000000011111111111111111111111111111111111110000000000000000000000000000111111111100000000000000000000000000000000001111111111110000000000000000000000000001111111111110000000000111111111111111111111111111111111111100000000000000000
000000000011111111111100000000001111111111111111111111111111111111100000000000000000000000000011111111111100000000000000000000000000000000000111111111110000000000000000000000000001111111111110000000000111111111111111111111111111111111111000000000000000000
000000000011111111111100000000001111111111111111111111111111111111000000000000000000000000000001111111111100000000000000000000000000000000001111111111110000000000000000000000000001111111111111000000000111111111111111111111111111111111110000000000000000000
000000000011111111111100000000001111111111111111111111111111111110000000000000000000000000000000011111111100000000000000000000000000000000000011111111110000000000000000000000000001111111111111000000000111111111111111111111111111111111100000000000000000000
000000000011111111111111000000001111111111111111111111111111111110000000000000000000000000000000011111111100000000000000000000000000000001111011111111110000000000000000000000000000111111111111000000000111111111111111111111111111111111100000000000000000000
000000000011111111111111000000001111111111111111111111111111111100000000000000000000000000000000111100111100000000000000000000000000010000000111111111110000000000000000000000000001111111111111000000000111111111111111111111111111111111000000000000000000000
000000000011111111111111000000011111111111111111111111111111111100000000000000000000000000000000111100111100000000000000000000111111000000001111111111110000000000000000000000000001111111111111100000000111111111111111111111111111111111000000000000000000000
000000000011111111111111100000001111111111111111111111111111111100000000000000000000000000000001111101111000000000000000000000010000011000000011111111110000000000000000000000000001111111111111100000000111111111111111111111111111111111000000000000000000000
000000000011111111111111100000001111111111111111111111111111111100000000000000000000000000000001111100111000000000000000000000000000000000000001111111110000000000000000000000000001111111111111110000000111111111111111111111111111111111000000000000000000000
000000000011111111111111100000011111111111111111111111111111111100000000000000000000000000000001111001111000000000000000000000000000000000000001111111110000000000000000000000000001111111111111110000000111111111111111111111111111111110000000000000000000000
000000000011111111111111110000001111111111111111111111111111111100000000000000000000000000000011111001111000000000000000000011111100000000000001111111110000000000000000000000000001111111111111111000000111111111111111111111111111111111000000000000000000000
000000000011111111111111110000001111111111111111111111111111111100000000000000000000000000000001111011111000000000000000000000000011110000110000111111110000000000000000000000000000111111111111111100000011111111111111111111111111111111000000000000000000000
000000000011111111111111110000011111111111111111111111111111110000000000000000000000000000000011111111110000000000000000000000000000000010000001111111110000000000000000000000000001111111111111111000000111111111111111111111111111111100000000000000000000000
000000000011111111111111111000001111111111111111111111111110000000000000000000000000000000000011101111110000000000000000000000000000000111111111111111110000000000000000000000000001111111111111111100000111111111111111111110111111111000000000000000000000000
000000000011111111111111111000001111111111111111111111111110000000000000000000000000000000000001100111111000000000000000000000000000011100000000111111110000000000000000000000000001111111111111111100000111111111111111111111111111110000000000000000000000000
000000000011111111111111111000001111111111111111111111111111000000000000000000000000000000000000000111111000000000000000000000000011001110000111111111110000000000000000000000000001111111111111111110000111111111111111111111111111100000000000000000000000000
000000000011111111111111111100001111111111111111111111111110000000000000000000000000000000000000000111111000000000000000000111111100000000000011111111110000000000000000000000000001111111111111111110000111111111111111111111111111100000000000000000000000000
000000000011111111111111111100000111111111111111111111111110000000000000000000000000000000000000000011111000000000000000000110111110000000000000011111110000000000000000000000000001111111111111111111000011111111111111111111111111100000000000000000000000000
000000000011111111111111111110000111111101110000000101101100000000000000000000000000000000000000000011110000000000000000000001100110001000000000111111110000000000000000000000000001111111111111111111000011111111111111101111111111000000000000000000000000000
000000000011111111111111111110000111111000000000000110111110000000000000000000000000000000000000000111111000001000000000000011111111111100000001111111110000000000000000000000000001111111111111111111100011111111111111001111111111100000000000000000000000000
000000000011111111111111111111000111110000000000000000011110000000000000000000000000000000000000000011111100001110000001111111111111100110111111111111110000000000000000000000000001111111111111111111100011111000000000000000000111000000000000000000000000000
000000000011111111111111111111000011110000000000000000000110000000000000000000000000000000000000000111111100011000000000111110000000000010000111111111110000000000000000000000000001111111111111111111110001111100000000000000000011000000000000000000000000000
000000000011111111111111111111100011111000000000000000001100000000000000000000000000000000000000000011111110011111001111111111011100001100000011111111110000000000000000000000000001111111111111111111110001111100000000000000000001000000000000000000000000000
000000000011111111101111111111100011111000000000000000000000000000000000000000000000000000000000000011011100001100000000111100001111000001111111001111110000000000000000000000000001111111110011111111110001111100000000000000000000000000000000000000000000000
000000000011111111000011111111100001111000000000000000000000000000000000000000000000110000001110000000111100011110000111111111111111010111111111011111110000000000000000000000000001111111110011111111111000111110000000000000000000000000000000000000000000000
000000000011111111000011111111100001111000000000000000000000000000000000000000000001000000011111100000011110011100000111111111111000000111110000111111110000000000000000000000000001111111110001111111111000011110000000000000000000000000000000000000000000010
000000000011111111100001111111110000111100000000000000000000000000000000000000000000000000001111000000001110001110010001111101100011000000000011011111110000000000000000000000000000111111111000111111111100001110000000000000000000000000000000000000000000000
000000000011111111100001111111110000001100000000000000000000000000000000000000000000000000011111110000000110001111000011111111111110000000000000111111110000000000000000000000000000111111111000111111111100001110000000000000000000000000000000000000000000000
000000000011111111100001111111110000000000000000000000000000000000000000000000000000000000011111100000001111111110000001101001111110000010001111111111110000000000000000000000000001111111110000111111111000001100000000000000000000000000000000000000000000000
000000000011111111000000111111110000000000000000000000000000000000000000000000000000000000000111100000001100011100000001111110000111000000000010011111110000000000000000000000000001111111110000011111111100000000000000000000000000000000000000000000000000000
