! XPM2
255	255 2 1
1 c #FFFFFF
0 c #000000
100000000011111111111111111111111111111111111111111111111111111111111111111111111111111111111111111111111111111111111111111111111111111111111111111111111110000000000000001000000001111111111111111111111111111111111111111111111111111111111111111111111111111
100000000111111111111111111111111111111111111111111111111111111111111111111111111111111111111111111111111111111111111111111111111111111111111111111111111110000000000000001000000001111111111111111111111111111111111111111111111111111111111111111111111111111
100000000011111111111111111111111111111111111111111111111111111111111111111111111111111111111111111111111111111111111111111111111111111111111111111111111110000000000000001000000001111111111111111111111111111111111111111111111111111111111111111111111111111
100000000111111111111111111111111111111111111111111111111111111111111111111111111111111111111111111111111111111111111111111111111111111111111111111111111110000000000000001000000001111111111111111111111111111111111111111111111111111111111111111111111111111
100000000111111111111111111111111111111111111111111111111111111111111111111111111111111111111111111111111111111111111111111111111111111111111111111111111110000000000000001000000001111111111111111111111111111111111111111111111111111111111111111111111111111
100000000011111111111111111111111111111111111111111111111111111111111111111111111111111111111111111111111111111111111111111111111111111111111111111111111110000000000000001000000001111111111111111111111111111111111111111111111111111111111111111111111111111
100000000111111111111111111111111111111111111111111111111111111111111111111111111111111111111111111111111111111111111111111111111111111111111111111111111110000000000000001000000001111111111111111111111111111111111111111111111111111111111111111111111111111
100000000011111111111111111111111111111111111111111111111111111111111111111111111111111111111111111111111111111111111111111111111111111111111111111111111110000000000000001000000001111111111111111111111111111111111111111111111111111111111111111111111111111
100000000111111111111111111111111111111111111111111111111111111111111111111111111111111111111111111111111111111111111111111111111111111111111111111111111110000000000000000000000001111111111111111111111111111111111111111111111111111111111111111111111111111
100000000111111111111111111111111111111111111111111111111111111111111111111111111111111111111111111111111111111111111111111111111111111111111111111111111110000000000000000000000001111111111111111111111111111111111111111111111111111111111111111111111111111
111111111111111111111111111111111111111111111111111111111111111111111111111111111111111111111111111111111111111111111111111111111111111111111111111111111111111110000000000000000000000001111111111111111111111111111111111111111111111111111111111111111111111
111111111111111111111111111111111111111111111111111111111111111111111111111100000000011111111111111111111111111111111111111111111111111111111111111111111111111111111111111111111111111111111111111111111111111111111111111111111111111111111111111111000000000
011111111111111111111111111111111111111111111111111111111111111111111111111110000000011111111111111111111111111111111111111111111111111111111111111111111111111110000000001111111111111111111111111111111111111111111111111111111111111111111111111111111111111
111111111111111111111111111111111111111111111111111111111111111111111111111110000000011111111111111111111111111111111111111111111111111111111111111111111111111110000000001111111111111111111111111111111111111111111111111111111111111111111111111111000000000
111111111111111111111111111111111111111111111111111111111111111111111111111110000000011111111111111111111111111111111111111111111111111111111111111111111111111110000000001111111111111111111111111111111111111111111111111111111111111111111111111111000000000
111111111111111111111111111111111111111111111111111111111111111111111111111110000000011111111111111111111111111111111111111111111111111111111111111111111111111111000000001111111111111111111111111111111111111111111111111111111111111111111111111111000000000
111111111110000000111111111111111111111111111111111111111111111111111111111111111111111111111111000000001111111111111111111111111111111111111111111111111111111111111111111111111111000000000111111111111111111111111111111111111111111111111111111111111111111
111111111110000000000000000000000000000000000000000000000000000000000000000000000000111111111111000000011111111111111111111111111111111111111111111111111111111111111111111111111111000000001111111111111111111111111111111111111111111111111111111111111111111
111111111110000000000000000000000000000000000000000000000000000000000000000000000000111111111111000000000000000000000000000000000000000000000000000000000000000000000000111111111111100000001111111111111111111111111111111111111111111111111111111111111111111
111111111110000000000000000000000000000000000000000000000000000000000000000000000000111111111111000000000000000000000000000000000000000000000000000000000000000000000000011111111111100000000000000000000000000000000000000000000000000000000000000000000000011
111111111110000000000000000000000000000000000000000000000000000000000000000000000000111111111111000000000000000000000000000000000000000000000000000000000000000000000000011111111111100000000000000000000000000000000000000000000000000000000000000000000000011
111111111110000000000000000000000000000000000000000000000000000000000000000000000001111111111110000000000000000000000000000000000000000000000000000000000000000000000000111111111111000000000000000000000000000000000000000000000000000000000000000000000000011
011111111111111111111111111111111111111111111111111111111111111111111111111100000000000000000000000000000000000000000000000000000000000000000000000000111111111110000000000000000000000000000000000000000000000000000000000000000000000000111111111111000000000
011111111111111111111111111111111111111111111111111111111111111111111111111110000000001111111111111111111111111111111111111111111111111111111111111111111111111110000000000000000000000000000000000000000000000000000000000000000000000000111111111111000000000
000011111111100000000000000000000000000000000000000000000000000000000000000000000000001111111111111111111111111111111111111111111111111111111111111111111111111110000000001111111111111111111111111111111111111111111111111111111111111111111111111111000000000
000000000000000000000000000000000000000000000000000000000000000000000000000000000000000000111111100000000000000000000000000000000000000000000000000000000000111110000000000111111111111111111111111111111111111111111111111111111111111111111111111111000000000
000000000000000000000000000000000000000000000000000000000000000000000000000000000000000000000000000000000000000000000000000000000000000000000000000000000000000000000000000000111111100000000000000000000000000000000000000000000000000000111111111111000000000
000000000000000000000000000000000000000000000000000000000000000000000000000000000000000000000000000000000000000000000000000000000000000000000000000000000000000000000000000000000000000000000000000000000000000000000000000000000000000000000000000000000000000
000000000000000000000000000000000000000000000000000000000000000000000000000000000000000000000000000000000000000000000000000000000000000000000000000000000000000000000000000000000000000000000000000000000000000000000000000000000000000000000000000000000000000
000000000000000000000000001111111111111111111111100000001111111111111111111111111111111111111111111111111100000000001111111111111111111111111111000000000000000000000000000000000000000000000000000000000000000000000000000000000000000000000000000000000000000
000000000000000000000000001111111111111111111100000001111111111111111111111111111111111111111111111111111111100000000011111111111111111111111111000000000000000000000000000000000000000000000000000111111111111111111111110000000011111111111111111111111111111
000000000000000000000000011111111111111111110000001111111111111111111111111111111111111111111111111111111111111100000000111111111111111111111111000000000000000000000000000000000000000000000000000011111111111111111111000000011111111111111111111111111111111
000000000000000000000000001111111111111111000000111111111111111111111111111111111111111111111111111111111111111001100000000111111111111111111111000000000000000000000000000000000000000000000000000011111111111111111000000011111111111111111111111111111111111
000000000000000000000000000011111111111100000011111111111111111111111111111111111111111111111111111111111111111101111100000001111111111111111111000000000000000000000000000000000000000000000000000011111111111111100000001111111111111111111111111111111111111
000000000000000000000000000000111111111000011111111111111111111111111111111111111111111111111111111111111111111101111111000000111111111111111111000000000000000000000000000000000000000000000000000001111111111110000001111111111111111111111111111111111111111
000000000000000000000000000111111111110000111111111111111111111111111111111111111111111111111111111111111111111111111111111001111111111111111111000000000000000000000000000000000000000000000000000000011111111100000111111111111111111111111111111111111111111
000000000000000000000000001111111111111111111111111111111111111111110000000000000000000000011111111111111111111111111111111111111111111111111111000000000000000000000000000000000000000000000000000011111111111100011111111111111111111111111111111111111111111
000000000000000000000000001111111111111111111111111111111111110000000000000000000000000000000000011111111111111111111111111111111111111111111111000000000000000000000000000000000000000000000000000111111111111111111111111111111111111111111000000000000000000
000000000000000000000000000111111111111111111111111111111000000000000000011111111111100000000000000000011111111111111111111111111111111111111111000000000000000000000000000000000000000000000000000111111111111111111111111111111111111000000000000000000000000
000000000000000000000000000011111111111111111111111110000000000011111111111111111111111111111100000000000000011111111111111111111111111111111111000000000000000000000000000000000000000000000000000001111111111111111111111111111110000000000000001111111111111
000000000000000000000000000111111111111111111111110000000000111111111111111111111111111111111111111100000000000011111111111111111111111111111111000000000000000000000000000000000000000000000000000001111111111111111111111111100000000000111111111111111111111
000000000000000000000000000111111111111111111110000000011111111111111111111111111111111111111111111111110000000000011111111111111111111111111111000000000000000000000000000000000000000000000000000001111111111111111111111100000000011111111111111111111111111
000000000000000000000000000111111111111111110000000011111111111111111111111111111111111111111111111111111111000000000011111111111111111111111111000000000000000000000000000000000000000000000000000001111111111111111111100000000111111111111111111111111111111
000000000000000000000000000011111111111111000000011111111111111111111111111111111111111111111111111111111111111100000000011111111111111111111111000000000000000000000000000000000000000000000000000001111111111111111100000001111111111111111111111111111111111
000000000000000000100000000001111111111000000011111111111111111111111111111111111111111111111111111111111111111111000000000111111111111111111111000000000000000000000000000000000000000000000000000001111111111111100000001111111111111111111111111111111111111
000000000000000000100000000001111111110000001111111111111111111111111111111111111111111111111111111111111111111111111000000001111111111111111111100000000000000000000000000000000000000000010000000000011111111100000000111111111111111111111111111111111111111
000000000000000000010000000000111111110000111111111111111111111111111111111111111111111111111111111111111111111111111111000000111111111111111111100000000000000000000000000000000000000000001000000000001111111000000011111111111111111111111111111111111111111
000000000000000000000000000000111111110011111111111111111111111111111111111111111111111111111111111111111111111111111111110000111111111111111111000000000000000000000000000000000000000000001000000000011111111000011111111111111111111111111111111111111111111
000000000000000000001000000011111111111111111111111111111111111111111111111111000011111111111111111111111111111111111111111111111111111111111111000000000000000000000000000000000000000000000100000000001111111101111111111111111111111111111111111111111111111
000000000000000000001100000111111111111111111111111111111111111100000000000000000000000000011111111111111111111111111111111111111111111111111111000000000000000000000000000000000000000000000100000000111111111111111111111111111111111111111111111111110001111
000000000000000000000100000111111111111111111111111111111110000000000000000000000000000000000000001111111111111111111111111111111111111111111111100000000000000000000000000000000000000000000010000001111111111111111111111111111111111111000000000000000000000
000000000000000000000010000011111111111111111111111111000000000000000000011111111111100000000000000000011111111111111111111111111111111111111111100000000000000000000000000000000000000000000011000001111111111111111111111111111111100000000000000000000000000
000000000000000000000010000011111111111111111111110000000000000111111111111111111111111111111000000000000000011111111111111111111111111111111111000000000000000000000000000000000000000000000001000000111111111111111111111111110000000000000000001111111111110
000000000000000000000011000001111111111111111100000000000111111111111111111111111111111111111111111000000000000001111111111111111111111111111111000000000000000000000000000000000000000000000001000000111111111111111111111000000000000011111111111111111111111
000000000000000000000001000001111111111111100000000001111111111111111111111111111111111111111111111111110000000000001111111111111111111111111110000000000000000000000000000000000000000000000000100000111111111111111111000000000001111111111111111111111111111
000000000000000000000000100011111111111100000000011111111111111111111111111111111111111111111111111111111111000000000001111111111111111111111111000000000000000000000000000000000000000000000000110000111111111111110000000000111111111111111111111111111111111
000000000000000000000000110011111111110000000011111111111111111111111111111111111111111111111111111111111111111110000000011111111111111111111111000000000000000000000000000000000000000000000000011001111111111111000000000111111111111111111111111111111111111
000000000000000000000000111011111111100000011111111111111111111111111111111111111111111111111111111111111111111111100000000011111111111111111111100000000000000000000000000000000000000000000000011000111111111000000000111111111111111111111111111111111111111
000000000000000000000000011011111111100001111111111111111111111111111111111111111111111111111111111111111111111111111100000001111111111111111111000000000000000000000000000000000000000000000000001100111111111000000111111111111111111111111111111111111111111
000000000000000000000000001111111111111111111111111111111111111111111111111111111111111111111111111111111111111111111111100001111111111111111111100000000000000000000000000000000000000000000000000110111111110000111111111111111111111111111111111111111111111
000000000000000000000000001111111111111111111111111111111111111111111111111111111111111111111111111111111111111111111111111001111111111111111110000000000000000000000000000000000000000000000000000111111111111111111111111111111111111111111111111111111111111
000000000000000000000000011111111111111111111111111111111111111111111111111111111111111111111111111111111111111111111111111111111111111111111111100000000000000000000000000000000000000000000000000011111111111111111111111111111111111111111111111111111111111
000000000000000000000000111100000000000000000000000000000000000000000000000000000000000000000000000000000000000000000000000000000000000011111111100000000000000000000000000000000000000000000000011111111111111111111111111111111111111111111111111111111111111
000000000000000000000000011111000000000000000000000000000000000000000000000000000000000000000000000000000000000000000000000000000000000011111111100000000000000000000000000000000000000000000000011111100000000000000000000000000000000000000000000000000000000
000000000000000000000000001111111111111111111111111100000000000000000000000000000000000000000000000000111111111111111111111111111111111111111111100000000000000000000000000000000000000000000000000111100000000000000000000000000000000000000000000000000000000
000000000000000000000000000111111111111111111110000000000000000001111111111111111111111100000000000000000000111111111111111111111111111111111111100000000000000000000000000000000000000000000000000111111111111111111111111110000000000000000000000000000000000
000000000000000000000000000111111111111111110000000000000011111111111111111111111111111111111111000000000000000011111111111111111111111111111111100000000000000000000000000000000000000000000000000011111111111111111111100000000000000000111111111111111111111
000000000000000000000000001111111111111100000000000011111111111111111111111111111111111111111111111111000000000000001111111111111111111111111111100000000000000000000000000000000000000000000000000011111111111111111100000000000001111111111111111111111111111
000000000000000000000000001111111111110000000000111111111111111111111111111111111111111111111111111111111110000000000001111111111111111111111111100000000000000000000000000000000000000000000000000011111111111111000000000000111111111111111111111111111111111
000000000000000000000000001111111111100000001111111111111111111111111111111111111111111111111111111111111111111000000000001111111111111111111111100000000000000000000000000000000000000000000000000111111111111000000000011111111111111111111111111111111111111
000000000000000000000000000111111111100001111111111111111111111111111111111111111111111111111111111111111111111111100000000001111111111111111111100000000000000000000000000000000000000000000000000011111111110000000011111111111111111111111111111111111111111
000000000000000000000000001111111111111111111111111111111111111111111111111111111111111111111111111111111111111111111100000001111111111111111111100000000000000000000000000000000000000000000000000011111111110000011111111111111111111111111111111111111111111
000000000000000000000000000111111111111111111111111111111111111111111111111111111111111111111111111111111100111111111111100001111111111111111111100000000000000000000000000000000000000000000000000011111111111111111111111111111111111111111111111111111111111
000000000000000000000000000111111111111111111111111111111111111111111111111111111111111111111111111111111111111111111111111101111111111111111111100000000000000000000000000000000000000000000000000001111111111111111111111111111111111111111111111111111111111
000000000000000000000000000111111111111111111111111111111111111111111111111111111111111111111111111111111111111111111111111111111111111111111111100000000000000000000000000000000000000000000000000001111111111111111111111111111111111111111111111111111111111
000000000000000000000000011111111111111111111111111111111111111111111111111111111111111111111111111111111111111111111111111111111111111111111100000000000000000000000000000000000000000000000000000011111111111111111111111111111111111111111111111111111111111
000000000000000000000000111111111111111111111111111111111111000000000000000000000000000111111111111111111111111111111111111111111111111111111111100000000000000000000000000000000000000000000000001111111111111111111111111111111111111111111111111111111111111
000000000000000000000001111111111111111111111111111111000000000000000000000000000000000000000000111111111111111111111111111111111111111111111111100000000000000000000000000000000000000000000000011111111111111111111111111111111111100000000000000000000000000
000000000000000000000000111111111111111111111110000000000000000000000000011110010000000000000000000000011111111111111111111111111111111111111111100000000000000000000000000000000000000000000000111111111111111111111111111111100000000000000000000000000000000
000000000000000000000000111111111111111111000000000000000001111111111111111111111111111111000000000000000000011111111111111111111111111111111111100000000000000000000000000000000000000000000000011111111111111111111111100000000000000000000000000111100000000
000000000000000000000000011111111111111000000000000111111111111111111111111111111111111111111111000000000000000000111111111111111111111111111111100000000000000000000000000000000000000000000000001111111111111111100000000000000000111111111111111111111111111
000000000000000000000001111111111111100100000011111111111111111111111111111111111111111111111111111111110000000000000011111111111111111111111111100000000000000000000000000000000000000000000000001111111111111110000000000001111111111111111111111111111111111
000000000000000000000000111111111111000100111111111111111111111111111111111111111111111111111111111111111111100000000000011111111111111111111111100000000000000000000000000000000000000000000000011111111111110010000001111111111111111111111111111111111111111
000000000000000000000000111111111111101111111111111111111111111111111111111111111111111111111111111111111111111110000000000011111111111111111111100000000000000000000000000000000000000000000000011111111111110001001111111111111111111111111111111111111111111
000000000000000000000000111111111111111111111111111111111111111111111111111111111111111111111111111111111111111111111000000001111111111111111111000000000000000000000000000000000000000000000000011111111111110011111111111111111111111111111111111111111111111
000000000000000000000000111111111111111111111111111111111111111111111111111111111111111111111111111111111111111111111111100001111111111110111111000000000000000000000000000000000000000000000000011111111111111111111111111111111111111111111111111111111111111
000000000000000000000000111111111111111111111111111111111111111111111111111111111111111111111111111111111111111111111111111111111111111110111111100000000000000000000000000000000000000000000000001111111111111111111111111111111111111111111111111111111111111
000000000000000000000000111111111111111111111111111111111111111111111111111111111111111111111111111111111111111111111111111111111111111111111111100000000000000000000000000000000000000000000000011111111111111111111111111111111111111111111111111111111111111
000000000000000000000000111111111111111111111111111111111111111111111111111111111111111111111111111111111111111111111111111111111111111111111111000000000000000000000000000000000000000000000000011111111111111111111111111111111111111111111111111111111111111
000000000000000000000011111111111111111111111111111111111111111111111111111111111111111111111111111111111111111111111111111111111111111111111111000000000000000000000000000000000000000000000000011111111111111111111111111111111111111111111111111111111111111
000000000000000000011111111111111111111111111111111111111100000000000000000000000000111111111111111111111111111111111111111111111111111111111111000000000000000000000000000000000000000000000001111111111111111111111111111111111111111111111111111111111111111
000000000000000000111111111111111111111111111111000000000000000000000000000000000000000000001111111111111111111111111111111111111111111111111111000000000000000000000000000000000000000000000111111111111111111111111111111111111110000000000000000000000000001
000000000000000000011111111111111111111111100100000000000000000000000000000000000000000000000000000011111111111111111111111111111111111111111111000000000000000000000000000000000000000000001111111111111111111111111111110000000000000000000000000000000000000
000000000000000000001111111111111111100000000100000000001111111111111111111111111111110000000000000000000000011111111111111111111111111111111111000000000000000000000000000000000000000000001111111111111111111111110010000000000000000000000000000000000000000
000000000000000111111111111111111111000000000011111111111111111111111111111111111111111111111100000000000000000000111111111111111111111111111111000000000000000000000000000000000000000000000111111111111111110000000001000000000111111111111111111111111111111
000000000000000111111111111111111111000001111110000000000000000000000000000000000000000000000000000000000000000000000111111111111111111111111111000000000000000000000000000000000000000001111111111111111111100000000001111111111111111111111111111111111111111
000000000000000000001111111111111111111111111111000000000000000000000000000000000000000000000000000000000000000000001000011111111111111111111111000000000000000000000000000000000000000011111111111111111111100000011111100000000000000000000000000000000000000
000000000000000000001111111111111111111111111111111111111111111111111111111111111111111111111111111111111111111100000000000001111111111111111111000000000000000000000000000000000000000000000111111111111111111111111111100000000000000000000000000000000000000
000000000000000000000111111111111111111111111111111111111111111111111111111111111111111111111111111111111111111111111000000001111111111111111111000000000000000000000000000000000000000000000011111111111111111111111111111111111111111111111111111111111111111
000000000000000000000111111111111111111111111111111111111111111111111111111111111111111111111111111111111111011110111111110001111111111111111111000000000000000000000000000000000000000000000001111111111111111111111111111111111111111111111111111111111111111
000000000000000000000111111111111111111111111111111111111111111111111111111111111111111111111111111111111111111111111111111111111111111111111111000000000000000000000000000000000000000000000001111111111111111111111111111111111111111111111111111111111111111
000000000000000000001111111111111111111111111111111111111111111111111111111111111111111111111111111111111111111111100001111111111111111111111111000000000000000000000000000000000000000000000011111111111111111111111111111111111111111111111111111111111111111
000000000000000000001111111111111111111111111111111111111111111111111111111111111111111111111111111111111111111111111111111111111111111111111111000000000000000000000000000000000000000000000011111111111111111111111111111111111111111111111111111111111111111
000000000000000000011111111111111111111111111111111111111111111111111111111111111111111111111111111111111111111111111111111111111111110111111111000000000000000000000000000000000000000000000011111111111111111111111111111111111111111111111111111111111111111
000000000000000001111111111111111111111111111111111111111000000000000000000000111111111111111111111111111111111111111111111111111111111111111110000000000000000000000000000000000000000000001111111111111111111111111111111111111111111111111111111111111111111
000000000000000111111111111111111111111111110000000010000000000000000000000000000000000111111111111111111111111111111111111111111111111111111110000000000000000000000000000000000000000000111111111111111111111111111111111111111110000000000000000000011111111
000000000000000111111111111111111111100000000000000010000000000000000000000000000000000000000001111111111111111111111111111111111111111111111111000000000000000000000000000000000000000001111111111111111111111111111100000000000000000000000000000000000000000
000000000000000011111111111111111110000000000000000001000111111111111111111111100000000000000000000000000011111111111111111111111111111111111110000000000000000000000000000000000000000001111111111111111111110000000000000000100000000000000000000000000000000
000000000000000111111111111111111110000000001111111111111111111111111111111111111111111000000000000000000000000000111111111111111111111111111110000000000000000000000000000000000000000001111111111111111111100000000000000000110011111111111111111111111000000
000000000000000111111111111111111111111111111111111111111111111111111111111111111111111111111111100000000000000000000000111111111111111111111110000000000000000000000000000000000000000001111111111111111111100000000011111111111111111111111111111111111111111
000000000000000011111111111111111111111111111111111111111111111111111111111111111111111111111111111111110000000000000000000011111111111111111110000000000000000000000000000000000000000001111111111111111111111111111111111111111111111111111111111111111111111
000000000000000001111111111111111111111111111111111111111111111111111111111111111111111111111111111111111111111000000000000011111111111111111110000000000000000000000000000000000000000001111111111111111111111111111111111111111111111111111111111111111111111
000000000000000001111111111111111111111111111111111111111111111111111111111111111111111111111111111111111111111111111000000011111111111111111000000000000000000000000000000000000000000000111111111111111111111111111111111111111111111111111111111111111111111
000000000000000001111111111111111111111111111111111111111111111111111111111111111111111111111111111111111111111111111111110011111111111111110000000000000000000000000000000000000000000000011111111111111111111111111111111111111111111111111111111111111111111
000000000000000001111111111111111111111111111111111111111111111111111111111111111111111111111111111111111111111111111111111111111111110000000000000000000000000000000000000000000000000000011111111111111111111111111111111111111111111111111111111111111111111
000000000000000001111111111111111111111111111111111111111111111111111111111111111111111111111111111111111111111111111111111111111111111111000000000000000000000000000000000000000000000000011111111111111111111111111111111111111111111111111111111111111111111
000000000000000001111111111111111111111111111111111111111111111111111111111111111111111111111111111111111111111111111111111111111111111110100110000000000000000000000000000000000000000000111111111111111111111111111111111111111111111111111111111111111111111
000000000000000001111111111111111111111111111111111111111111000000000000000000000000000000000000000000000001111111000011111111111100111111110000000000000000000000000000000000000000000000111111111111111111111111111111111111111111111111111111111111111111111
000000000000000111111111111111111111111111111111111111111111000000000000000000000000000000000000000000000001111111101111111111111111111110011010000000000000000000000000000000000000000000111111111111111111111111111111111111111111100000000000000000000000000
000000000000001111111111111111111111111000000000000000000000000000000000000000111111111111111111111111111111111111111111111111111111111111111110000000000000000000000000000000000000000001111111111111111111111111111111111111111111100000000000000000000000000
000000000000011111111111111111111110000000000000000000000000100000000000000000000000000001111111111111111111111111111111111111111111111111111110000000000000000000000000000000000000000111111111111111111111111100000000000000000000010000000000000000011111111
000000000000011111111111111111111110000000000000000000000000010000000000000000000000000000000000000011111111111111111111111111111111111111111110000000000000000000000000000000000000001111111111111111111111100000000000000000000000000000000000000000000000000
000000000000011111111111111111111110000000000011111111111111111111111111010000000000000000000000000000000000000111111111111111111111111111111110000000000000000000000000000000000000001111111111111111111111100000000000000000000000001000000000000000000000000
000000000000011111111111111111111111111111111111111111111111111111111111111111111100000000000000000000000000000000000000111111111111111111111110000000000000000000000000000000000000001111111111111111111111100000000000111111111111111111111111111100000000000
000000000000011111111111111111111111111111111111110111000000001100111111111111111111111111111111100000000000000000000000000111111111111111111110000000000000000000000000000000000000001111111111111111111111111111111111111111111111111111111111111111111111100
000000000000111111111111111111111110000000000000000000000000000100000000000000111111111111111111111111111111000000000000000111111111111111111110000000000000000000000000000000000000001111111111111111111111111111111111111101100000000110011111111111111111111
000000000000011111111111111111111110000000000000000000000000000100000000000000000000000000111111111111111111111111111100000111111111111111111110000000000000000000000000000000000000001111111111111111111111100000000000000000000000000000000000000000011111111
000000000000011111111111111111111111000000000000000000000000000000000000000000000000000000000000000100111111111111111111111111111111111111111110000000000000000000000000000000000000000111111111111111111111100000000000000000000000000000000000000000000000000
000000000000111111111111111111111111000000000000000000000000000001000000000000000000000000000000001100000000000111111111111111111111111111111110000000000000000000000000000000000000001111111111111111111111100000000000000000000000000000100000000000000000000
000000000000111111111111111111111111000000000000000000000000000000100000000000000000000000000000001000000000000000000011111111111111111111111110000000000000000000000000000000000000001111111111111111111111100000000000000000000000000000000000000000000000000
000000000000011111111111111111111111000000000000000000000000000000100000000000000000000000000000010000000000000000000000000111111111111111111110000000000000000000000000000000000000001111111111111111111111100000000000000000000000000000010000000000000000000
000000000000011111111111111111111111000000000000000000000000000000011111111111111111111111111111100000000000000000000000000011111111111111111110000000000000000000000000000000000000000111111111111111111111100000000000000000000000000000001000000000000000000
000000000001111111111111111111111111000000000000000000000000000000011111111111111111111111111111100000000000000000000000000011111111111111111110000000000000000000000000000000000000000111111111111111111111100000000000000000000000000000001111111111111111111
000000000001111111111111111111111111000000000000000000000000000000000000000000000000000000000000000000000000000000000001111111111111111111111110000000000000000000000000000000000000011111111111111111111111100000000000000000000000000000000111111111111111111
000000000001111111111111111111111111000000000000000000000000000000000000000000000000000000000000000000000000000000000000111111111111111111111110000000000000000000000000000000000000111111111111111111111111100000000000000000000000000000000000000000000000000
000000000000111111111111111111111111000000000000000000000000000000000000000000000000000000000000000000000000000000000000011111111111111111111110000000000000000000000000000000000000011111111111111111111111100000000000000000000000000000000000000000000000000
000000000000011111111111111111111111111111111111111111111111000000000000000000000000000000000000000000000000000000000000000111111111111111111110000000000000000000000000000000000000011111111111111111111111100000000000000000000000000000000000000000000000000
000000000000011111111111111111111111111111111111111111111111111111111111111111110000000000000000000000000000000000000000000111111111111111111110000000000000000000000000000000000000001111111111111111111111111111111111111111111111000000000000000000000000000
000000000000011111111111111111111111000000000000001111111111111111111111111111111111111111111100000000000000000000000000000111111111111111111110000000000000000000000000000000000000000111111111111111111111111111111111111111111111111111111111111111110000000
000000000000001111111111111111111111000000000000000000000000000000000111111111111111111111111111111111111111000000000000000111111111111111111100000000000000000000000000000000000000000111111111111111111111100000000000000111111111111111111111111111111111111
000000000000001111111111111111111111000000000000000000000000000000000000000000000000011111111111111111111111111111111111100111111111111111111110000000000000000000000000000000000000000111111111111111111111100000000000000000000000000000000001111111111111111
000000000000011111111111111111111111000000000000000000000000000000000000000000000000000000000000111111111111111111111111111111111111111111111100000000000000000000000000000000000000000111111111111111111111100000000000000000000000000000000000000000000000000
000000000000111111111111111111111111000000000000000000000000000000000000000000000000000000000000000000000000011111111111111111111111111111111100000000000000000000000000000000000000000111111111111111111111100000000000000000000000000000000000000000000000000
000000000000111111111111111111111111000000000000000000000000000000000000000000000000000000000000000000000000000000000000011111111111111111111100000000000000000000000000000000000000001111111111111111111111100000000000000000000000000000000000000000000000000
000000000001111111111111111111111111000000000000000000000000000000000000000000000000000000000000000000000000000000011111111111111111111111111100000000000000000000000000000000000000011111111111111111111111100000000000000000000000000000000000000000000000000
000000000001111111111111111111111111000000000000000000000000000000000000000000000000000000000000000000000000000000000011111111111111111111111100000000000000000000000000000000000000111111111111111111111111100000000000000000000000000000000000000000000000000
000000000000111111111111111111111111000000000000000000000000000000000000000000000000000000000000000000000000000000000000111111111111111111111100000000000000000000000000000000000000111111111111111111111111110000000000000000000000000000000000000000000000000
000000000000011111111111111111111111000000000000000000000000000000000000000000000000000000000000000000000000000000000000111111111111111111111100000000000000000000000000000000000000001111111111111111111111110000000000000000000000000000000000000000000000000
000000000000011111111111111111111111000000000000000000000000000000000000000000000000000000000000000000000000000000000000111111111111111111111100000000000000000000000000000000000000001111111111111111111111110000000000000000000000000000000000000000000000000
000000000000011111111111111111111111111111111100000000000000000000000000000000000000000000000000000000000000000000000000001111111111111111111100000000000000000000000000000000000000001111111111111111111111110000000000000000000000000000000000000000000000000
000000000000011111111111111111111111111111111111111111111100000000000000000000000000000000000000000000000000000000000000001111111111111111111100000000000000000000000000000000000000001111111111111111111111111111111110000000000000000000000000000000000000000
000000000000011111111111111111111111000000011111111111111111111111111111111110000000000000000000000000000000000000000000000111111111111111111000000000000000000000000000000000000000001111111111111111111111111111111111111111111110000000000000000000000000000
000000000000011111111111111111111111000000000000000000001111111111111111111111111111111111111000000000000000000000000000000111111111111111111000000000000000000000000000000000000000000111111111111111111111110000000111111111111111111111111111111111000000000
000000000000001111111111111111111111000000000000000000000000000000000001111111111111111111111111111111111110000000000000000111111111111111111000000000000000000000000000000000000000000111111111111111111111110000000000000000000111111111111111111111111111111
000000000000011111111111111111111111000000000000000000000000000000000000000000000000111111111111111111111111111111111111111111111111111111111000000000000000000000000000000000000000000111111111111111111111110000000000000000000000000000000000111111111111111
000000000000111111111111111111111111000000000000000000000000000000000000000000000000000000000000011111111111111111111111111111111111111111111000000000000000000000000000000000000000001111111111111111111111110000000000000000000000000000000000000000000000011
000000000000011111111111111111111111000000000000000000000000000000000000000000000000000000000000000000000000000000001111111111111111111111111000000000000000000000000000000000000000001111111111111111111111110000000000000000000000000000000000000000000000000
000000000000011111111111111111111111000000000000000000000000000000000000000000000000000000000000000000000000000000001111111111111111111111111000000000000000000000000000000000000000001111111111111111111111110000000000000000000000000000000000000000000000000
000000000000011111111111111111111111000000000000000000000000000000000000000000000000000000000000000000000000000000000111111111111111111111111000000000000000000000000000000000000000001111111111111111111111110000000000000000000000000000000000000000000000000
000000000000011111111111111111111111000000000000000000000000000000000000000000000000000000000000000000000000000000000111111111111111111111111000000000000000000000000000000000000000000111111111111111111111110000000000000000000000000000000000000000000000000
000000000000011111111111111111111111000000000000000000000000000000000000000000000000000000000000000000000000000000001111111111111111111111111000000000000000000000000000000000000000000111111111111111111111110000000000000000000000000000000000000000000000000
000000000000011111111111111111111111100000000000000000000000000000000000000000000000000000000000000000000000000000000011111111111111111111111000000000000000000000000000000000000000000111111111111111111111110000000000000000000000000000000000000000000000000
000000000000011111111111111111111111111111111000000000000000000000000000000000000000000000000000000000000000000000000000011111111111111111111000000000000000000000000000000000000000000111111111111111111111110000000000000000000000000000000000000000000000000
000000000000011111111111111111111111111111111111111111100000000000000000000000000000000000000000000000000000000000000000001111111111111111110000000000000000000000000000000000000000000111111111111111111111111111111100000000000000000000000000000000000000000
000000000000011111111111111111111111000000000111111111111111111111000000000000000000000000000000000000000000000000000000011111111111111111110000000000000000000000000000000000000000000111111111111111111111110111111111111111110000000000000000000000000000000
000000000000001111111111111111111111000000000000000011111111111111111111111111111000000000000000000000000000000000000000001111111111111111110000000000000000000000000000000000000000000111111111111111111111110000000011111111111111111111100000000000000000000
000000000000001111111111111111111111000000000000000000000000001111111111111111111111111111111111100000000000000000000000011111111111111111110000000000000000000000000000000000000000000111111111111111111111110000000000000000111111111111111111111111111100000
000000000000001111111111111111111111000000000000000000000000000000000000011111111111111111111111111111111111111111111111111111111110111111100000000000000000000000000000000000000000000011111111111111111111110000000000000000000000000011111111111111111111111
000000000000111111111111111111111111000000000000000000000000000000000000000000000000000111111111111111111111111111111111111111111111111111110000000000000000000000000000000000000000000111111111111111111111110000000000000000000000000000000000000111111111111
000000000000111111111111111111111111000000000000000000000000000000000000000000000000000000000000000000000000000000010000011111111111111111110000000000000000000000000000000000000000011111111111111111111111110000000000000000000000000000000000000000000000000
000000000000011111111111111111111111000000000000000000000000000000000000000000000000000000000000000000000000000000000001111111111111111111110000000000000000000000000000000000000000011111111111111111111111110000000000000000000000000000000000000000000000000
000000000000011111111111111111111111000000000000000000000000000000000000000000000000000000000000000000000000000000001111111111111111111111100000000000000000000000000000000000000000000111111111111111111111110000000000000000000000000000000000000000000000000
000000000000011111111111111111111111000000000000000000000000000000000000000000000000000000000000000000000000000000000111111111111111111111100000000000000000000000000000000000000000000111111111111111111111110000000000000000000000000000000000000000000000000
000000000000001111111111111111111111000000000000000000000000000000000000000000000000000000000000000000000000000000000011111111111111111111100000000000000000000000000000000000000000000111111111111111111111110000000000000000000000000000000000000000000000000
000000000000001111111111111111111111110000000000000000000000000000000000000000000000000000000000000000000000000000000001111111111111111111100000000000000000000000000000000000000000000111111111111111111111110000000000000000000000000000000000000000000000000
000000000000011111111111111111111111111111111000000000000000000000000000000000000000000000000000000000000000000000000000111111111111111111100000000000000000000000000000000000000000000111111111111111111111111100000000000000000000000000000000000000000000000
000000000000111111111111111111111111000111111111111110000000000000000000000000000000000000000000000000000000000000000000111111111111111111100000000000000000000000000000000000000000001111111111111111111111111111111100000000000000000000000000000000000000000
000000000000111111111111111111111111000000000011111111111111111110000000000000000000000000000000000000000000000000000000011111111111111111100000000000000000000000000000000000000000011111111111111111111111110001111111111111100000000000000000000000000000000
000000000000000111111111111111111111000000000000000000011111111111111111111100000000000000000000000000000000000000000000011111111111111111000000000000000000000000000000000000000000011111111111111111111111110000000001111111111111111111000000000000000000000
000000000000000111111111111111111111000000000000000000000000000111111111111111111111111111111111111111111111111111111111111111111111111111000000000000000000000000000000000000000000000011111111111111111111110000000000000000001111111111111111111111000000000
000000000000001111111111111111111111000000000000000000000000000000000000111111111111111111111111111111111111111111111111111111111111111111000000000000000000000000000000000000000000000011111111111111111111110000000000000000000000000011111111111111111111111
000000000000011111111111111111111111000000000000000000000000000000000000000000000001111111111111111111111111111111000000111111111111111111000000000000000000000000000000000000000000000011111111111111111111110000000000000000000000000000000000011111111111111
000000000000111111111111111111111111000000000000000000000000000000000000000000000000000000000000000000000000000000000011111111111111111111000000000000000000000000000000000000000000000111111111111111111111110000000000000000000000000000000000000000000000011
000000000000111111111111111111111111000000000000000000000000000000000000000000000000000000000000000000000000000000000111111111111111111111000000000000000000000000000000000000000000001111111111111111111111110000000000000000000000000000000000000000000000000
000000000000011111111111111111111111000000000000000000000000000000000000000000000000000000000000000000000000000000011111111111111111111111000000000000000000000000000000000000000000001111111111111111111111110000000000000000000000000000000000000000000000000
000000000000011111111111111111111111000000000000000000000000000000000000000000000000000000000000000000000000000000000111111111111111111111000000000000000000000000000000000000000000001111111111111111111111110000000000000000000000000000000000000000000000000
000000000000011111111111111111111111100000000000000000000000000000000000000000000000000000000000000000000000000000001111111111111111111111000000000000000000000000000000000000000000000111111111111111111111110000000000000000000000000000000000000000000000000
000000000000001111111111111111111111111111000000000000000000000000000000000000000000000000000000000000000000000000000011111111111111111110000000000000000000000000000000000000000000000111111111111111111111111000000000000000000000000000000000000000000000000
000000000000001111111111111111111111111111111110000000000000000000000000000000000000000000000000000000000000000000000010111111111111111110000000000000000000000000000000000000000000000111111111111111111111111111100000000000000000000000000000000000000000000
000000000000001111111111111111111111000000111111111111100000000000000000000000000000000000000000000000000000000000000000111111111111111110000000000000000000000000000000000000000000000111111111111111111111111111111111000000000000000000000000000000000000000
000000000000000111111111111111111111100000000000111111111111111110000000000000000000000000000000000000000000000000000000111111111111111111000000000000000000000000000000000000000000000011111111111111111111111000001111111111111000000000000000000000000000000
000000000000000111111111111111111111100000000000000000011111111111111111111111100000000000000000000000000000111111111111111111111111111110000000000000000000000000000000000000000000000011111111111111111111110000000000011111111111111110000000000000000000000
000000000000011111111111111111111111100000000000000000000000000011111111111111111111111111111111111111111111111111111111000111111100000000000000000000000000000000000000000000000000000001111111111111111111111000000000000000000011111111111111111111111000000
000000000000111111111111111111111111100000000000000000000000000000000000000111111111111111111111111111111111000000000000111111111111111110000000000000000000000000000000000000000000001111111111111111111111110000000000000000000000000001111111111111111111111
000000000000011111111111111111111111100000000000000000000000000000000000000000000000000000000000000000000000000000000111111111111111111110000000000000000000000000000000000000000000001111111111111111111111111000000000000000000000000000000000000011111111111
000000000000001111111111111111111111100000000000000000000000000000000000000000000000000000000000000000000000000000000111111111111111111100000000000000000000000000000000000000000000001111111111111111111111110000000000000000000000000000000000000000000000000
000000000000001111111111111111111111100000000000000000000000000000000000000000000000000000000000000000000000000000000111111111111111111100000000000000000000000000000000000000000000000111111111111111111111110000000000000000000000000000000000000000000000000
000000000000001111111111111111111111100000000000000000000000000000000000000000000000000000000000000000000000000000000111111111111111111100000000000000000000000000000000000000000000000011111111111111111111110000000000000000000000000000000000000000000000000
000000000000001111111111111111111111110000000000000000000000000000000000000000000000000000000000000000000000000000000111111111111111111110000000000000000000000000000000000000000000000011111111111111111111111000000000000000000000000000000000000000000000000
000000000000011111111111111111111111111111000000000000000000000000000000000000000000000000000000000000000000000000000011111111111111111100000000000000000000000000000000000000000000000111111111111111111111111100000000000000000000000000000000000000000000000
000000000000011111111111111111111111111111111100000000000000000000000000000000000000000000000000000000000000000000000011111111111111111100000000000000000000000000000000000000000000000111111111111111111111111111100000000000000000000000000000000000000000000
000000000000000111111111111111111111110000111111110000000000000000000000000000000000000000000000000000000000000000000001111111111111111100000000000000000000000000000000000000000000000111111111111111111111111111111110000000000000000000000000000000000000000
000000000000000011111111111111111111110000000011111111111000000000000000000000000000000000000000000000000000000000001111111111111111111100000000000000000000000000000000000000000000000001111111111111111111111000011111111100000000000000000000000000000000000
000000000000000011111111111111111111110000000000000111111111111111110000000000000000000000000000000000011111111111111111111111111111111100000000000000000000000000000000000000000000000001111111111111111111111000000000111111111110000000000000000000000000000
000000000000000011111111111111111111110000000000000000000011111111111111111111111111111111111111111111111111111110000000011111111111011000000000000000000000000000000000000000000000000001111111111111111111111000000000000001111111111111111000000000000000000
000000000000001111111111111111111111110000000000000000000000000000011111111111111111111111111111111111110000000000000000111111111111111100000000000000000000000000000000000000000000000001111111111111111111111000000000000000000001111111111111111111111111111
000000000000011111111111111111111111110000000000000000000000000000000000000000000000000000000000000000000000000000111111111111111111111100000000000000000000000000000000000000000000000011111111111111111111111000000000000000000000000000001111111111111111111
000000000000001111111111111111111111110000000000000000000000000000000000000000000000000000000000000000000000000000000111111111111111111100000000000000000000000000000000000000000000000111111111111111111111111100000000000000000000000000000000000000000000000
000000000000001111111111111111111111110000000000000000000000000000000000000000000000000000000000000000000000000000001111111111111111111000000000000000000000000000000000000000000000000111111111111111111111111000000000000000000000000000000000000000000000000
000000000000001111111111111111111111110000000000000000000000000000000000000000000000000000000000000000000000000000001111111111111111111000000000000000000000000000000000000000000000000111111111111111111111111100000000000000000000000000000000000000000000000
000000000000001111111111111111111111111110000000000000000000000000000000000000000000000000000000000000000000000000001111111111111111111000000000000000000000000000000000000000000000000011111111111111111111111100000000000000000000000000000000000000000000000
000000000000001111111111111111111111111111110000000000000000000000000000000000000000000000000000000000000000000000000111111111111111111000000000000000000000000000000000000000000000000011111111111111111111111111000000000000000000000000000000000000000000000
000000000000000111111111111111111111110001111110000000000000000000000000000000000000000000000000000000000000000000000001111111111111111000000000000000000000000000000000000000000000000011111111111111111111111111111000000000000000000000000000000000000000000
000000000000000011111111111111111111110000001111111000000000000000000000000000000000000000000000000000000000000000111111111111111111110000000000000000000000000000000000000000000000000001111111111111111111111100011111100000000000000000000000000000000000000
000000000000000001111111111111111111110000000000111111111000000000000000000000000000000000000000000000000011111111111111111111111111110000000000000000000000000000000000000000000000000000111111111111111111111100000011111110000000000000000000000000000000000
000000000000000001111111111111111111110000000000000011111111111110000000000000000000000000000000001111111111111111100001111111111111110000000000000000000000000000000000000000000000000000111111111111111111111100000000011111111100000000000000000000000000000
000000000000000001111111111111111111111000000000000000000011111111111111111111111111111111111111111111110000000000000001111111111111110000000000000000000000000000000000000000000000000000111111111111111111111100000000000001111111111111100000000000000000000
000000000000001111111111111111111111111000000000000000000000000001111111111111111111111111111110000000000000000000000011111111111111110000000000000000000000000000000000000000000000000000111111111111111111111100000000000000000001111111111111111111111111111
000000000000001111111111111111111111111000000000000000000000000000000000000000000000000000000000000000000000000000011111111111111111110000000000000000000000000000000000000000000000000111111111111111111111111100000000000000000000000000111111111111111111111
000000000000001111111111111111111111111000000000000000000000000000000000000000000000000000000000000000000000000000011111111111111111100000000000000000000000000000000000000000000000000111111111111111111111111100000000000000000000000000000000000000000000000
000000000000001111111111111111111111111000000000000000000000000000000000000000000000000000000000000000000000000000111111111111111111100000000000000000000000000000000000000000000000000111111111111111111111111100000000000000000000000000000000000000000000000
000000000000001111111111111111111111111111000000000000000000000000000000000000000000000000000000000000000000000000111111111111111111100000000000000000000000000000000000000000000000000111111111111111111111111110000000000000000000000000000000000000000000000
000000000000000111111111111111111111111111110000000000000000000000000000000000000000000000000000000000000000000000010111111111111111100000000000000000000000000000000000000000000000000111111111111111111111111111100000000000000000000000000000000000000000000
000000000000000011111111111111111111111000111111000000000000000000000000000000000000000000000000000000000000000000001111111111111111100000000000000000000000000000000000000000000000000011111111111111111111111111111100000000000000000000000000000000000000000
000000000000000001111111111111111111111000000111111100000000000000000000000000000000000000000000000000000000000111111111111111111111100000000000000000000000000000000000000000000000000000111111111111111111111110001111100000000000000000000000000000000000000
000000000000000001111111111111111111111000000000111111110000000000000000000000000000000000000000000000000111111111111111111111111111100000000000000000000000000000000000000000000000000000011111111111111111111110000011111110000000000000000000000000000000000
000000000000000000111111111111111111111000000000000011111111100000000000000000000000000000000000000111111111111000000011111111111111100000000000000000000000000000000000000000000000000000011111111111111111111110000000001111111000000000000000000000000000000
000000000000000000111111111111111111111100000000000000001111111111111110000000000000000000011111111111111000000000000011111111111111000000000000000000000000000000000000000000000000000000011111111111111111111110000000000001111111111000000000000000000000000
000000000000001111111111111111111111111000000000000000000000001111111111111111111111111111111111100000000000000000000111111111111111000000000000000000000000000000000000000000000000000000011111111111111111111110000000000000000011111111111111100000000000000
000000000000111111111111111111111111111000000000000000000000000000000001111111111111111111000000000000000000000000000111111111111111000000000000000000000000000000000000000000000000000011111111111111111111111110000000000000000000000111111111111111111111111
000000000000111111111111111111111111111100000000000000000000000000000000000000000000000000000000000000000000000000011111111111111111000000000000000000000000000000000000000000000000011111111111111111111111111110000000000000000000000000000000011111111111111
000000000000111111111111111111111111111111000000000000000000000000000000000000000000000000000000000000000000000000011111111111111111000000000000000000000000000000000000000000000000011111111111111111111111111110000000000000000000000000000000000000000000000
000000000000111111111111111111111111111111110000000000000000000000000000000000000000000000000000000000000000000000110111111111111111000000000000000000000000000000000000000000000000011111111111111111111111111111100000000000000000000000000000000000000000000
000000000000000001111111111111111111111111111110000000000000000000000000000000000000000000000000000000000000000000001111111111111111000000000000000000000000000000000000000000000000011111111111111111111111111111111100000000000000000000000000000000000000000
000000000000000000111111111111111111111111111111110000000000000000000000000000000000000000000000000000000000000111111111111111111111000000000000000000000000000000000000000000000000000000111111111111111111111111111111000000000000000000000000000000000000000
000000000000000000111111111111111111111111111111111110000000000000000000000000000000000000000000000000000011111111111111111111111110000000000000000000000000000000000000000000000000000000011111111111111111111111111111111000000000000000000000000000000000000
000000000000000000111111111111111111111111111111111111111000000000000000000000000000000000000000000000111111111111111111111111111110000000000000000000000000000000000000000000000000000000011111111111111111111111111111111111000000000000000000000000000000000
000000000000000000011111111111111111111111111111111111111111110000000000000000000000000000000000111111111111111111111111111111111110000000000000000000000000000000000000000000000000000000001111111111111111111111111111111111111110000000000000000000000000000
000000000000000000011111111111111111111111111111111111111111111111111111000000000000000011111111111111111111111111111111111000000000000000000000000000000000000000000000000000000000000000001111111111111111111111111111111111111111111100000000000000000000000
000000000000000000011111111111111111111111111111111111111111111111111111111111111111111111110111110000111111111111111111111000000000000000000000000000000000000000000000000000000000000000001111111111111111111111111111111111111111111111111111100000000000000
000000000000000000011111111111111111111111111111111111111111111111111111111111111111111111111111111111111111111111111111101111000000000000000000000000000000000000000000000000000000000000001111111111111111111111111111111111111111111111111111111111111111111
000000000000000000111111111111111111111111111111111111111111111111111111111111111111111111111111111111111111111111111111111110000000000000000000000000000000000000000000000000000000000000001111111111111111111111111111111111111111111111111111111111111111111
000000000000000000111111111111111111111111111111111111111111111111111111111111111111111111111111111111111111111111111111110110000000000000000000000000000000000000000000000000000000000000001111111111111111111111111111111111111111111111111111111111111111111
000000000000000000111111111111111111111111111111111111111111111111111111111111111111111111111111111111111111111111111111111111000000000000000000000000000000000000000000000000000000000000001111111111111111111111111111111111111111111111111111111111111111111
000000000000000001111111111111111111111111111111111111111111111111111111111111100101111111111111111111111111111111111111111111000000000000000000000000000000000000000000000000000000000000011111111111111111111111111111111111111111111111111111111111111111111
000000000000000001111111111111111111111111111111111111111111111111111111111111111111111111111111111111111111111111111111111100000000000000000000000000000000000000000000000000000000000000011111111111111111111111111111111111111111111111111111111111111111111
000000000000000001111111111111111111111111111111111111111111111111111111111111111111111111111111111111111111111111111111111110000000000000000000000000000000000000000000000000000000000000011111111111111111111111111111111111111111111111111111111111111111111
000000000000000001111111111111111111111111111111111111111111111111111111111111111111111111111111111111111111111111111111111111100000000000000000000000000000000000000000000000000000000000011111111111111111111111111111111111111111111111111111111111111111111
000000000001000001111111111111111111111111111111111111111111111111111111111111111111111111111111111111111111111111111111110111000000000000000000000000000000000000000000000000000000000000011111111111111111111111111111111111111111111111111111111111111111111
000000000001100001111111111111111111111111111111111111111111111111111111111111111111111111111111111111111111111111111111110000000000000000000000000000000000000000000000000000000000000000011111111111111111111111111111111111111111111111111111111111111111111
000000000000100001111111111111111111111111111111111111111111111111111111111111111111111111111111111111111111111111111011111100000000000000000000000000000000000000000000000000000000010000011111111111111111111111111111111111111111111111111111111111111111111
000000000000110001111111111111111111111111111111111111111111111111111111111111111111111111111111111111111111111111111111111000000000000000000000000000000000000000000000000000000000011000111111111111111111111111111111111111111111111111111111111111111111111
000000000000110001111111111111111111111111111111111111111111111111111111111111111111111111111111111111111111111111111111010000000000000000000000000000000000000000000000000000000000011000011111111111111111111111111111111111111111111111111111111111111111111
000000000000111001111111111111111111111111111111111111111111111111111111111111111111111111111111111111111111111111111111111111000000000000000000000000000000000000000000000000000000001100011111111111111111111111111111111111111111111111111111111111111111111
000000000000111001111111111111111111111111111111111111111111111111111111111111111111111111111111111111111111111111111111111110000000000000000000000000000000000000000000000000000000001100011111111111111111111111111111111111111111111111111111111111111111111
